{
"boundingBox":{
"max":[
55.495170593261719,
32.501979827880859,
6.4878273010253906
],
"min":[
-57.024864196777344,
-32.298015594482422,
-5.4878253936767578
]
},
"colors":"",
"compression":{
"compressed":true,
"compressedColorsRange":255,
"compressedUnitVectorRange":1023,
"compressedVertsRange":16383
},
"indexLengths":[
72
],
"indexModes":[
"Triangles"
],
"indices":"#%%#%(+%%#%(+%%#%(+%%#%(+*)#'$&$-#%,+>)#;$'>$#C$'%B#$C'%6#$7@C$#>$2O$#J$",
"name":"Lib_Table1Rug_MESH01",
"normals":"̶֫#̷֪###̶֫#̷֪#########o###С#########################ߑ###ϒ###ϓ###ϒ#########Ʃ###",
"textureCoords":[
{
"UVOffsets":[
51.414689891086198,
1803.2538216548919
],
"UVScales":[
2.8828812237772804e-05,
5.4986585462107178e-05
],
"UVs":"ࡥ#Β#ΓΒ#Γ猥#ΐ#Αΐ#Αӝ#䀔#䀮#ӵΓ澷Α#猓#猒耡$Ȏ#縲猓#猒耡#Ȑ#ȑȐȑȐ#ȏ૮###"
}
],
"vertexCount":26,
"vertexOffsets":{
"xOffset":-4151.4311290388414,
"yOffset":-2351.3074381454421,
"zOffset":-399.51571110145721
},
"vertexScale":0.013736194200090222,
"vertices":"䀡㽂#㽃䀠###䀡㽂#㽃䀠#############ʃ#Ġ#ġĠ#ġ⅁#Ġ#ġĠ#ġſ#ኌ#ኒ#ƅġ⁃ġ۱###۰#ı#ף###۰#ı#İıİı#İؑ###"
}