{
"boundingBox":{
"max":[
224.0,
40.000051975250244,
404.21054077148437
],
"min":[
-224.0,
-40.000058650970459,
-0.0557861328125
]
},
"colors":"ȡ#######################################################################################################################################################################################################################################################################################################################################################################################################################################################################################################################################################################ȡ######################################################################################################################################################################################################################################################################################################################################################################################################################################################################################################################################################################ȡ######################################################################################################################################################################################################################################################################################################################################################################################################################################################################################################################################################################ȡ######################################################################################################################################################################################################################################################################################################################################################################################################################################################################################################################################################################",
"compression":{
"compressed":true,
"compressedColorsRange":255,
"compressedUnitVectorRange":1023,
"compressedVertsRange":16383
},
"indexLengths":[
1116
],
"indexModes":[
"Triangles"
],
"indices":"#%%%(''$$)%%#%(+%%#%(+%%#%(+%(#$)'%%#%(+%%#%(+%%#%(+L$#Q$'J)#G$'%%#%(+%%#%(+%%#%(+%%#%(+%%&'>)5:A%%#%(+%%#%(+%%#%(+%&#)&6=:=%&#<?'%%#%(+%%#%(+% #$¡'%%#%(+%%#%(R)'Q%%#%(+%%#%($#%~)$)#%P1%#0$5%.#$/¯%ª#$«'Ü$#á$'%%%%%%%%%%%#%(+%%%%%%%%%%%%%%%%%%%%%%%%#) $§#$¢ċ$#¡$'&%#'$|}%#|$Ă$#ć$'&%#'$'%%%%%%%%%%%%%%%%%%%%%%%%%%%%%%%%%%%%F'E%%%%%%%%%%%%%%%%%%%%%%%%%%%%%%%%%%%%%%%%%%%%%%%%%%%%%%%Ȇ#ȉ&)%%%%%%%%%%%%%%%%%%%%%%%%%%%%%%%%%%%%%%%%%%%%%%%żſƂ%ƃƀƃ%%%%%%%%%%%%%ʂ#$ʃ'%%#%(+%%#%(+%%%%%%%%%%%%%%%%%%%%%%%Z$Ǵ#$ǹ+$Ǹ#$ǽU%%%%%Ȋ%ƽ#$Ƽȍ%%%%%%%%%%%%%%%%%%%%%%%%%%%̒$̗̔̕%&%'%%#%(+%%#%(+%%#%(+$$#)$'%%#%(+%%#%(+%%#%(+%P#)I'%J#$K'%%#%(+%%#%(+%%#%(+%%#%(+%%>;'<$?%%%#%(+%%#%(+%̎#$̏'%&#)&2$;%:9#'$̈̍%#̌$̑%%#%(+%#$'%%#%(+%%#%(J+(Q%̆#$̇'˾$#̃$zʢ$#ʧ$ͨëʳͺͻ$͸͹{ʢ$#ʧ$L$1#$,1.)#+$)#$'%Æ#$Ç'%%%%%%%%%%%%%%%%%%%%%%%%%%%%%%%%%%%%%%|$#%%#$ù%#$'%&#$'%#$%ð#$ñ˶%˷#$˶˻%%˶$˻%%%%%%%%%%%%%ˮ˱%%%%%%%%%%%%%%%ˮB˯E%%%%%%%%%%%%%%%%%%%%%%%%%%%%%%%%%%%%%%%%%%%%%%%%%%%%%%%Ǥ#ǧ&)%%%%%%%%%%%%%%%%%%%%%%%%%%%%%%%%%%%%%%%%%%%%%%%Ų$ŷŲ$ŷ%%%%%%%%%%%%%ɜ$#ɡ$'%%#%(+%%#%(+%%%%%%%%%%%%%%%%%%%%%%%^ǚ%#Ǜ$+Ǟ)#Ǜ$Y%%%%%ȂƵ%#ƴ$ȅ%%%%%%%%%%%%%%%%%%%%%%%%%%",
"name":"Lib_Window_MESH003",
"normals":"С############ͻ#Ç#Ğ#$#̠###ȁ#Ď#Ĕ#ˉ#Ҷ#đ#ģ################ǔñć####ǅġlmՎ6#˃#######У#ࠠ#%#П#######q#p######ˮ#˯########################################ϸ##̽#{######################################&##'##̺####©##K####;##ǹ##9##Ö##n##Ȑ##9##Ƴ##,##ƥ##-##I##z#####ʞ#####i##4##ē##%##´##T##Ƈ##$##Ǡ##%##ˉ#####I###############У###ࠠ###С###########͎##.#######˷###########̈́##,##{#####˷###################ͺ##N#ğ%#$̣###Ȁď#Ďȁ#ˈ#ҷĐ#đȐ###############ćñǔ####ŢĠ#mԅ7#˂#####Р#ࠡ&#'Т#####p#̽#ˮ##########################################Ϲ##̼#z###################################'##Ϋ####\\##K##Ü##;##Ȧ##9##č##n##ɇ##9##ƾ##,##Ƥ##-##R##{#####ʟ#####V##4##Ă##%##å##T##Œ##$##ǡ##%##ˊ#####H###############Р###ࠡ###Т###########͛##.##z#####˶###########͏##,##p#####˶########С####У#######Р###$#####У###Т%$#У#Р#$#######У###Т######̉#atő###ɘ5#åvw89#ğ###ļ###̈#####У#######Т###У#Т####У########################################Т#######Р####################################ŕ##¡##H##×##¤##Z##T##>##Ë#######ĥ##Ö##@####3##E##R##˯##˷###########+##:##$##'##3##n##m##*##%##'##%##$##ő###############Т#######У#####ࠠ#####Ƴ##3##Օ#####۴#####ࠡ#####ڞ##1##ե#####ŏ########Т##У#######Р###$#####У###Т##%С#Р#$#######У###Т######̉6u`Ľ###ɘ÷#va9#ğ#ļ###̈#####У#####Т###У##########################################Т#####Р################################Ǔ## ##į##Ö##(##[##¨##?##A####·##Ĥ##S##A## ##2##%##S##ʿ##˷###########2##;##8##&##Z##o##,##+##$##&##'##%##ŏ###############Т#######У#####ࠠ#####ǃ##2##ե#####۴#####ࠡ#####ڐ##0##ճ#####ŏ########ࠡ####Т#######ɓĠ#ġǸ#ɭ#%#ˈ###Ϋ#}#Є#̡#ڠ##ࠁ###Т###Р###ࠡ##Ţ#Ĕăː###ΰ'#ġʯǲǳēĒ#####ˢ###ˣ###r#s#######П#'#Т#Уࠠ#Ň#˽########################################ń#Ć#Ș#$#С####################################˿####ϼ##)##â##-## ##/##Ǆ##q##M##ª##Ώ##$##ɴ##,##Ì##O##۽##۰#####˱#####ń##.##Ŏ##'##É##T##Þ##*##ɗ##%##ʄ#####˵######################################%##$####################%##$##############У##Т#######ɓ#Ġ#ú#ɭ%#$ˆ###Ϋ}#|Ϊ#̡#ڠ#ޣ###Т###Р###ࠡ##Ţ4Ăĕˢ###ΰĥʯ#ǲˣĒ###ˢ###ˣ##r#s######П#۸#˽##########################################ń#Ć#Ș#П################################ͧ####Ύ##(##Ò##,####.##Ū##p##2##«##̅##%##ʀ##-##ª##N##ܩ##۰#####˱#####Ő##/##Ŗ##&####U##Ę##+##ɑ##$##ʂ#####˵###################################%##$####################%##$#################",
"textureCoords":[
{
"UVOffsets":[
65.694621571554705,
-8929.5671655068218
],
"UVScales":[
6.0187162004758212e-05,
0.00013251087207581138
],
"UVs":"劻৛#৚ⅶ#Ƣ#ƣƢ#ƣˌ#ō#Ōō␉#ࣚ#᭐#ƣ#ˌō#Ōōƣˌō˱ୣ#ୢᾱƭ#ࣚ#ǆ#Ǉǆ#ࣘ#੽۟劺3ࠁ2߰#ࠁ#ஹⳡEⷠ˞#˟ࡂʺʻ㘁#ⷠ#ወᎧμ࿼⼥ō˱ୣ#ୢ㌜#࿽#⇵#Ƣ#Ōō#Ō᫗Ǉ#੼ࣙᛞୣರƢ⏲#ˠȌߦࠁ#୫஄அࣂ#ࣃքҭተ%಍Ż⥽े#ᑞ଻ेᑞᑟⳠතଛᢤŘܑךכߵඬ᳛ƣűୣୢୣୢୣୢୣ㉥て##㿗ྒŤŻཽ#%ზϢϣთ᧠խᒗ㝤છጎ#ጏ஡#Ⅿ㿘ぷྃ##ོ(ሌޱ᧡㿚ᰭ·##¶#Ḩƫ##ƪ##ƫ##ƪ##ƫ##ƪ##ƫ##ƪ##ƫ##ƪ##ƫ##ƪ##ƫ##ƪ##ƫ##ƪ#᏿#⃾ű##Ű#ű#Ű##űŰű##Ű##ű##Ű##ű##Ű##ű##Ű##ű##Ű##ű##Ű#㇜Ꭵ௢ȍৎ#৏ˡ#ಌ#ߥߤ$㇟ƢŌō#ŌЛୣ#ୢ⛀#ಌ##಍摃ྒྷ##྆.ボƪ##ƫ#೪Ű##ű#㶱྇##ྂ&摎#ಌ##಍㎉ƪ##ƫ#೪Ű##ű#⭎ˋࣃᜳ༮2#༭5㈽৚ⅶƢ#ƣ##Ƣ#Ōō#Ō#ō␉ࣚ#ࣛ␈ƣ#ƢŌ#ō##ƣˌō˱#ୣ#ᑱݐࣛ#ࣚ#ǆ##ࣘ#ࣙࣵ۞䮌ࠁ3ࠀ#ࠁ#ࠀ᎗Ā˞˟˞ֆʺʻࡃ#ወ3࿽ν᮱ō˱#ୣ#㹜࿽#࿼㇏ƢŌō˱ୣರƢ⏲ˠˡӊ=ࠀࠁ<அ##ࣂ##ࣃք෦ቱቮ෥ź᾽ᢤⳡ##ॆ଺ᑟॆᘲඬᢥ᧚řכ#ךතბƢ˱ୣୢୣୢୣ㉥ྒྷ㿖でŤთ$#ོźϢᒗზब᧡ᒖ⋰છጎ㿙Ⅾ#஠ጎぷ)ཽ##ྂሌⅯ᧠਒#·##¶Ḩ#ƫ##ƪ##ƫ##ƪ##ƫ##ƪ##ƫ##ƪ##ƫ##ƪ##ƫ##ƪ##ƫ##ƪ##ƫ##ƪ᏿#⃾#ű##ŰűŰ##ű#Ű#ű##Ű##ű##Ű##ű##Ű##ű##Ű##ű##Ű##ű##Ű㇜Ꭵ௢ߤ৏ৎ#಍#ˠৎߥߦ%㇝ƢŌ#ō#˱#ୣ#㈀ಌ##಍#摃/྇##ྒボ#ƪ##ƫ೪#Ű##ű㶱'ྃ##྆摎ಌ##಍#㎉#ƪ##ƫ೪#Ű##ű⭎୫ࣂΐ4༬#3༯庯#ዉ`a⸨ڗ#ږ᷁#҆#҇҆#҇ߐ#᩹÷$öӐՈ#ՉՈ#Չ#া###ҙ#Չ#υ#ı$#ßѼ##ѽ#Ѽ#ŭu╶Ķ$ĹĶҲ#ұ⼅*ű+ӟӪӹ㔪Ң0㓧ӫ-ӬŮ$ť#⧾###߳#⛹Ӭ#ӫ಄ϝ#Ϝ##ϝ#ᣞ####ڽ#బ#ઔܳܰĲƤ##ƣ%$ˆҰ#␃ӯ૷᎔9ϟตQƙɢ¿Ǉɢɣ+Ѻȳɫ૴Ϲܟܞˇѻ୆#ቾ#҇#ዧ#ϝ#瀬:݈##ݡ᤿͖ϼ#᭵ᑦЏЎᑧ഼͠ၻ࠰Êࣙ#ࣘȔ#ો#ᴔӖٷ#Ͻ֜ቭʔഽߴ㇣#ዻ#Tወ֒#ͭ##ͬͭ#҇##҆҇#ѿ##Ѿป#ӯ##ӮՈ#Չ##Ո⚒#ڗ##ږ∝#ҙ##Ҙ຋#ϝ##ϜʔJˎ#ӯ##Ӯ⮸ڗ##ږ#ᥝ#҇##ࣣ҆#ҙ##ҘѾ#ѿ##Ѿࣵ#Չ##ՈႢ#ͭ##ͬ᪕#ϝ##Ϝഺ᎓ⱬĳA#@ܱ#'ܖŐő˒Օ#โ#ڗ#ږ#ڗ#ఽࢍ,#ࡾ&亞ݠ೉#֯ଖ䨱#ߎ##ߏ##ߎ##ߏ㼼֮ٵ#ӗ֜䰕ࢋ8#ࡾ-Ԫ#߲##߳##߲##߳തņˇ⌑#ᕖ##ᕗÍ`a⸨#ڗ#ᝍ҆#҇##҆#ͬ#᩹$÷%֦#Ո##Չ#ՈҘ###ҙՉ#Ո࣫į%İįπ#ѽѼ#ѽ#ˠtŬ⏚#ĸ%#$Ұ#㎓űӟ1ӸごҢ0㓯ӭظţ#Ť⢼##߳#߲⻉$Ӫ#޼###ຊ#బ#ઔ%ܱࡀƤ##ƥ$#ݔ##ұˇ᳑࿃૶ࣀϵϞᄵɫ*#ƘP¾ɣǆˎѻɪࢬ૵ܞ#ܟѺۮ#ቾ#҇#ዧ#汲ݠ#ݡ᤿ᑧ᭴#Ͻ͗Џၻᑦݍഽၺ࡭Êࣙ#૊#ȕࣙᴔ֝ϼ#ٶӗቭો഼㜫ዉU#ዺ#֒ͭ##ͬ#ͭ҇##҆#҇ѿ##Ѿ#ปӯ##Ӯ#ՈՉ##Ո#⚒ڗ##ږ#∝ҙ##Ҙ#຋ϝ##Ϝ#ʔuɔӯ##Ӯ#⮸#ڗ##ږᥝ҇##҆#ࣣҙ##Ҙ#Ѿѿ##Ѿ#ࣵՉ##Ո#Ⴂͭ##ͬ#᪕ϝ##Ϝ#ഺ᎓ⱬő@Aܗ&#ܰAŐƤ˓ʥ#โڗ#ږ#ڗ#ږ኱'ࡿ#-ࢌ亞ଗ֮#ೈݡ䨱ߎ##ߏ##ߎ##ߏ#㼼֝Ӗ#ٴ֯䰕,ࡿ#9ࢊԪ߲##߳##߲##߳#തƣˆ▵ᕖ##ᕗ#"
}
],
"vertexCount":735,
"vertexOffsets":{
"xOffset":-4095.75,
"yOffset":-731.38500098085831,
"zOffset":-1.0200270244053431
},
"vertexScale":0.05469083806384667,
"vertices":"‡#ᠩpqs#ş#Ϥÿɟĺņɟ#ɞ̉#Žĕ#Ĕᄒ֋lզֱ#֊#१no#Ѣ#՚#࿭#Ž##ĕ־##ֿ#־#ǋߍ#ѐ#ё#ѐ#עᘴ#ᚵų#ŲГųŲ᪤#ᚵ#঑ਐǳࡁڐ#Ʈ###ࠝ#ࡀ#᎒Ҕ#ҥ##Ҥ######ዿ#֝ş##Žĕхѐ#ֲֿ־ѣ#Ѣˉɞॷ#ڐÌᒈҤ#ਟ֜Ҥਟਞᘵې֊హ½Ύ˵˴ϾۑసHී#Ȕ#ᅌ#Ҍ#ᡫᡪ##‣ߚÂÏߏ##ࡺȆȇࡻഈˍ੟ᯠէন#঩׫#ვ•ᡵߑ##ߎ$दϯഉ•##ᡫ#dᠨᠩqÎ#D£¢EȆ#RȕȔSˌ#`˛௮dզ#Kց՛qת#e՛ऩe)#j#ՌaϮ#pϿດJѤ##ҍᎣTÁຢ0ր#+և๓#s##rXlȔ#_ȣӾ:Ͼ#=Ͻ˿^˚#;˿ۘ<՚#1էय़r¢#m©ᐆ*Ҍ##ҕ᮱ਐׯĔԷ#Զż#ڑ#фх#ߌş####Ʈ###Ư#ڑ##ڐŬߛ##ߔ(-n##k'ns##r#kߕ##ߐ&ŧ#ڑ##ڐŠp##o%ps##r#ϯŲѢ##ᙤ##ᙥ⹪qppŠ#šʩȤĺɡ##ɠ#Ì#ż%Ĕ#ህGդl$֍#֊Ͼop%ѣ՛#՚શź$ŽźӍ#־ֿ#־#ΫǍৠё#ѐ#ё#ѐਏ ŲųŲ˂ŲųГ#ঐ#ࡁǱ΢#Ư###ࠚࡁ#ࡀ᮱2$%๼#֜Š#żŽɬ/ѐё.ֿ##Ѣ##ѣˊܸॷॶܹÌྻ఺ᘵ##Ҥ֚ਝҤ଄ې఻೒»˵#˴ۑֱFඬ#ȓ#ᅍ#᐀ߘ‡ᡪÅࡺ##ߍÑȇਫ਼ࡻүആ੟ᆥը঩†ვ#ש঩ᡲ&ߌ##ߑधეഇጽᠨd#ᡫ#ᠨ¥D#Ðq¥ȓP#ȆEȓ˝b#ˊQ௱տM#ըb՚՛c#רqप#j#)eՏϿp#ϰcຓҍ##ѢLᎢ¿ฅ։)#վ2๒p##q#Yȥ]#ȒnԁϽ=#Ͼ:˾˿;#˜\\ۙե3#՚<फ़§o#¤pᐇғ##Ҍ(᮰ਏ׬фԵԴ#ڏ#żԴхф#ߍŠ####Ư###Ʈڎ##ڏ#ŭ(ߒ##ߙ*%k##lm#p##qj$ߐ##ߓŦڎ##ڏ#š'm##pq#p##qϬֳѢѣᙣ##ᙢ#ۙٸ#ٹpq#######Ģ#ģ#ĢģĢ#י#Ә###Ģģ#Ģģ#Ģģpت#ثqĢ#י######ט#יҎlĢŇ#ņŇ###ņ#ɫ#ņ#ŇɪŇņɫ###ɪ#Ň#ņģpت#ث###F###Ģģ#Ģי##טיԦتٹ#Ģ####################################ģ#pتثتثتثت#######################################################################ۃl##p##q#p#q##pqp##q##p##q##p##q##p##q##p##q##p##q#Ģ#############ģ#Ģģ#ĢÕت#ثÔ#####ט#########ڋq##p#ڊ#####י#####ט###ڋq##p#Ô########ոٹpq#######Ģģ#Ģ#ģĢי#טģ###Ģ#ģ###Ģģp#ت#ٹәט#י####ט#יӘmҏט#Ň#####ņɫņŇņņŇņɫ#ɪŇ#ņ#ģp#ت#ڝ###F#Ģģpتٹ#Ģ######################################ģ#pتثتثت###################################################################ۃl###p##qpq##p#q#p##q##p##q##p##q##p##q##p##q##p##qĢ#############ģ#Ģ#ģ#p#ت#չ#####ט#########ڋ#q##pڊ#####י#####ט###ڋ#q##pÔ########ࡱ#####ܻ#ܺῧíӲգӲ#ӳࢴ#᠞Ĵ#ĵ⥋ȶöɁŬ#ȷ#ӠĒĕ$ƭ#ȿ#⠲####Ĵ#ĵĴ###ĵ##ɬŖ#ŗŖӲ%ӱ⼏#ŗ#ӱӰӱ㔐Ӱ#㔑ӱ#ӰŘ%ŗ$ᴸ###࢕#ᦗӲ%ӱࢊ]×R##S#⬪ĵ#Ĵ#⑥#ୖ#᠞ܻܺĴŚ##ś##ʎӰ#␭ӳଁᎮ?ϥหSƛɨÁǋɨɩ#ѼȷɩଂЁܥܤˋѽɨì൐#ѿ#ॏ#]#⥚<ࠎ#$᯳ࠫΰϮ#ᵣᘈѹѸᘉบκᆳࢂÜऽ#़Ɋ#୥#√ʊ݃#ϯࢦᛙ˘ปࡀ⥴=#i#᠟#α#|͖͗}ѹ#vѾѿwλ#jφࢧiÝ#zÊȾ]ɋ#hȾ☖hݟ#Eܺ⍓k˙#\\˦֫{e#\\⣚##⢁pË#sÌ⢀ܻ##ܺ#᭱@ѿ#[Ҙࡏl˧#o˨ϘZχ#mϘڟnȿ#qɀ๦#͗#Aʹᄯr]#s\\ᅊᎱⲢĵ=#<ܻ#$ܞŎŏʆᇷ#ྫྷ#ܻ#ܺ#ܻ##࢕0#࢈%ހࠪ๡#ĩݞ࿡5࢔#Dࢥ5#࢔##࢕ࢶĨ݃#ʋࢤࢷ࢕>#ࢆ1࢕#࢔#4ࢧ##࢔##࢕ᩨŖʏ#ݜ##ݝ#ĵ####ܻ#ᣏҘӳ##Ӳ#Ϥ#᠞#Ĵ#⩝ìɀ÷#ȷ#ȶˌĒĕ$ƭȿ#Ⱦ☖#####Ĵ#####ĵ##ɬ#Ŗ###Ӱ$㏟ŗӱ#ӰあӰ#㔑ӱئŗ%Ŗᰆ##࢕#࢔∉#Ӱ$κá##ڸ#ୖ#᠞#ܻࡌŚ##ś##ݜ##ӱʏᳳ࿑଀࣐ЁϤᅏɩ##ƚRÀɩǊ˔ѽɨࢼଃܤ#ܥѼŭíบ#ѿ#ॏ#⤠ࠪ%᯳ࠩᘉᵢ#ϯαѹᆳᘈࠑปᆲ॓Üऽ#୤#ɋऽ√ࢧϮ#݂ʋᛙ୥บ⎚#h#<᠟͗}#ΰ#͗ѿw#Ѹ|ѿχk#κvࢧË{#ÜhȾȿi#Ɋ\\☖ܻD#ݞi⍓˧]#˘j֫]#dz⣚##⢁Ír#Êq⢀#ܻ##ܺ᭱ҙZ#ѾAࡏ˩n#˦mϘϙl#φ[ڟɁp#Ⱦo๦͵@#͖#ᄯ]r#\\sᅊᎱⲢŏ<=ܟ%#ܺ=ŎŚʇྒྷ#ྫྷܻ#ܺ#ܻ#ܻܺ$ࢉ#1࢔ހݟĨ#๠ࠫ࿡ࢤE#࢕45࢔##࢕#ࢶࢥʊ#݂ĩࢷ0ࢇ#?࢔࢕ࢦ5#࢕##࢔##࢕#ᩨśʎʏ#ݜ##ݝ"
}