{
"boundingBox":{
"max":[
42.0,
83.487022399902344,
192.04376411437988
],
"min":[
-9.9999847412109375,
-3.814697265625e-06,
1.9073486328125e-06
]
},
"colors":"",
"compression":{
"compressed":true,
"compressedColorsRange":255,
"compressedUnitVectorRange":1023,
"compressedVertsRange":16383
},
"indexLengths":[
582
],
"indexModes":[
"Triangles"
],
"indices":"#%%$$)%%%#$'%%%$$)%%%#%(+%%&'%%%%&'%%%%$$)%%%$$)%%%$$)%%%#$'%%%$$)%%%$$)%%%$$)%%%$$)%%%#$'%%%#%(+%%$$)%%%$$)%%%&'%%%%$$)%%%$$)%%%#%(+%%$$)%%%#$'%%%#$'%ru#%&)%%$$)%%%$$)%%%%$$'%%$$&-%%$$)%%%#$'%%%$$)%%%$$)%%%#%(+%%$$)%%%$$)%%%$$)%%%$$)%%%$$)%%%#$'%%%#$'%%%#$'%%%$$)%%%$$)%%%%$$)ƀƃƂƁźſ%%#$'%%%%$$ŶŽ%$ż)Ż%%$$)%%%#$'%ŸŻźŹŲŷ%%$$)%%%$$)%%%$$)%%%#%(+%%$$)%%%#%(ŦůŴŷŶŵ'%%$$)%%%#$'%%%$$)'%%$$)%%%$$)%%%#$'%%%$$)%%%&'%%%%#%(js%%$$)%%#$'%%%#$'%%%$$)ŮůŬŭŮű%%%$$)%%%$'$'%%$$)%%%$$)%%%&)&)%%$$)%%%#$'%%%&'%%%%$$)%%%$$)%%%#%(+%%#%(+%%$'$'%%$$)%%%$$)%%%$$)%%%%$$)%%#%(+%%#%(+%%$$)%%%$$)",
"name":"Lib_Arch1_MESH003",
"normals":"ࠡ###Т#######ǔ###ɮ###ࠡ###ࠠ###۵###׊###Ę###########޹###########Ϯ#######ǔ###ɮ###ࠡ#ࠠ#######۵###׊###۷$%#####Т##Ǖ#######ǔ#####У##$ࠞ###ࠡ##$%###ࠠ###ʝ###9###1###Q###=###ʹ###8###0###N###8###Ը###С#ǔ###ɮ###ࠡ#ࠠ###۵###׊#Ď###########ޥ###########Ϥ#####ǔ###ɮ###ࠡ#ࠠ#######۵###׊###۵%######Т##Ǖ#######ǔ####У#$%ࠠ###ࠡ#$%####ࠠ###ʝ###9###1###Q###=###ʹ###8###0###N###8###̋###ࠠ###С###############С###################################ŧ###########$###########Ť##############################################################################ϕ###4###ð###İ###Ģ###̕###6###ò###İ###Ġ###è#########################Ƅ###########'###########Ɓ###########################################################################ϔ###5###ñ###ı###ģ###̔###7###ó###ı###ġ###é#######################С###У####$%#߀###ρ###########˷#######˶#######################Р###ࠟ%##߀###ρ#############˷#######˶#######Р##############С###################.###ö###Ƽ###Ċ######ϛ###ö###ƾ###Ĉ######ϧ###С%߀###ρ#########˷#####˶#######################Р#ࠟ#%#߀###ρ#############˷#######˶#######Р#############С###################.###ö###Ƽ###Ċ######ϛ###ö###ƾ###Ĉ######ϧ#######Р###ࠡ#######ࠠ###",
"textureCoords":[
{
"UVOffsets":[
267.42826663288849,
136.22491458466246
],
"UVScales":[
5.9719013779771522e-05,
5.9620679918316657e-05
],
"UVs":"耡㖎#㖏㖎㖍㖌㖏擀ᅓᅒᅓণ#Ȉ#۔#ە#᧔#۔#ᄙਥۃჄॾĊ#ċᅓċĊċᛥ#ա#ՠա#ՠ#ա#ՠ՗բգբգբ#գ##բ#㉰#Ȉ#உᅓᅒᅓ޽ȉ#Ȉ۔#ە#₆ە⅛ࢭ#՜#՝#Ϭ☚#ċ#ᅓċĊċᛙ๎Òۂᖟ#՚Ƒれȉ##ȉ#Ȉ#ȉ#Ȉ⑓#ȉ#Ȉȉ፜ਙਘႹ་໾Ñݰഉࢭ՚՛๎๏ࢬࢭไׇࢭ#՜̒҃ג˄܅ͲĒބࡵ׆ȵӢӂǈगखࡾ#ਥၛƑ׆ų͵ۺ˅ӠׅࡨӣӢӎݳऌ#ࡾਙਘ◹㖏㖎㖍厎ᅒᣭ#ȉ#Ȉ#۔#᧔ەeਥჄჅॾ#Ċ#ጣĊⲲա#ՠ#ա#ՠաՠաՠ-#ա#ՠաՠաՠ#ա#૕ȉ᫓ᅒ#ᅓ޽#ȉ#ࢺە۔ە₆ە೒ࢬ՝՜՝՜ϭϬᙅ#Ċ#ጣĊ#ċᨤ๐༁ہᖞ#՝ƒ܋ȉ###ȉ#Ȉ#ȉ#⑓Ȉ#ȉȈᅶਚۀႹᾠ๑Ñۃഈࢮ#՝՜๑ׄࢮ็๐ࢭࢬ՝̓űאӣͲ܅ˆއː׆εঃӂ٩खᅳࡾࡿਤᇊƓїŰ̈͵ΩˆӣˇࡨΩ঍ӌˆऍࡿࡾƾਛ孥㖎#㖏㖎㖏㖎㖏㖎㖏#㖎㖏㖎#㖏㖎㖏㖎㖏#㖎㖏㖎䃃ऍऌऍ⳸#ᔅ#਼ጩ#ጨ#ጯ(ጨጩጨ#ጩጨጩ#ጨ墥޺޻՚卬ጩጨጩጨጩ#ጨ墥ఐ఑ఐ#෴෵෴#昚昛昚班఑#ఐ#෴෵෴#昚昛昚❙ጣ˼၈ጩጩ#ጨጩጢጩጮጩጨ#ጩ##ῃ܌෵ი#挶昛昚䵥ጨ#ጩጨጩ#ጨ䖟௨௩޺ቊ昚挷挶䞫൴ጩ#ጢጩጮ#ጢጩጨ☵ጨ൵၎ၔ#墥޺ʃ՛##௨ёୠ܌̆კKJ܊ዹ௨ܲ܋఑᳆挘@戵߳۰ৱ૲ีͤܳਲ٥ࠟь&'ڭӎɯᔮ挶戵或泧ৰ۱߲ሃܲͥ٤٥ࠟѐ'#ڭʂɮ扴#ए#ࡢ#ጫጪጫጰ)ጫጪጫጪ#搕޻#՚晴ጫጪጫጪ#殭ఐ఑ఐ#෴෵෴#昚#昛෵఑#ఐ#෴#෵珬昛#昚ᜳ˾ጮጩጨጩ#ጨጣጨ)ጩ#ጨ##毝܌̆კი挶#昛擲ጩጨጩጨጩጨጩ忧௩#޺硂昛̆挶܇൳ጨጩጨጣጨ☱ጤጥጪ൸൳ጨᘅ˾殳޺޻՚՛௨௩޺ୠ܌෵იკKܲዹ௨J܊ዹ᳆挘戗戴洅ৰ۱߲ีϱ̢ܲ๡ࠞϵ&ڱڬȁɯ硂挷Ĥ或挙ৱ̢߲ሃϰ̢ͤ๡ࠞϱ'ڭڬэɮ䒦ऍऌऍ㪢#ऍ#䃃###ऌ#ق#ㆸଁ#଀ऌ###"
}
],
"vertexCount":369,
"vertexOffsets":{
"xOffset":-426.54275289255014,
"yOffset":-0.00016271339559407522,
"zOffset":8.1356697797037612e-05
},
"vertexScale":0.023444272991153176,
"vertices":"ᅷ###ย#્#ɲجحج}#Ì#####ۍ###ն###ԧs#rجrsrŹ#Î#ÏÎ#Ï#Î#ÏӍÎÏÎÏÎ#Ï##Î#Ï#Î#ĩجحجrÍ#Ì####ۍ#ն#######շ#r#جrsrշ########Ï##Í#Ì#Í#Ìո#Ï#ÎÏС###Р###С#######Р####ȣȢȣ#Ȣ#ȣ#Ȣ#ȣ#ȢȣȢȣȢȣȢС#Ƞ#ȡ#Ƞ#ȡ#Ƞ##ȡ#Ƞ#ȡ#Ƞո###ɳحټ#Í#Ì###ۍ#ն###ԧ#s#یs}Ï#Î#Ï#ÎÏÎÏÎչ#Î#ÏÎÏÎÏ#Î##Ïגح#جr#Í#Ì###ۍ#ն#######ԧ#s#یs#rշ########Ï###Í#Ì#Í#նÎ#ÏÎӍ###Р###С#######Р####ȣ#Ȣ##ȣ##Ȣ#ȣȢȣ#Ȣ#ȣ#ȢС#Ƞ#ȡ#Ƞ#ȡȠȡȠȡȠȡȠȡȠȡȠշ###ภ###ᅷ#͸#͹#͸#ภͷ#Ͷ#ͷ#Ͷ#᯵#᯴᯵᯴᯵᯴รݶ#ݷ#ݸ%ݷݶݷ#ݶݷݶ#ݷ#ϲʨٹ#ݶݷݶݷݶ#ݷత#Ƞ#ȡȠ#ȡ#Ƞ#ȡȠȧȦȧȦȧ#Ȧ##ȧ#టݴģٵݶێ#ۏێۍیۏێۏ#ێ##գͤ#ȡ#Ƞ#ƕΒۏ#ێۏێ#ۏӊ։gʩࡒ#ȟ®ƒӍې#ۏێۑ#ݵݶݷยۍӎ׏ٹ##Ϯϯٴג׏f˭Ԏ͢ȟȞ։ֈͣ͢օɈͤ#ȡiôƁĽȎŧ̹ˆɉƠȟɯu̾̿Ρ#ϲْ®Ž®ĥŦȋļʿɈ˃Ȟȟɳˬ̻#ΡϮϯ෵᯴᯵᯴ᕷ#ݶݷݶݹ$ݶݷݶݷ#Φϲٻٺݷݶݷݶݷ#ڡǲ#ǳ#ǲ#ǳǲǳǲǳ##Ƕ#ǷǶǷǶǷ#Ƕ#׎ģڣڠڡڠ#ڡڞڟ#ڠ#ڡ##ԴͥȠȡȠȡƔƕǳڠڡڠڡڠڡڠà֋׎ʨࡕ#Ƞ¯ƕӎڣڢڣڠڡ෴ݵݴݷӑӎڟޜġݸϯʩٴథ֊dʪԏͥ#Ƞȡ֊ɉͥֆ֋ͤͥȠh®ƁǲŧȎĽ̸¡ɉÊѪɯˀ̿ڼΡΠϳ۟®ð¯eŦÆĽʾ˃ÆѮɳ̺ΠΡqϮย᯵#᯴᯵᯴᯵᯴᯵᯴#᯵᯴᯵#᯴᯵᯴᯵᯴#᯵᯴᯵ŃłŃłɣ###㷡###̜#s#ɽ#ɼ#ɽ#ɼ#r͖͗ʈփr#s#rsrˌӌӍӌ#ژڙژ#⿆⿇⿆㘽Ӎ#ӌ#ژڙژ#⿆⿇⿆㫧###̝###ˌr#sɽ#ɼ##ɽৌтڙޒ#⻌⿇⿆㶑#s##rsrˌӀӁ͖ࠎ⿆⻍⻌㫧###s#r#s#r#######͖ñʉ##ӀƍϮтĜޓ/.ɸܣӀʄɹӍ఼⻌#⻍ӑӐԽԼܡȆʅ˰ɳȋ Ďďů¾Tई⻌⻍⻌㏧ԼӑӐޟʄȇɲɳȋƌď#ůðU㤄#Ń#㷡#ˌ#r#s#ɽ#ɼɽ؀͗#ʈփ#r##s̜ӌӍӌ#ژڙژ#⿆#⿇ڙӍ#ӌ#ژ#ڙ㘼⿇#⿆㫧#̝###ˌ#r#ˍɼɽɼ#ɽৌтĜޓޒ⻌#⿇฽#r##s#rݪӁ#͖㞲⿇Ĝ⻌㫧####s#r#s#r#####͖͗ʈʉӀӁ͖Ϯтڙޒޓ/ʄܣӀ.ɸܣ఼⻌⻍⻌㏧ԼӑӐܡ¡ʄћȊƍĎɛŮÓT㞲⻍#⻌⻍ԽӐޟ ȆћȊ¡ďůŮ¡U㟤łŃłł#Ń#ł###Ń#######ł###"
}