{
"boundingBox":{
"max":[
15.999988555908203,
56.016395568847656,
74.406524658203125
],
"min":[
-16.000003814697266,
-0.016351699829101563,
0.0
]
},
"colors":"",
"compression":{
"compressed":true,
"compressedColorsRange":255,
"compressedUnitVectorRange":1023,
"compressedVertsRange":16383
},
"indexLengths":[
6306
],
"indexModes":[
"Triangles"
],
"indices":"#%%#%(+%%%%%%%%#%(+%%%%%%%%#%(+%%%%%%%%#%(+%%#%(+%%%%%%%%#%(+*)#'$'&%#'$'&%#'$'&%#'$'&%#'$'&%#'$'&%#'$'&%#'$'&%#'$'&%#'$'&%#'$'%%#%(+*)#'$'&%#'$'&%#'$'&%#'$'&%#'$'&%#'$'&%#'$'&%#'$'&%#'$'&%#'$'&%#'$'%%#%(+*)#'$'&%#'$'&%#'$'&%#'$'&%#'$'&%#'$'&%#'$'&%#'$'&%#'$'&%#'$'&%#'$'%%#%(+*)#'$'&%#'$'&%#'$'&%#'$'&%#'$'&%#'$'&%#'$'&%#'$'&%#'$'&%#'$'&%#'$'%%#%(+*)#'$'&%#'$'&%#'$'&%#'$'&%#'$'&%#'$'&%#'$'&%#'$'&%#'$'&%#'$'&%#'$'%%#%(+*)#'$'&%#'$'&%#'$'&%#'$'&%#'$'&%#'$'&%#'$'&%#'$'&%#'$'&%#'$'&%#'$'%V#$W'&V#+S%$R#'Q%$P#'O%$N#'M%$L#'K%$J#'I%$H#'G%$F#'E%$D#'C%$B#'A%$@#'?%%%#%(+*)#'$'&%#'$'&%#'$'&%#'$'&%#'$'&%#'$'&%#'$'&%#'$'&%#'$'&%#'$'&%#'$'%%#%(+*)#'$'&%#'$'&%#'$'&%#'$'&%#'$'&%#'$'&%#'$'&%#'$'&%#'$'&%#'$'&%#'$'%ŀ#$Ł'&ŀ#+Ľ%$ļ#'Ļ%$ĺ#'Ĺ%$ĸ#'ķ%$Ķ#'ĵ%$Ĵ#'ĳ%$Ĳ#'ı%$İ#'į%$Į#'ĭ%$Ĭ#'ī%$Ī#'ĩ%%%#%(+*)#'$'&%#'$'&%#'$'&%#'$'&%#'$'&%#'$'&%#'$'&%#'$'&%#'$'&%#'$'&%#'$Ĝ$ģ#%Ģ'&ģ#%Ġ'&ġ#%Ğ'&ğ#%Ĝ'&ĝ#%Ě'&ě#%Ę'&ę#%Ė'&ė#%Ĕ'&ĕ#%Ē'&ē#%Đ'&đ#%Ď'&ď#%Čď%Č#$č'&Č#'č%$Č#%č%$Č#%č%$Č#%č%$Č#%č%$Č#%č%$Č#%č%$Č#%č%$Č#%č%$Č#%č%$Č#%č%%Č#$č'&Č#+ĉ%$Ĉ#'ć%$Ć#'ą%$Ą#'ă%$Ă#'ā%$Ā#'ÿ%$þ#'ý%$ü#'û%$ú#'ù%$ø#'÷%$ö#'õ%%%#%(+*)#'$'&%#'$'&%#'$'&%#'$'&%#'$'&%#'$'&%#'$'&%#'$'&%#'$'&%#'$'&%#'$'%%#%(+*)#'$'&%#'$'&%#'$'&%#'$'&%#'$'&%#'$'&%#'$'&%#'$'&%#'$'&%#'$'&%#'$'%%#%(+*)#'$'&%#'$'&%#'$'&%#'$'&%#'$'&%#'$'&%#'$'&%#'$'&%#'$'&%#'$'&%#'$'%%#%(+*)#'$'&%#'$'&%#'$'&%#'$'&%#'$'&%#'$'&%#'$'&%#'$'&%#'$'&%#'$'&%#'$è$ï#%î'&ï#%ì'&í#%ê'&ë#%è'&é#%æ'&ç#%ä'&å#%â'&ã#%à'&á#%Þ'&ß#%Ü'&Ý#%Ú'&Û#%ØÛ%ǜ#$ǝ'&ǜ#+Ǚ%$ǘ#'Ǘ%$ǖ#'Ǖ%$ǔ#'Ǔ%$ǒ#'Ǒ%$ǐ#'Ǐ%$ǎ#'Ǎ%$ǌ#'ǋ%$Ǌ#'ǉ%$ǈ#'Ǉ%$ǆ#'ǅ%%%#%(+*)#'$'&%#'$'&%#'$'&%#'$'&%#'$'&%#'$'&%#'$'&%#'$'&%#'$'&%#'$'&%#'$'%%#%(+*)#'$'&%#'$'&%#'$'&%#'$'&%#'$'&%#'$'&%#'$'&%#'$'&%#'$'&%#'$'&%#'$'%Ǝ#$Ə'&Ǝ#+Ƌ%$Ɗ#'Ɖ%$ƈ#'Ƈ%$Ɔ#'ƅ%$Ƅ#'ƃ%$Ƃ#'Ɓ%$ƀ#'ſ%$ž#'Ž%$ż#'Ż%$ź#'Ź%$Ÿ#'ŷÔ$Ċ#$ď%$Ď#'č%$Č#%č%$Č#%č%$Č#%č%$Č#%č%$Č#%č%$Č#%č%$Č#%č%$Č#%č%$Č#%č%$Č#%čÁ%Ʉ#$Ʌ'&Ʉ#'Ʌ%$Ʉ#%Ʌ%$Ʉ#%Ʌ%$Ʉ#%Ʌ%$Ʉ#%Ʌ%$Ʉ#%Ʌ%$Ʉ#%Ʌ%$Ʉ#%Ʌ%$Ʉ#%Ʌ%$Ʉ#%Ʌ%$Ʉ#%Ʌʹ$˟#$˚'&˛#+˞'&˟#'˞'&˟#'˞'&˟#'˞'&˟#'˞'&˟#'˞'&˟#'˞'&˟#'˞'&˟#'˞'&˟#'˞'&˟#'˞ʵ$>#$C'&B#'C'&B#%E'&D#%G'&F#%I'&H#%K'&J#%M'&L#%O'&N#%Q'&P#%S'&R#%U'&T#%W%ΰ#$α'%ΰ#$α'*ΰ#+α$'ΰ#&α)&ΰ#'α$'ΰ#&α)&ΰ#'α$'ΰ#&α)&ΰ#'α$'ΰ#&α)&ΰ#'α$'ΰ#&α)&ΰ#'α$'ΰ#&α)&ΰ#'α$'ΰ#&α)&ΰ#'α$'ΰ#&α)&ΰ#'α$'ΰ#&α)&ΰ#'α$'ΰ#&α)&ΰ#'α$'ΰ#&α)%ь#$э'%ь#$э'*ь#+э$'ь#&э)&ь#'э$'ь#&э)&ь#'э$'ь#&э)&ь#'э$'ь#&э)&ь#'э$'ь#&э)&ь#'э$'ь#&э)&ь#'э$'ь#&э)&ь#'э$'ь#&э)&ь#'э$'ь#&э)&ь#'э$'ь#&э)&ь#'э$'ь#&э)%Ƕ#$Ƿ'%Ƕ#$Ƿ'*Ƕ#+Ƿ$'Ƕ#&Ƿ)&Ƕ#'Ƿ$'Ƕ#&Ƿ)&Ƕ#'Ƿ$'Ƕ#&Ƿ)&Ƕ#'Ƿ$'Ƕ#&Ƿ)&Ƕ#'Ƿ$'Ƕ#&Ƿ)&Ƕ#'Ƿ$'Ƕ#&Ƿ)&Ƕ#'Ƿ$'Ƕ#&Ƿ)&Ƕ#'Ƿ$'Ƕ#&Ƿ)&Ƕ#'Ƿ$'Ƕ#&Ƿ)&Ƕ#'Ƿ$'Ƕ#&Ƿ)&Ƕ#'Ƿ$'Ƕ#&Ƿ)%%#%(+*)#'$'&%#'$'&%#'$'&%#'$'&%#'$'&%#'$'&%#'$'&%#'$'&%#'$'&%#'$'&%#'$'%V#$W'%%#%(+.V#+[(+%#*$/(Z#']&)%#($-(\\#'_&)%#($-(^#'a&)%#($-(`#'c&)%#($-(b#'e&)%#($-(d#'g&)%#($-(f#'i&)%#($-(h#'k&)%#($-(j#'m&)%#($-(l#'o&)%#($-%l#$m%%f#*m%%b#(g%%^#(c%%Z#(_%%V#([%%R#(W%%N#(S%%J#(O%%F#(K%%B#(G%%>#(C'%<#$=%%<#$=%%<#$=%%<#$=%%<#$=%%<#$=%%<#$=%%<#$=%%<#$=%%<#$=%%<#$=%%<#$='%¤#$¥'&¤#/%$#)%$#)%$#)%$#)%$#)%$#)%$#)%$#)}%$|#)y%$x#)u%%ǂ#$ǃ'&ǂ#'ǃ%$ǂ#%ǃ%$ǂ#%ǃ%$ǂ#%ǃ%$ǂ#%ǃ%$ǂ#%ǃ%$ǂ#%ǃ%$ǂ#%ǃ%$ǂ#%ǃ%$ǂ#%ǃ%$ǂ#%ǃȈ$ǵ#$ǰ'&Ǳ#'ǰ'&Ǳ#%Ǯ'&ǯ#%Ǭ'&ǭ#%Ǫ'&ǫ#%Ǩ'&ǩ#%Ǧ'&ǧ#%Ǥ'&ǥ#%Ǣ'&ǣ#%Ǡ'&ǡ#%Ǟ'&ǟ#%ǜǟ%%#%(+*)#'$'&%#'$'&%#'$'&%#'$'&%#'$'&%#'$'&%#'$'&%#'$'&%#'$'&%#'$'&%#'$L$ˢ#$˧'&˦#+ˣ'&ˢ#'ˣ'&ˢ#'ˣ'&ˢ#'ˣ'&ˢ#'ˣ'&ˢ#'ˣ'&ˢ#'ˣ'&ˢ#'ˣ'&ˢ#'ˣ'&ˢ#'ˣ'&ˢ#'ˣ%%%#%(+%%#%(+%%%%%%%%%%%%%%%%%%%%%%%%%%%%%%%%%%%%%%%%%ٲS$#V)ٵ%%#%(+*)#'$'&%#'$'&%#'$'&%#'$'&%#'$'&%#'$'&%#'$'&%#'$'&%#'$'&%#'$'&%#'$'%%#%(+*)#'$'&%#'$'&%#'$'&%#'$'&%#'$'&%#'$'&%#'$'&%#'$'&%#'$'&%#'$'&%#'$'%%#%(+*)#'$'&%#'$'&%#'$'&%#'$'&%#'$'&%#'$'&%#'$'&%#'$'&%#'$'&%#'$'&%#'$'%%#%(+*)#'$'&%#'$'&%#'$'&%#'$'&%#'$'&%#'$'&%#'$'&%#'$'&%#'$'&%#'$'&%#'$'%%#%(+*)#'$'&%#'$'&%#'$'&%#'$'&%#'$'&%#'$'&%#'$'&%#'$'&%#'$'&%#'$'&%#'$'%%#%(+*)#'$'&%#'$'&%#'$'&%#'$'&%#'$'&%#'$'&%#'$'&%#'$'&%#'$'&%#'$'&%#'$'%V#$W'&V#+S%$R#'Q%$P#'O%$N#'M%$L#'K%$J#'I%$H#'G%$F#'E%$D#'C%$B#'A%$@#'?%%%#%(+*)#'$'&%#'$'&%#'$'&%#'$'&%#'$'&%#'$'&%#'$'&%#'$'&%#'$'&%#'$'&%#'$'%%#%(+*)#'$'&%#'$'&%#'$'&%#'$'&%#'$'&%#'$'&%#'$'&%#'$'&%#'$'&%#'$'&%#'$'%ŀ#$Ł'&ŀ#+Ľ%$ļ#'Ļ%$ĺ#'Ĺ%$ĸ#'ķ%$Ķ#'ĵ%$Ĵ#'ĳ%$Ĳ#'ı%$İ#'į%$Į#'ĭ%$Ĭ#'ī%$Ī#'ĩ%%%#%(+*)#'$'&%#'$'&%#'$'&%#'$'&%#'$'&%#'$'&%#'$'&%#'$'&%#'$'&%#'$'&%#'$Ĝ$ģ#%Ģ'&ģ#%Ġ'&ġ#%Ğ'&ğ#%Ĝ'&ĝ#%Ě'&ě#%Ę'&ę#%Ė'&ė#%Ĕ'&ĕ#%Ē'&ē#%Đ'&đ#%Ď'&ď#%Čď%Č#$č'&Č#'č%$Č#%č%$Č#%č%$Č#%č%$Č#%č%$Č#%č%$Č#%č%$Č#%č%$Č#%č%$Č#%č%$Č#%č%%Č#$č'&Č#+ĉ%$Ĉ#'ć%$Ć#'ą%$Ą#'ă%$Ă#'ā%$Ā#'ÿ%$þ#'ý%$ü#'û%$ú#'ù%$ø#'÷%$ö#'õ%%%#%(+*)#'$'&%#'$'&%#'$'&%#'$'&%#'$'&%#'$'&%#'$'&%#'$'&%#'$'&%#'$'&%#'$'%%#%(+*)#'$'&%#'$'&%#'$'&%#'$'&%#'$'&%#'$'&%#'$'&%#'$'&%#'$'&%#'$'&%#'$'%%#%(+*)#'$'&%#'$'&%#'$'&%#'$'&%#'$'&%#'$'&%#'$'&%#'$'&%#'$'&%#'$'&%#'$'%%#%(+*)#'$'&%#'$'&%#'$'&%#'$'&%#'$'&%#'$'&%#'$'&%#'$'&%#'$'&%#'$'&%#'$è$ï#%î'&ï#%ì'&í#%ê'&ë#%è'&é#%æ'&ç#%ä'&å#%â'&ã#%à'&á#%Þ'&ß#%Ü'&Ý#%Ú'&Û#%ØÛ%ǜ#$ǝ'&ǜ#+Ǚ%$ǘ#'Ǘ%$ǖ#'Ǖ%$ǔ#'Ǔ%$ǒ#'Ǒ%$ǐ#'Ǐ%$ǎ#'Ǎ%$ǌ#'ǋ%$Ǌ#'ǉ%$ǈ#'Ǉ%$ǆ#'ǅ%%%#%(+*)#'$'&%#'$'&%#'$'&%#'$'&%#'$'&%#'$'&%#'$'&%#'$'&%#'$'&%#'$'&%#'$'%%#%(+*)#'$'&%#'$'&%#'$'&%#'$'&%#'$'&%#'$'&%#'$'&%#'$'&%#'$'&%#'$'&%#'$'%Ǝ#$Ə'&Ǝ#+Ƌ%$Ɗ#'Ɖ%$ƈ#'Ƈ%$Ɔ#'ƅ%$Ƅ#'ƃ%$Ƃ#'Ɓ%$ƀ#'ſ%$ž#'Ž%$ż#'Ż%$ź#'Ź%$Ÿ#'ŷÔ$Ċ#$ď%$Ď#'č%$Č#%č%$Č#%č%$Č#%č%$Č#%č%$Č#%č%$Č#%č%$Č#%č%$Č#%č%$Č#%č%$Č#%čÁ%Ʉ#$Ʌ'&Ʉ#'Ʌ%$Ʉ#%Ʌ%$Ʉ#%Ʌ%$Ʉ#%Ʌ%$Ʉ#%Ʌ%$Ʉ#%Ʌ%$Ʉ#%Ʌ%$Ʉ#%Ʌ%$Ʉ#%Ʌ%$Ʉ#%Ʌ%$Ʉ#%Ʌʹ$˟#$˚'&˛#+˞'&˟#'˞'&˟#'˞'&˟#'˞'&˟#'˞'&˟#'˞'&˟#'˞'&˟#'˞'&˟#'˞'&˟#'˞'&˟#'˞ʵ$>#$C'&B#'C'&B#%E'&D#%G'&F#%I'&H#%K'&J#%M'&L#%O'&N#%Q'&P#%S'&R#%U'&T#%W%ΰ#$α'%ΰ#$α'*ΰ#+α$'ΰ#&α)&ΰ#'α$'ΰ#&α)&ΰ#'α$'ΰ#&α)&ΰ#'α$'ΰ#&α)&ΰ#'α$'ΰ#&α)&ΰ#'α$'ΰ#&α)&ΰ#'α$'ΰ#&α)&ΰ#'α$'ΰ#&α)&ΰ#'α$'ΰ#&α)&ΰ#'α$'ΰ#&α)&ΰ#'α$'ΰ#&α)%ь#$э'%ь#$э'*ь#+э$'ь#&э)&ь#'э$'ь#&э)&ь#'э$'ь#&э)&ь#'э$'ь#&э)&ь#'э$'ь#&э)&ь#'э$'ь#&э)&ь#'э$'ь#&э)&ь#'э$'ь#&э)&ь#'э$'ь#&э)&ь#'э$'ь#&э)&ь#'э$'ь#&э)%Ƕ#$Ƿ'%Ƕ#$Ƿ'*Ƕ#+Ƿ$'Ƕ#&Ƿ)&Ƕ#'Ƿ$'Ƕ#&Ƿ)&Ƕ#'Ƿ$'Ƕ#&Ƿ)&Ƕ#'Ƿ$'Ƕ#&Ƿ)&Ƕ#'Ƿ$'Ƕ#&Ƿ)&Ƕ#'Ƿ$'Ƕ#&Ƿ)&Ƕ#'Ƿ$'Ƕ#&Ƿ)&Ƕ#'Ƿ$'Ƕ#&Ƿ)&Ƕ#'Ƿ$'Ƕ#&Ƿ)&Ƕ#'Ƿ$'Ƕ#&Ƿ)&Ƕ#'Ƿ$'Ƕ#&Ƿ)%%#%(+*)#'$'&%#'$'&%#'$'&%#'$'&%#'$'&%#'$'&%#'$'&%#'$'&%#'$'&%#'$'&%#'$'%V#$W'%%#%(+.V#+[(+%#*$/(Z#']&)%#($-(\\#'_&)%#($-(^#'a&)%#($-(`#'c&)%#($-(b#'e&)%#($-(d#'g&)%#($-(f#'i&)%#($-(h#'k&)%#($-(j#'m&)%#($-(l#'o&)%#($-%l#$m%%f#*m%%b#(g%%^#(c%%Z#(_%%V#([%%R#(W%%N#(S%%J#(O%%F#(K%%B#(G%%>#(C'%<#$=%%<#$=%%<#$=%%<#$=%%<#$=%%<#$=%%<#$=%%<#$=%%<#$=%%<#$=%%<#$=%%<#$='%¤#$¥'&¤#/%$#)%$#)%$#)%$#)%$#)%$#)%$#)%$#)}%$|#)y%$x#)u%%ǂ#$ǃ'&ǂ#'ǃ%$ǂ#%ǃ%$ǂ#%ǃ%$ǂ#%ǃ%$ǂ#%ǃ%$ǂ#%ǃ%$ǂ#%ǃ%$ǂ#%ǃ%$ǂ#%ǃ%$ǂ#%ǃ%$ǂ#%ǃȈ$ǵ#$ǰ'&Ǳ#'ǰ'&Ǳ#%Ǯ'&ǯ#%Ǭ'&ǭ#%Ǫ'&ǫ#%Ǩ'&ǩ#%Ǧ'&ǧ#%Ǥ'&ǥ#%Ǣ'&ǣ#%Ǡ'&ǡ#%Ǟ'&ǟ#%ǜǟ%%#%(+*)#'$'&%#'$'&%#'$'&%#'$'&%#'$'&%#'$'&%#'$'&%#'$'&%#'$'&%#'$'&%#'$L$ˢ#$˧'&˦#+ˣ'&ˢ#'ˣ'&ˢ#'ˣ'&ˢ#'ˣ'&ˢ#'ˣ'&ˢ#'ˣ'&ˢ#'ˣ'&ˢ#'ˣ'&ˢ#'ˣ'&ˢ#'ˣ'&ˢ#'ˣ",
"name":"Lib_Bannister_MESH010",
"normals":"С###ǔ#####Ǖ###Р#####ࠡ###Ŏ#####׊###˷###Ǖ#####ǁ§AªƢ1Ț#Ȍ0ź<@Å<ƣ0ț#ȍ1Ż=AЌ###&#&#&#&#####'#'#'#'###ͣ¥Oªƪ7Ȝ#Ȉ6ŰH~NÑHƫ6ȝ#ȉ7űIOĄ¨ǄUȚ#ǨTľvHývǅTț#ǩUĿwIȚq#pö#ń#ń#ö#p#q#÷#Ņ#Ņ#÷#q#ķ§=ªƢ1Ȟ#Ȑ0ž8<Á8ƣ0ȟ#ȑ1ſ9=ŮƪƬƬłŃƭƭŃPĆRƞ#ǎSƊwê5wćSƟ#ǏRƋvë£«(ªƒ&Ȟ#Ȣ'Ɯ)°)¥)Ɠ'ȟ#ȣ&Ɲ(±(ȠqņņņøpqùŇŇùqȾ+#*4#<#<#4#*#+#5#=#=#5#+#ι¤ƄȈȈƄ¤¥ƅȉȉƅ¥ǦsŌŎŎürsýŏŏýsĕ¥ȆȈȈƄ¤¥ƅȉȉƅ¥ĠåªǺȢ#ǀîÌ]äŕÌǻȣ#ǁïÍ\\åÀ§0¦Ƃ(Ȏ#Ȕ)Ɩ1´11ƃ)ȏ#ȕ(Ɨ0µ0àq¦ƶKȒ#ǪJŊfXpëfƷJȓ#ǫKŋgYqо,#-=#E#E#=#-#,#<#D#D#<#,#џªƔȞȞƔª«ƕȟȟƕ«°«ȚȚȚƒª«ƓțțƓ««*ªƐ&Ȟ#Ȣ'Ɯ+²+£+Ƒ'ȟ#ȣ&Ɲ*³*¢«0¨ƌ*Ț#Ȣ+Ơ/¶1/ƍ+ț#ȣ*ơ.·0ʀaĊĊĊÌ`aÍċċÍaĜC|BC}}Cȟk ƠGǺ#ǖFļbXjábơFǻ#ǗGĽcYkú¡¤ǂaȄ#ǆ`Ę& đǃ`ȅ#Ǉaę'¡â8Ŗ,ǖ#Ǡ-Ŵ7¬97ŗ-Ǘ#ǡ,ŵ6­8%©5¬Ơ+Ȣ#Ț*Ɗ02¹0ơ*ȣ#ț+Ƌ15Œǌ^cǆ##ǂ_bŎ¤ś_bǇ##ǃ^cŏ¥ȘPÌÌPQÍÍQĞ.BNNB./COOC/ǥuŘŘŘĆtućřřćuqƴƶƶňŉƷƷŉňq~ŔWž#ŊVÆ|/Ù|ŕVſ#ŋWÇ}.ŭ###Т###Р#####۵#####׊#####ѿ#####՜#####އ#####՜#####ӻ§AªƢ1Ț#Ȍ0ź<@Å<ƣ0ț#ȍ1Ż=AЌ###&#&#&#&#####'#'#'#'###ͣ¥Oªƪ7Ȝ#Ȉ6ŰH~NÑHƫ6ȝ#ȉ7űIOĄ¨ǄUȚ#ǨTľvHývǅTț#ǩUĿwIȚq#pö#ń#ń#ö#p#q#÷#Ņ#Ņ#÷#q#ķ§=ªƢ1Ȟ#Ȑ0ž8<Á8ƣ0ȟ#ȑ1ſ9=ŮƪƬƬłŃƭƭŃPĆRƞ#ǎSƊwê5wćSƟ#ǏRƋvë£«(ªƒ&Ȟ#Ȣ'Ɯ)°)¥)Ɠ'ȟ#ȣ&Ɲ(±(ȠqņņņøpqùŇŇùqȾ+#*4#<#<#4#*#+#5#=#=#5#+#ι¤ƄȈȈƄ¤¥ƅȉȉƅ¥ǦsŌŎŎürsýŏŏýsĕ¥ȆȈȈƄ¤¥ƅȉȉƅ¥ĠåªǺȢ#ǀîÌ]äŕÌǻȣ#ǁïÍ\\åÀ§0¦Ƃ(Ȏ#Ȕ)Ɩ1´11ƃ)ȏ#ȕ(Ɨ0µ0àq¦ƶKȒ#ǪJŊfXpëfƷJȓ#ǫKŋgYqо,#-=#E#E#=#-#,#<#D#D#<#,#џªƔȞȞƔª«ƕȟȟƕ«°«ȚȚȚƒª«ƓțțƓ««*ªƐ&Ȟ#Ȣ'Ɯ+²+£+Ƒ'ȟ#ȣ&Ɲ*³*¢«0¨ƌ*Ț#Ȣ+Ơ/¶1/ƍ+ț#ȣ*ơ.·0ʀaĊĊĊÌ`aÍċċÍaĜC|BC}}Cȟk ƠGǺ#ǖFļbXjábơFǻ#ǗGĽcYkú¡¤ǂaȄ#ǆ`Ę& đǃ`ȅ#Ǉaę'¡â8Ŗ,ǖ#Ǡ-Ŵ7¬97ŗ-Ǘ#ǡ,ŵ6­8%©5¬Ơ+Ȣ#Ț*Ɗ02¹0ơ*ȣ#ț+Ƌ15Œǌ^cǆ##ǂ_bŎ¤ś_bǇ##ǃ^cŏ¥ȘPÌÌPQÍÍQĞ.BNNB./COOC/ǥuŘŘŘĆtućřřćuqƴƶƶňŉƷƷŉňq~ŔWž#ŊVÆ|/Ù|ŕVſ#ŋWÇ}.С###########################################ȍȌ#țŻ=AÄ=Ƣ1Ț#Ȍ0ź<@Å<ƣ0ț#'&#''#####&#&#&#&#####'#'#ȉȈ#ȝűIOÐIƪ7Ȝ#Ȉ6ŰH~NÑHƫ6ȝ#ǩǨ#țĿwIüwǄUȚ#ǨTľvHývǅTț#Ņń#Ņ÷#q#p#ö#ń#ń#ö#p#q#÷#Ņ#ȑȐ#ȟſ9=À9Ƣ1Ȟ#Ȑ0ž8<Á8ƣ0ȟ#ƭƬˍłƬƬłŃƭǏǎ#ƟƋvë4vĆRƞ#ǎSƊwê5wćSƟ#ȣȢ#ȟƝ(±(¤(ƒ&Ȟ#Ȣ'Ɯ)°)¥)Ɠ'ȟ#ŇņȝqpøņņøpqùŇ=<#=5#+#*#4#<#<#4#*#+#5#=##ȉƅ¥¤ƄȈȈƄ¤¥ƅȉŏŎȩsrüŎŎürsýŏȉȈͫ¥¤ƄȈȈƄ¤¥ƅȉǁǀ#ȣïÍ\\åŔÍǺȢ#ǀîÌ]äŕÌǻȣ#ȕȔ#ȏƗ0µ00Ƃ(Ȏ#Ȕ)Ɩ1´11ƃ)ȏ#ǫǪ#ȓŋgYqêgƶKȒ#ǪJŊfXpëfƷJȓ#DE#D<#,#-#=#E#E#=#-#,#<#D##ȟƕ«ªƔȞȞƔª«ƕȟțȚ΋«ªƒȚȚƒª«ƓțȣȢ#ȟƝ*³*¢*Ɛ&Ȟ#Ȣ'Ɯ+²+£+Ƒ'ȟ#ȣȢ#țơ.·0.ƌ*Ț#Ȣ+Ơ/¶1/ƍ+ț#ċĊƵa`ÌĊĊÌ`aÍċùCB||BC}Ǘǖ#ǻĽcYkàcƠGǺ#ǖFļbXjábơFǻ#Ǉǆ#ȅę'¡ĐǂaȄ#ǆ`Ę& đǃ`ȅ#ǡǠ#Ǘŵ6­86Ŗ,ǖ#Ǡ-Ŵ7¬97ŗ-Ǘ#țȚ#ȣƋ15º1Ơ+Ȣ#Ț*Ɗ02¹0ơ*ȣ#ǃǂ#Ƈcǆ˳¥Ś^cǆ##ǂ_bŎ¤ś_bǇ###ÍQPÌÌPQÍ#OC/.BNNB./COřŘȽutĆŘŘĆtućřƷƶ˝ňƶƶňŉƷŋŊ#ſÇ}.Ø}ŔWž#ŊVÆ|/Ù|ŕVſ###################################################ȍȌ#țŻ=AÄ=Ƣ1Ț#Ȍ0ź<@Å<ƣ0ț#'&#''#####&#&#&#&#####'#'#ȉȈ#ȝűIOÐIƪ7Ȝ#Ȉ6ŰH~NÑHƫ6ȝ#ǩǨ#țĿwIüwǄUȚ#ǨTľvHývǅTț#Ņń#Ņ÷#q#p#ö#ń#ń#ö#p#q#÷#Ņ#ȑȐ#ȟſ9=À9Ƣ1Ȟ#Ȑ0ž8<Á8ƣ0ȟ#ƭƬˍłƬƬłŃƭǏǎ#ƟƋvë4vĆRƞ#ǎSƊwê5wćSƟ#ȣȢ#ȟƝ(±(¤(ƒ&Ȟ#Ȣ'Ɯ)°)¥)Ɠ'ȟ#ŇņȝqpøņņøpqùŇ=<#=5#+#*#4#<#<#4#*#+#5#=##ȉƅ¥¤ƄȈȈƄ¤¥ƅȉŏŎȩsrüŎŎürsýŏȉȈͫ¥¤ƄȈȈƄ¤¥ƅȉǁǀ#ȣïÍ\\åŔÍǺȢ#ǀîÌ]äŕÌǻȣ#ȕȔ#ȏƗ0µ00Ƃ(Ȏ#Ȕ)Ɩ1´11ƃ)ȏ#ǫǪ#ȓŋgYqêgƶKȒ#ǪJŊfXpëfƷJȓ#DE#D<#,#-#=#E#E#=#-#,#<#D##ȟƕ«ªƔȞȞƔª«ƕȟțȚ΋«ªƒȚȚƒª«ƓțȣȢ#ȟƝ*³*¢*Ɛ&Ȟ#Ȣ'Ɯ+²+£+Ƒ'ȟ#ȣȢ#țơ.·0.ƌ*Ț#Ȣ+Ơ/¶1/ƍ+ț#ċĊƵa`ÌĊĊÌ`aÍċùCB||BC}Ǘǖ#ǻĽcYkàcƠGǺ#ǖFļbXjábơFǻ#Ǉǆ#ȅę'¡ĐǂaȄ#ǆ`Ę& đǃ`ȅ#ǡǠ#Ǘŵ6­86Ŗ,ǖ#Ǡ-Ŵ7¬97ŗ-Ǘ#țȚ#ȣƋ15º1Ơ+Ȣ#Ț*Ɗ02¹0ơ*ȣ#ǃǂ#Ƈcǆ˳¥Ś^cǆ##ǂ_bŎ¤ś_bǇ###ÍQPÌÌPQÍ#OC/.BNNB./COřŘȽutĆŘŘĆtućřƷƶ˝ňƶƶňŉƷŋŊ#ſÇ}.Ø}ŔWž#ŊVÆ|/Ù|ŕVſ#ࠡ###߀########С#########˷#########۴########ӥ#Ǯ#ǯǮǯǮǯǮǯǮǯǮǯǮǯǮǯǮǯǮǯǮǯǮӉ#########################˜#ǰ#ǱǰǱǰǱǰǱǰǱǰǱǰǱǰǱǰǱǰǱǰǱǰʁ#ļ#ĽļĽļĽļĽļĽļĽļĽļĽļĽļĽļĽļЦ#########################ѹ#ư#ƱưƱưƱưƱưƱưƱưƱưƱưƱưƱưƱư̳############Ӣ##ʫ#Á#ÀÁÀÁÀÁÀÁÀÁÀÁÀÁÀÁÀÁÀÁÀÁ˳############Ù#########################դ############ҥ############Ң############ο#ɔ#ɕɔɕɔɕɔɕɔɕɔɕɔɕɔɕɔɕɔɕɔɕɔá#Ȧ#ȧȦȧȦȧȦȧȦȧȦȧȦȧȦȧȦȧȦȧȦȧȦÐ#÷#ö÷ö÷ö÷ö÷ö÷ö÷ö÷ö÷ö÷ö÷ö÷̦#########################Ν############R############Ë##©#Í#ÌÍÌÍÌÍÌÍÌÍÌÍÌÍÌÍÌÍÌÍÌÍ̇############s############Ǫ#τ#υτυτυτυτυτυτυτυτυτυτυτϵ#μ#νμνμνμνμνμνμνμνμνμνμνμͩ#а#бабабабабабабабабабаба˵#Ú#ÛÚÛÚÛÚÛÚÛÚÛÚÛÚÛÚÛÚÛÚÛÚɵ#Ւ#»#һՒ»һՒ»һՒ»һՒ»һՒ»һՒ»һՒ»һՒ»һՒ»һՒ»һՒ»Ơ############Z############ݍ############Ú############ל#w#vwvwvwvwvwvwvwvwvwvwvw̓###У###Т#####˷###########ā#####Ɍ###########ɍ#####ʰ#Ǯ#ǯǮǯǮǯǮǯǮǯǮǯǮǯǮǯǮǯǮǯǮǯǮӉ#########################˜#ǰ#ǱǰǱǰǱǰǱǰǱǰǱǰǱǰǱǰǱǰǱǰǱǰʁ#ļ#ĽļĽļĽļĽļĽļĽļĽļĽļĽļĽļĽļЦ#########################ѹ#ư#ƱưƱưƱưƱưƱưƱưƱưƱưƱưƱưƱư̳############Ӣ##ʫ#Á#ÀÁÀÁÀÁÀÁÀÁÀÁÀÁÀÁÀÁÀÁÀÁ˳############Ù#########################դ############ҥ############Ң############ο#ɔ#ɕɔɕɔɕɔɕɔɕɔɕɔɕɔɕɔɕɔɕɔɕɔá#Ȧ#ȧȦȧȦȧȦȧȦȧȦȧȦȧȦȧȦȧȦȧȦȧȦÐ#÷#ö÷ö÷ö÷ö÷ö÷ö÷ö÷ö÷ö÷ö÷ö÷̦#########################Ν############R############Ë##©#Í#ÌÍÌÍÌÍÌÍÌÍÌÍÌÍÌÍÌÍÌÍÌÍ̇############s############Ǫ#τ#υτυτυτυτυτυτυτυτυτυτυτϵ#μ#νμνμνμνμνμνμνμνμνμνμνμͩ#а#бабабабабабабабабабаба˵#Ú#ÛÚÛÚÛÚÛÚÛÚÛÚÛÚÛÚÛÚÛÚÛÚɵ#Ւ#»#һՒ»һՒ»һՒ»һՒ»һՒ»һՒ»һՒ»һՒ»һՒ»һՒ»һՒ»Ơ############Z############ݍ############Ú############ל#w#vwvwvwvwvwvwvwvwvwvwvw",
"textureCoords":[
{
"UVOffsets":[
164.2468834889757,
143.2113176251965
],
"UVScales":[
6.0163185010424671e-05,
6.0044228575834024e-05
],
"UVs":"㿳#䁋#䁊#䁋##䁊䁑(䁊&'#䁋##䁊##䁋#䁊#䁋##䁊#䁋#䁊#䁋&䁀䁅#䁊##䁋䑲#Ż#źŻźŻźŻźŻźŻźŻźŻźŻźŻźŻźŻ۶#υ#τυτυτυτυτυτυτυτυτυτυτυڍ#ƕ#ƔƕƔƕƔƕƔƕƔƕƔƕƔƕƔƕƔƕƔƕƔƕ㷈Ц#ЧЧ#Ч#Ч#Ч#Ч#Щ#Ч#Ч#Ч#Ч#Ч#ⱐЦ#ЧЧ#Ч#Ч#Ч#Ч#Щ#Ч#Ч#Ч#Ч#Ч#ⱐЦ#ЧЧ#Ч#Ч#Ч#Ч#Щ#Ч#Ч#Ч#Ч#Ч#ⱐЦࠫЧЧЧЧЩЧЧЧЧЧⱐЦ#ЧЧ#Ч#Ч#Ч#Ч#Щ#Ч#Ч#Ч#Ч#Ч#ⱐЦ#ЧЧ#Ч#Ч#Ч#Ч#Щ#Ч#Ч#Ч#Ч#Ч#ⱐЦࠫЧЧЧЧЩЧЧЧЧЧ੿#ϙ#ϘϙϘϙϘϙϘϙϘϙϘϙϘϙϘϙϘϙϘϙϘϙ㹦ЧЧЧЧЧЧЩЧЧЧЧЧⱐЦࠫЧЧЧЧЩЧЧЧЧЧⱐЦࠫЧЧЧЧЩЧЧЧЧЧⱐЦ#ЧЧ#Ч#Ч#Ч#Ч#Щ#Ч#Ч#Ч#Ч#Ч#Ϳ#Ƒ#ƐƑƐƑƐƑƐƑƐƑƐƑƐƑƐƑƐƑƐƑƐƑㄚЦ#ЧЧ#Ч#Ч#Ч#Ч#Щ#Ч#Ч#Ч#Ч#Ч#ڳ#ʝ#ʜʝʜʝʜʝʜʝʜʝʜʝʜʝʜʝʜʝʜʝʜʝ㥞ЧЧЧЧЧЧЩЧЧЧЧЧⱐЦࠫЧЧЧЧЩЧЧЧЧЧⱐЦ#ЧЧ#Ч#Ч#Ч#Ч#Щ#Ч#Ч#Ч#Ч#Ч#ⱐЦ#ЧЧ#Ч#Ч#Ч#Ч#Щ#Ч#Ч#Ч#Ч#Ч#ⱐЦࠫЧЧЧЧЩЧЧЧЧЧⱐЦࠫЧЧЧЧЩЧЧЧЧЧี#ս#ռսռսռսռսռսռսռսռսռսռսռս৲#ӽ#ӼӽӼӽӼӽӼӽӼӽӼӽӼӽӼӽӼӽӼӽӼӽച#Ե#ԴԵԴԵԴԵԴԵԴԵԴԵԴԵԴԵԴԵԴԵԴԵ㋠Ц#ЧЧ#Ч#Ч#Ч#Ч#Щ#Ч#Ч#Ч#Ч#Ч#ⱐЦ#Ч#Цࠫ##Ч##Ч##Ч##Ч##Щ##Ч##Ч##Ч##Ч##Ч##ごЧЧЧЧЧЧЩЧЧЧЧЧごЧЧЧЧЧЧЩЧЧЧЧЧⱐЦࠫЧЧЧЧЩЧЧЧЧЧⱐЦࠫЧЧЧЧЩЧЧЧЧЧⱐЦ#ЧЧ#Ч#Ч#Ч#Ч#Щ#Ч#Ч#Ч#Ч#Ч#伽#㩾#㩿#㩾#㩿㩾##㩿#㩾#㩿##㩾##㩿##㩾##㩿##㩾##㩿##㩾##㩿##㩾##㩿##㩾४#Ż#źŻźŻźŻźŻźŻźŻźŻźŻźŻźŻźŻ۶#υ#τυτυτυτυτυτυτυτυτυτυτυڍ#ƕ#ƔƕƔƕƔƕƔƕƔƕƔƕƔƕƔƕƔƕƔƕƔƕ㷈Ц#ЧЧ#Ч#Ч#Ч#Ч#Щ#Ч#Ч#Ч#Ч#Ч#ⱐЦ#ЧЧ#Ч#Ч#Ч#Ч#Щ#Ч#Ч#Ч#Ч#Ч#ⱐЦ#ЧЧ#Ч#Ч#Ч#Ч#Щ#Ч#Ч#Ч#Ч#Ч#ⱐЦࠫЧЧЧЧЩЧЧЧЧЧⱐЦ#ЧЧ#Ч#Ч#Ч#Ч#Щ#Ч#Ч#Ч#Ч#Ч#ⱐЦ#ЧЧ#Ч#Ч#Ч#Ч#Щ#Ч#Ч#Ч#Ч#Ч#ⱐЦࠫЧЧЧЧЩЧЧЧЧЧ੿#ϙ#ϘϙϘϙϘϙϘϙϘϙϘϙϘϙϘϙϘϙϘϙϘϙ㹦ЧЧЧЧЧЧЩЧЧЧЧЧⱐЦࠫЧЧЧЧЩЧЧЧЧЧⱐЦࠫЧЧЧЧЩЧЧЧЧЧⱐЦ#ЧЧ#Ч#Ч#Ч#Ч#Щ#Ч#Ч#Ч#Ч#Ч#Ϳ#Ƒ#ƐƑƐƑƐƑƐƑƐƑƐƑƐƑƐƑƐƑƐƑƐƑㄚЦ#ЧЧ#Ч#Ч#Ч#Ч#Щ#Ч#Ч#Ч#Ч#Ч#ڳ#ʝ#ʜʝʜʝʜʝʜʝʜʝʜʝʜʝʜʝʜʝʜʝʜʝ㥞ЧЧЧЧЧЧЩЧЧЧЧЧⱐЦࠫЧЧЧЧЩЧЧЧЧЧⱐЦ#ЧЧ#Ч#Ч#Ч#Ч#Щ#Ч#Ч#Ч#Ч#Ч#ⱐЦ#ЧЧ#Ч#Ч#Ч#Ч#Щ#Ч#Ч#Ч#Ч#Ч#ⱐЦࠫЧЧЧЧЩЧЧЧЧЧⱐЦࠫЧЧЧЧЩЧЧЧЧЧี#ս#ռսռսռսռսռսռսռսռսռսռսռս৲#ӽ#ӼӽӼӽӼӽӼӽӼӽӼӽӼӽӼӽӼӽӼӽӼӽച#Ե#ԴԵԴԵԴԵԴԵԴԵԴԵԴԵԴԵԴԵԴԵԴԵ㋠Ц#ЧЧ#Ч#Ч#Ч#Ч#Щ#Ч#Ч#Ч#Ч#Ч#ⱐЦ#Ч#Цࠫ##Ч##Ч##Ч##Ч##Щ##Ч##Ч##Ч##Ч##Ч##ごЧЧЧЧЧЧЩЧЧЧЧЧごЧЧЧЧЧЧЩЧЧЧЧЧⱐЦࠫЧЧЧЧЩЧЧЧЧЧⱐЦࠫЧЧЧЧЩЧЧЧЧЧⱐЦ#ЧЧ#Ч#Ч#Ч#Ч#Щ#Ч#Ч#Ч#Ч#Ч#㑅ᜰ#ᜱỮ˲##˳#վʯ#ʮஇت##ث#⊁ࠆ#ࠇࠆǘ##Ǚ#᪜#Ǚ#ᴶ#ʯ#㭓˳##˲#㦸Ш#ЩЩ#Щ#Щ#Ы#Щ#Щ#Щ#Щ#Щ#Ы#Щ#ⱨШ#ЩЩ#Щ#Щ#Ы#Щ#Щ#Щ#Щ#Щ#Ы#Щ#⍣Ш#ЩЩ#Щ#Щ#Щ#Ы#Щ#Щ#Щ#Щ#Ы#Щ#埰#؊#؋؊؋؊؋؊؋؊؋؊؋؊؋؊؋؊؋؊؋؊؋؊፻#Ҋ#ҋҊҋҊҋҊҋҊҋҊҋҊҋҊҋҊҋҊҋҊҋҊห#Ҹ#ҹҸҹҸҹҸҹҸҹҸҹҸҹҸҹҸҹҸҹҸҹҸঢ়############߹#̺#̻̺̻̺̻̺̻̺̻̺̻̺̻̺̻̺̻̺̻̺̻̺䉜#ڸ#ڹڸڹڸڹڸڹڸڹڸڹڸڹڸڹڸڹڸڹڸڹڸⲁ############✫Ш#ЩЩ#Щ#Щ#Щ#Ы#Щ#Щ#Щ#Щ#Ы#е.䪀############ዓ############ि############ሿ#ф#хфхфхфхфхфхфхфхфхфхфхфௐШ#ЩЩ#Щ#Щ#Щ#Ы#Щ#Щ#Щ#Щ#Ы#Щ#ྈ#Ǵ#ǵǴǵǴǵǴǵǴǵǴǵǴǵǴǵǴǵǴǵǴǵǴᬰШ#ЩЩ#Щ#Щ#Щ#Ы#Щ#Щ#Щ#Щ#Ы#Щ#❲############䥪############ෛ#פ#ץפץפץפץפץפץפץפץפץפץפץפ垍#Ѿ#ѿѾѿѾѿѾѿѾѿѾѿѾѿѾѿѾѿѾѿѾѿѾҬ############㗲############⏋Ш#ЩЩ#Щ#Щ#Щ#Ы#Щ#Щ#Щ#Щ#Ы#Щ#篮Ш#ЩЩ#Щ#Щ#Ы#Щ#Щ#Щ#Щ#Щ#Ы#Щ#⍣Ш#ЩЩ#Щ#Щ#Щ#Ы#Щ#Щ#Щ#Щ#Ы#Щ#̎#ƴ#ƵƴƵƴƵƴƵƴƵƴƵƴƵƴƵƴƵƴƵƴƵƴʵ#δ#ģ#ʵδģʵδģʵδģʵδģʵδģʵδģʵδģʵδģʵδģʵδģʵδģɂ############Ί############৕############᝘############౳#Ȫ#ȫȪȫȪȫȪȫȪȫȪȫȪȫȪȫȪȫȪȫȪȫȪㄨૣ#ૢᅣᯟ#ᯞⴝ#ૠ##ૡ⽆ɐ##ɑ#≟ɐ##ɑ#‴Ɍ##ɍ#≟Ɍ##ɍ#⚶Ɋ##ɋ#≟Ɋ##ɋ#泊Ш#ЩЩ#Щ#Щ#Ы#Щ#Щ#Щ#Щ#Щ#Ы#Щ#ⱨШ#ЩЩ#Щ#Щ#Ы#Щ#Щ#Щ#Щ#Щ#Ы#Щ#⍣Ш#ЩЩ#Щ#Щ#Щ#Ы#Щ#Щ#Щ#Щ#Ы#Щ#埰#؊#؋؊؋؊؋؊؋؊؋؊؋؊؋؊؋؊؋؊؋؊؋؊፻#Ҋ#ҋҊҋҊҋҊҋҊҋҊҋҊҋҊҋҊҋҊҋҊҋҊห#Ҹ#ҹҸҹҸҹҸҹҸҹҸҹҸҹҸҹҸҹҸҹҸҹҸঢ়############߹#̺#̻̺̻̺̻̺̻̺̻̺̻̺̻̺̻̺̻̺̻̺̻̺䉜#ڸ#ڹڸڹڸڹڸڹڸڹڸڹڸڹڸڹڸڹڸڹڸڹڸⲁ############✫Ш#ЩЩ#Щ#Щ#Щ#Ы#Щ#Щ#Щ#Щ#Ы#е.䪀############ዓ############ि############ሿ#ф#хфхфхфхфхфхфхфхфхфхфхфௐШ#ЩЩ#Щ#Щ#Щ#Ы#Щ#Щ#Щ#Щ#Ы#Щ#ྈ#Ǵ#ǵǴǵǴǵǴǵǴǵǴǵǴǵǴǵǴǵǴǵǴǵǴᬰШ#ЩЩ#Щ#Щ#Щ#Ы#Щ#Щ#Щ#Щ#Ы#Щ#❲############䥪############ෛ#פ#ץפץפץפץפץפץפץפץפץפץפץפ垍#Ѿ#ѿѾѿѾѿѾѿѾѿѾѿѾѿѾѿѾѿѾѿѾѿѾҬ############㗲############⏋Ш#ЩЩ#Щ#Щ#Щ#Ы#Щ#Щ#Щ#Щ#Ы#Щ#篮Ш#ЩЩ#Щ#Щ#Ы#Щ#Щ#Щ#Щ#Щ#Ы#Щ#⍣Ш#ЩЩ#Щ#Щ#Щ#Ы#Щ#Щ#Щ#Щ#Ы#Щ#̎#ƴ#ƵƴƵƴƵƴƵƴƵƴƵƴƵƴƵƴƵƴƵƴƵƴʵ#δ#ģ#ʵδģʵδģʵδģʵδģʵδģʵδģʵδģʵδģʵδģʵδģʵδģɂ############Ί############৕############᝘############౳#Ȫ#ȫȪȫȪȫȪȫȪȫȪȫȪȫȪȫȪȫȪȫȪȫȪ"
}
],
"vertexCount":1550,
"vertexOffsets":{
"xOffset":-1761.4588485371919,
"yOffset":-1.8001774678414357,
"zOffset":0.0
},
"vertexScale":0.0090833821227129501,
"vertices":"ᖯྶ#ྷႆǛ##ǚ#Γǚ#ǛΒ#####ᅗ####ò##ó#ᅖ#ó#໏#ǜ#Εǚ##Ǜ#Ȓī#Ī˴#Ϻ#Ϻ#˴#Ī#ī#˵#ϻ#ϻ#˵#ī#θÇɉĐκĵΔ#ʂĴÌǾśɈ˭ǾλĴΕ#ʃĵÍǿŚɉʰÏ=ÒȎ1ʲ#ʤ0Ǫ8¸<é8ȏ0ʳ#ʥ1ǫ9¹=ɲÇ¨ǠuȒ#ǀvþ°AÆķ°ǡvȕ#ǁuā±@ÇƴĚ\\Fü#ŸƘùŔě¾ùGý#ŹƙøŕĚġ=Ş1ƾ#ư0ĸ:v<©:ş0ƿ#Ʊ1Ĺ;w=ŀuŘŘŘĆtućřřću¢o´Ztjö#ľkĺ¡ìµh¡uk÷#ĿjĻ í´ÓcŔAƚ#ż@ĀXHb¿Xŕ@ƛ#ŽAāYIcà{ŨŨŨĐz{đũũđ{#Ʃ¼ʈçɞ#ƚærŴďƨȏŴʉæɟ#ƛçsŵĎƩǮ~ĜŸŸĜ~ĝŹŹĝŠ[ôöö¼Z[½÷÷½[ÿƔƔƔĲĳƕƕĳ'[ƌ=Ǫ#ǐ<łRdZÍRƍ<ǫ#Ǒ=ŃSe[Ã*Àǐ&ɲ#ɶ'ǚ)È+»)Ǒ'ɳ#ɷ&Ǜ(É*˞o>jÖ0Ĭ#ĺ1þ=?Q=×1ĭ#Ļ0ý:>ƥ±Ō¤¶Ơ#ȴ·ȺĥƲō¾ĥ¥·ơ#ȵ¶ȻĤƳŌŢǖǖŢţǗǗţ´ǄǆǆŔŕǇǇŕc­d¤ŦBȊ#ȪCǀ]æcm]ŧCȋ#ȫBǁ\\çdȤk#jä#Ĭ#Ĭ#ä$h#k$ç#ĭ#ĭ#å#k#ižžžĠġſſġŠ]üüüÂ\\]ÃýýÃ]ɍ½kÆȂGʂ#ɞFƠ`~ją`ȃFʃ#ɟGơakśđĚ˺Qς#ΔRɸt¾~ŭt˻Rυ#ΕQɻu¿ξµ6°Ɯ,ȴ#Ⱦ-ƶ3Ä7¡3Ɲ-ȵ#ȿ,Ʒ2Å6ȹę#Ę˄#κ#κ#˄#Ę#ę#˅#λ#λ#˅#ę#ŊđNČ}ęϘ8Wκ##Ξ;VʒK|ÞOŋK|ˡ;Vλ##Ν8WʓJ}ßNńòɚ̨̨ɚòóɛ̩̩ɛóǸ´ƬȾȾƬ´µƭȿȿƭµŉ÷̺̼̼ɦö÷ɧ̽̽ɧ÷ѪmļļļòlmóĽĽómxÔ\\Ŧ#Ơ]Ųì.Õ]ŧ#ơ\\ųíୟ###ͬᔒ#ᔓᡜ#####᧟ō##Ō#᥀ō##Ō#ឿƥ##Ƥ#ᡜÁ##À#ᬉÁ##À#᥀ƥ##Ƥ#዇ī#Ī˴#Ϻ#Ϻ#˴#Ī#ī#˵#ϻ#ϻ#˵#ī#θÇɉĐκĵΔ#ʂĴÌǾśɈ˭ǾλĴΕ#ʃĵÍǿŚɉʰÏ=ÒȎ1ʲ#ʤ0Ǫ8¸<é8ȏ0ʳ#ʥ1ǫ9¹=ɲÇ¨ǠuȒ#ǀvþ°AÆķ°ǡvȕ#ǁuā±@ÇƴĚ\\Fü#ŸƘùŔě¾ùGý#ŹƙøŕĚġ=Ş1ƾ#ư0ĸ:v<©:ş0ƿ#Ʊ1Ĺ;w=ŀuŘŘŘĆtućřřću¢o´Ztjö#ľkĺ¡ìµh¡uk÷#ĿjĻ í´ÓcŔAƚ#ż@ĀXHb¿Xŕ@ƛ#ŽAāYIcà{ŨŨŨĐz{đũũđ{#Ʃ¼ʈçɞ#ƚærŴďƨȏŴʉæɟ#ƛçsŵĎƩǮ~ĜŸŸĜ~ĝŹŹĝŠ[ôöö¼Z[½÷÷½[ÿƔƔƔĲĳƕƕĳ'[ƌ=Ǫ#ǐ<łRdZÍRƍ<ǫ#Ǒ=ŃSe[Ã*Àǐ&ɲ#ɶ'ǚ)È+»)Ǒ'ɳ#ɷ&Ǜ(É*˞o>jÖ0Ĭ#ĺ1þ=?Q=×1ĭ#Ļ0ý:>ƥ±Ō¤¶Ơ#ȴ·ȺĥƲō¾ĥ¥·ơ#ȵ¶ȻĤƳŌŢǖǖŢţǗǗţ´ǄǆǆŔŕǇǇŕc­d¤ŦBȊ#ȪCǀ]æcm]ŧCȋ#ȫBǁ\\çdȤk#jä#Ĭ#Ĭ#ä$h#k$ç#ĭ#ĭ#å#k#ižžžĠġſſġŠ]üüüÂ\\]ÃýýÃ]ɍ½kÆȂGʂ#ɞFƠ`~ją`ȃFʃ#ɟGơakśđĚ˺Qς#ΔRɸt¾~ŭt˻Rυ#ΕQɻu¿ξµ6°Ɯ,ȴ#Ⱦ-ƶ3Ä7¡3Ɲ-ȵ#ȿ,Ʒ2Å6ȹę#Ę˄#κ#κ#˄#Ę#ę#˅#λ#λ#˅#ę#ŊđNČ}ęϘ8Wκ##Ξ;VʒK|ÞOŋK|ˡ;Vλ##Ν8WʓJ}ßNńòɚ̨̨ɚòóɛ̩̩ɛóǸ´ƬȾȾƬ´µƭȿȿƭµŉ÷̺̼̼ɦö÷ɧ̽̽ɧ÷ѪmļļļòlmóĽĽómxÔ\\Ŧ#Ơ]Ųì.Õ]ŧ#ơ\\ųíく#が#き#が##きぎ%き'&#が##き##が#き#が##き#が#き#が'ぇお#き##が⠝ϼ#Ͻ˳#ī#Ī#˲#ϼ#Ϻ#˴#Ī#ī#˵#ϻ#ʃʂ#ΕÍǿŚɉˬǿκĵΔ#ʂĴÌǾŝɈ˫ǾλĴΕ#ʥʤ#ʳǫ;·=è;Ȑ1ʲ#ʤ.Ǭ8¸<é8ȏ.ʱ#ǃǂ#ȕÿ³BÇĶ³ǠuȔ#ǀtĀ°AÆķ°ǡtȓ#ŹŸ#ýƙøŕĚ¿øFü#ŸƘûŖě¾ûEý#ƳƲ#ƿĹ;w=¨;Ŝ/ƾ#ư0ĸ:v<©:ş0ƿ#řŘȽutĆŘŘĄvwąřĿľ#÷Ļ í´i tjö#ľmļ¡ìµh¡umõ#Žż#ƛāYIc¾YŔAƚ#źBĀXHb¿XŗBƛ#ũŨəyxĒŨŨĐz{đũƛƚ#ɟsŵĎƩȎŵʈçɞ#ƚærŴďƨȏŴʉæɟ##Źĝ~ĜŸŸĜ~ĝŹ÷öƑ[Z¼öô¾Z[¿õƕƔʥĲƔƔĲĳƕǑǐ#ǭŁSe[ÌSƌ?Ǭ#ǎ>łRdZÍRƏ>ǫ#ɷɶ#ɳǛ(É*º(ǐ&ɲ#ɶ'ǚ)Æ)»)Ǒ'ɳ#Ļĺ#ĭÿ<>P<Ö0Ĭ#ĺ1ü;?S;×1ĭ#ȵȴ#ơȻĤƳŌ¿Ĥ¤¶Ơ#ȴ¹ȼĥƲō¾ĥ¥¹Ɵ##ǗţŢǖǖŢţǗǇǆ˹ŔǆǄŖŗǅȫȪ#ȋǁ\\édl\\ŦBȊ#ȪCǀ]æek]ŧCȋ#ĭĬ#ĭå%i#j%æ#Ĭ#Ĭ#ä#j#k#å#ĭ#ſžɽĠžžĠġſýüƝ]\\ÂüüÀ^_Áýɟɞ#ʃơakĄaȂGʂ#ɞFƠ`~hă`ȃFʃ#ΕΔ#υɹu¿Ŭu˺Sτ#ΔPɺr¾ŭr˹Pσ#ȿȾ#ȵƹ4Å64Ɯ,ȴ#Ⱦ-ƶ3Ä7¡3Ɲ-ȵ#λκ#λ˅#ę#Ę#˄#κ#κ#˄#Ę#ę#˅#λ#ΟΞ#·WκثJ}ßNŊJ}ˠ:Wκ##Μ9VʒK|ÞOŋK|ˣ9Vλ###̩ɛóòɚ̨̨ɚðñɛ̩#ȿƯ³²ƮȾȾƬ´µƭȿ̼̽ց÷öɦ̼̼ɦö÷ɧ̽ĽļȍonòļļðnoñĽơƠ#ŧųí/Ô\\Ŧ#ƞ[Ųì0×[ŧ#భ#が#き#が#きが##き#が#き##が##き##が##き##が##き##が##き##が##き##がဇϺ#ϻ˳#ī#Ī#˲#Ϻ#ϼ#˲#Ī#ī#˳#Ͻ#ʁʀ#ΕÍǿŜɉ˪ǿμķΔ#ʂĶÌǾŝɈ˫ǾνĶΗ#ʥʤ#ʱǭ9¹=è9Ȏ/ʰ#ʤ0Ǫ:¶>ë:ȑ0ʳ#ǁǀ#ȓā±BÉĶ±ǠuȒ#ǂtĀ°CÆĵ°ǡtȕ#ŹŸ#ûƛúŕĚÁúD ú#ŸƚûŔěÀûGý#Ʊư#ƿĹ;u?¨;Ş1ƾ#Ʋ0ĸ8v>©8ŝ0ǁ#řŘȻwvĄŘŚĄvwąśĽļ#õĻ í²g tjô#ľkĺ¡ì³f¡uk÷#Żź#ƛÿ[Ia¾[ŖCƚ#żBþZH`¿ZŗBƝ#ũŨɗ{zĐŨŨĒz{ēũƛƚ#ɝuŵĐƩȌŵʈåɜ#ƜätŴđƨȍŴʉäɟ##Źĝ}|ĜŸŸĞ|}ğŹõôƏ]\\¼ôö¼\\]½÷ƕƔʣİƔƖİıƗǏǎ#ǫŁSgYÌSƌ?Ǫ#ǐ>ŀRfXÍRƍ>ǭ#ɵɴ#ɳǙ(É(¼(ǐ$ɲ#ɶ'ǚ)È)½)Ǒ'ɳ#Ļĺ#ĭý:@P:Ö0Ĭ#ĺ1þ;?Q;Ù1ĭ#ȵȴ#ƟȽĤƳŌ¿Ĥ¤¸ƞ#ȶ¹ȼĥƲō¾ĥ¥¹ơ##ǗšŠǖǖŢţǗǅǄ˹ŖǄǆŔŕǇȫȪ#ȉǁZçdlZŦDȈ#ȬEǀ[æem[ŧEȋ#ĭĬ#ĭå#i%j#ä#Ĭ#Ĭ$ä#h$k#ç$į#Žżɽ~ĢżžĢ~ģſûúƛ]\\ÂúüÂ\\]Ãýɝɜ#ʁƣa}kĂaȄGʀ#ɞFƢ`|jă`ȅFʃ#ΕΔ#σɻs¿Ŭs˸Qς#ΖPɺr¾~ūr˹Pυ#Ƚȼ#ȵƷ2Ã4 2ƞ*ȴ#Ⱦ+ƶ3Â5¡3Ɵ+ȷ#λκ#λ˅#ę#Ę#˄#κ#μ#˂#Ě#ě#˃#ν#ΝΜ#·WκةH}ßPŌH}ˢ8Wκ##Ξ9VʐIzÞOōIzˡ9Vν###̩əóòɘ̨̪ɘòóə̫#ȽƯ³²ƮȼȾƮ²³Ưȿ̻̺ց÷öɨ̺̼ɦøùɧ̽ĽļȋonðļľðnoñĿƟƞ#ťŵí1Ö\\Ť#Ơ]Ŵì0×]ŧ#䀡###Ԇð##ñ#ð###ԅж##з#жз#жзó##ò###ó#ה###ñð##ñ#⵰#ň#ŉňŉňŉňŉňŉňŉňŉňŉňŉňŉňŉňɳ#&#'&'&'&'&'&'&'&'&'&'&'&Ǳ#Ĉ#ĉĈĉĈĉĈĉĈĉĈĉĈĉĈĉĈĉĈĉĈĉĈᅽ#ɂ#ɃɂɃɂɃɂɃɂɃɂɃɂɃɂɃɂɃɂɃɂɃɂϽ#Ì#ÍÌÍÌÍÌÍÌÍÌÍÌÍÌÍÌÍÌÍÌÍÌх#Ǵ#ǵǴǵǴǵǴǵǴǵǴǵǴǵǴǵǴǵǴǵǴǵǴ́############œ#Â#ÃÂÃÂÃÂÃÂÃÂÃÂÃÂÃÂÃÂÃÂÃÂᒒ#ȼ#ȽȼȽȼȽȼȽȼȽȼȽȼȽȼȽȼȽȼȽȼȽȼၹ############ၸ#6#7676767676767676767676ᅭ############շ############ȩ############ܯ#ǀ#ǁǀǁǀǁǀǁǀǁǀǁǀǁǀǁǀǁǀǁǀǁǀٻ#ê#ëêëêëêëêëêëêëêëêëêëêëêƘ##Ń#7#6767676767676767676767߬############ᘐ############؃#˄#˅˄˅˄˅˄˅˄˅˄˅˄˅˄˅˄˅˄˅˄˅˄ᥩ#Ĳ#ĳĲĳĲĳĲĳĲĳĲĳĲĳĲĳĲĳĲĳĲĳĲâ############ཬ############Ⴢ#ː#ˑːˑːˑːˑːˑːˑːˑːˑːˑːˑːˑː&#ά#έάέάέάέάέάέάέάέάέάέάέά⮑#ɺ#ɻɺɻɺɻɺɻɺɻɺɻɺɻɺɻɺɻɺɻɺɻɺӏ#Ō#ōŌōŌōŌōŌōŌōŌōŌōŌōŌōŌōŌǣ#ɸ#¹#ǣɸ¹ǣɸ¹ǣɸ¹ǣɸ¹ǣɸ¹ǣɸ¹ǣɸ¹ǣɸ¹ǣɸ¹ǣɸ¹ǣɸ¹Ĥ############J############Ρ############࢈############ˇ#t#ututututututututututut㑢࠿#࠾உ###ஈ#࠿##࠾૫Ō##ō#Ōō##Ō#ǫÀ##Á#ͬƥ##Ƥ#ƥƤ##ƥ#ōÁ##À#̧#ň#ŉňŉňŉňŉňŉňŉňŉňŉňŉňŉňŉňɳ#&#'&'&'&'&'&'&'&'&'&'&'&Ǳ#Ĉ#ĉĈĉĈĉĈĉĈĉĈĉĈĉĈĉĈĉĈĉĈĉĈᅽ#ɂ#ɃɂɃɂɃɂɃɂɃɂɃɂɃɂɃɂɃɂɃɂɃɂϽ#Ì#ÍÌÍÌÍÌÍÌÍÌÍÌÍÌÍÌÍÌÍÌÍÌх#Ǵ#ǵǴǵǴǵǴǵǴǵǴǵǴǵǴǵǴǵǴǵǴǵǴ́############œ#Â#ÃÂÃÂÃÂÃÂÃÂÃÂÃÂÃÂÃÂÃÂÃÂᒒ#ȼ#ȽȼȽȼȽȼȽȼȽȼȽȼȽȼȽȼȽȼȽȼȽȼၹ############ၸ#6#7676767676767676767676ᅭ############շ############ȩ############ܯ#ǀ#ǁǀǁǀǁǀǁǀǁǀǁǀǁǀǁǀǁǀǁǀǁǀٻ#ê#ëêëêëêëêëêëêëêëêëêëêëêƘ##Ń#7#6767676767676767676767߬############ᘐ############؃#˄#˅˄˅˄˅˄˅˄˅˄˅˄˅˄˅˄˅˄˅˄˅˄ᥩ#Ĳ#ĳĲĳĲĳĲĳĲĳĲĳĲĳĲĳĲĳĲĳĲĳĲâ############ཬ############Ⴢ#ː#ˑːˑːˑːˑːˑːˑːˑːˑːˑːˑːˑː&#ά#έάέάέάέάέάέάέάέάέάέάέά⮑#ɺ#ɻɺɻɺɻɺɻɺɻɺɻɺɻɺɻɺɻɺɻɺɻɺӏ#Ō#ōŌōŌōŌōŌōŌōŌōŌōŌōŌōŌōŌǣ#ɸ#¹#ǣɸ¹ǣɸ¹ǣɸ¹ǣɸ¹ǣɸ¹ǣɸ¹ǣɸ¹ǣɸ¹ǣɸ¹ǣɸ¹ǣɸ¹Ĥ############J############Ρ############࢈############ˇ#t#ututututututututututut"
}