{
"boundingBox":{
"max":[
46.621307373046875,
34.655048370361328,
73.000038027763367
],
"min":[
-47.16436767578125,
-34.758727073669434,
3.958526611328125
]
},
"colors":"",
"compression":{
"compressed":true,
"compressedColorsRange":255,
"compressedUnitVectorRange":1023,
"compressedVertsRange":16383
},
"indexLengths":[
25812
],
"indexModes":[
"Triangles"
],
"indices":"#%%&'%%%%&'%%%%&'%%%%&'%%%%&'%%H$M$JOD$I$FK%%%(':?%>$A%%@)9>C%%&'%%%%&'%%%%&'%%%%&'%%%%&'%%%%&'%%%%&'%%%%&'%%%%&'%%%%&'%%%%&'%%%%&'%%%%&'%%%%&'%%%%&'%%%%&'%%%%&'%%%%&'%%%%&'%%%%&'%%%%&'%%%%&'%%%%&'%%%%&'%%%%&'%%%%&'%%%%&'%%%%&'%%%%&'%%%%&'%%%%&'%%%%&'%%%%&'%%%%&'%%%%&'%%%%&'%%%%&'%%%%&'%%%%&'%%%%&'%%%%&'%%%%&'%%%%&'%%%%&'%%%%&'%%%%&'%%%%&'%%%%&'%%%%&'%&)%*+(''%()&%'%()&)%%&'%%%%&'%%%%&'%&)%*+(''%()&%'%()&)%%&'%&)%*+(''%()&%'%()&)%%&'%&)%*+(''%()&%'%()&)%%&'%&)%*+(''%()&%'%()&)%%&'%&)%*+(''%()&%'%()&)%%&'%&)%*+(''%()&%'%()&)%%&'%&)%*+(''%()&%'%()&)%%&'%&)%*+(''%()&%'%()&)%%&'%&)%*+(''%()&%'%()&)%%&'%%%%&'%%%%&'%%%%&'%&)%*+(''%()&%'%()&)%%&'%&)%*+(''%()&%'%()&Į$ķĴĵ%ĸ)ĵĺĻ&İ'ĳĶķ$İ'ıĴĵ$Ħ$ĭĪī%Ĥ$ĩĦħ%Ġ$ĥĢģ%Ħ)ģĨĩ&Ğ'ġĤĥ$Ğ'ğĢģ$Ĕ$ěĘę%Ĝ)ęĞğ&Ĕ'ėĚě$Ĕ'ĕĘę$Ċ$đĎď%Ē)ďĔĕ&Ċ'čĐđ$Ċ'ċĎď$Ā$ćĄą%Ĉ)ąĊċ&Ā'ăĆć$Ā'āĄą$ö$ýúû%þ)ûĀā&ö'ùüý$ö'÷úû$ì$óðñ%ô)ñö÷&ì'ïòó$ì'íðñ$â$éæç%ê)çìí&â'åèé$â'ãæç$Ø$ßÜÝ%à)Ýâã&Ø'ÛÞß$Ø'ÙÜÝ$Î$ÕÒÓ%Ö)ÓØÙ&Î'ÑÔÕ$Î'ÏÒÓ$Ä$ËÈÉ%Â$ÇÄÅ%¾$ÃÀÁ%º$¿¼½%À)½ÂÃ&¸'»¾¿$¸'¹¼½$®$µ²³%¶)³¸¹&®'±´µ$®'¯²³$¨$¯¬­%°'¯²³&ª%¯°±$¬%¯°±$¨$¯¬­%ª$¯¬­%ª$¯¬­%°'¯²³&ª%¯°±$¬%¯°±$¨$¯¬­%°'¯²³&ª%¯°±$¬%¯°±$¨$¯¬­%°'¯²³&ª%¯°±$¬%¯°±$¨$¯¬­%°'¯²³&ª%¯°±$¬%¯°±$¨$¯¬­%°'¯²³&ª%¯°±$¬%¯°±$¨$¯¬­%°'¯²³&ª%¯°±$¬%¯°±$¨$¯¬­%°'¯²³&ª%¯°±$¬%¯°±$¨$¯¬­%°'¯²³&ª%¯°±$¬%¯°±$¨$¯¬­%°'¯²³&ª%¯°±$¬%¯°±$¨$¯¬­%ª$¯¬­%ª$¯¬­%ª$¯¬­%°'¯²³&ª%¯°±$¬%¯°±$¨$¯¬­%°'¯²³&ª%¯°±$¬%¯°±$¨$¯¬­%°'¯²³&ª%¯°±$¬%¯°±$¨$¯¬­%ª$¯¬­%ª$¯¬­%°'¯²³&ª%¯°±$¬%¯°±$¨$¯¬­%°'¯²³&ª%¯°±$¬%¯°±$¨$¯¬­%°'¯²³&ª%¯°±$¬%¯°±$¨$¯¬­%°'¯²³&ª%¯°±$¬%¯°±$¨$¯¬­%°'¯²³&ª%¯°±$¬%¯°±$¨$¯¬­%°'¯²³&ª%¯°±$¬%¯°±$¨$¯¬­%°'¯²³&ª%¯°±$¬%¯°±$¨$¯¬­%°'¯²³&ª%¯°±$¬%¯°±$¨$¯¬­%°'¯²³&ª%¯°±$¬%¯°±$¨$¯¬­%ª$¯¬­%ª$¯¬­%ª$¯¬­%°'¯²³&ª%¯°±$¬%¯°±$¨$¯¬­%°'¯²³&ª%¯°±$¬%¯°±$¨$¯¬­%°'¯²³&ª%¯°±$¬%¯°±$¨$¯¬­%ª$¯¬­%ª$¯¬­%°'¯²³&ª%¯°±$¬%¯°±$¨$¯¬­%°'¯²³&ª%¯°±$¬%¯°±$¨$¯¬­%°'¯²³&ª%¯°±$¬%¯°±$¨$¯¬­%°'¯²³&ª%¯°±$¬%¯°±$¨$¯¬­%°'¯²³&ª%¯°±$¬%¯°±$¨$¯¬­%°'¯²³&ª%¯°±$¬%¯°±$¨$¯¬­%°'¯²³&ª%¯°±$¬%¯°±$¨$¯¬­%°'¯²³&ª%¯°±$¬%¯°±$¨$¯¬­%°'¯²³&ª%¯°±$¬%¯°±$¨$¯¬­%ª$¯¬­%ª$¯¬­%ª$¯¬­%°'¯²³&ª%¯°±$¬%¯°±$¨$¯¬­%°'¯²³&ª%¯°±$¬%¯°±$¨$¯¬­%°'¯²³&ª%¯°±$¬%¯°±$¨$¯¬­%ª$¯¬­%ª$¯¬­%°'¯²³&ª%¯°±$¬%¯°±$¨$¯¬­%°'¯²³&ª%¯°±$¬%¯°±$¨$¯¬­%°'¯²³&ª%¯°±$¬%¯°±$¨$¯¬­%°'¯²³&ª%¯°±$¬%¯°±$¨$¯¬­%°'¯²³&ª%¯°±$¬%¯°±$¨$¯¬­%°'¯²³&ª%¯°±$¬%¯°±$¨$¯¬­%°'¯²³&ª%¯°±$¬%¯°±$¨$¯¬­%°'¯²³&ª%¯°±$¬%¯°±$¨$¯¬­%°'¯²³&ª%¯°±$¬%¯°±$¨$¯¬­%ª$¯¬­%ª$¯¬­%ª$¯¬­%°'¯²³&ª%¯°±$¬%¯°±$¨$¯¬­%°'¯²³&ª%¯°±$¬%¯°±$¨$¯¬­%°'¯²³&ª%¯°±$¬%¯°±$¨$¯¬­%ª$¯¬­%ª$¯¬­%°'¯²³&ª%¯°±$¬%¯°±$¨$¯¬­%°'¯²³&ª%¯°±$¬%¯°±$¨$¯¬­%°'¯²³&ª%¯°±$¬%¯°±$¨$¯¬­%°'¯²³&ª%¯°±$¬%¯°±$¨$¯¬­%°'¯²³&ª%¯°±$¬%¯°±$¨$¯¬­%°'¯²³&ª%¯°±$¬%¯°±$¨$¯¬­%°'¯²³&ª%¯°±$¬%¯°±$¨$¯¬­%°'¯²³&ª%¯°±$¬%¯°±$¨$¯¬­%°'¯²³&ª%¯°±$¬%¯°±$¨$¯¬­%ª$¯¬­%ª$¯¬­%ª$¯¬­%°'¯²³&ª%¯°±$¬%¯°±$¨$¯¬­%°'¯²³&ª%¯°±$¬%¯°±$¨$¯¬­%°'¯²³&ª%¯°±$¬%¯°±$¨$¯¬­%ª$¯¬­%ª$¯¬­%°'¯²³&ª%¯°±$¬%¯°±$¨$¯¬­%°'¯²³&ª%¯°±$¬%¯°±$¨$¯¬­%°'¯²³&ª%¯°±$¬%¯°±$¨$¯¬­%°'¯²³&ª%¯°±$¬%¯°±$¨$¯¬­%°'¯²³&ª%¯°±$¬%¯°±$¨$¯¬­%°'¯²³&ª%¯°±$¬%¯°±$¨$¯¬­%°'¯²³&ª%¯°±$¬%¯°±$¨$¯¬­%°'¯²³&ª%¯°±$¬%¯°±$¨$¯¬­%°'¯²³&ª%¯°±$¬%¯°±$¨$¯¬­%ª$¯¬­%ª$¯¬­%ª$¯¬­%°'¯²³&ª%¯°±$¬%¯°±$¨$¯¬­%°'¯²³&ª%¯°±$¬%¯°±$¨$¯¬­%°'¯²³&ª%¯°±$¬%¯°±$¨$¯¬­%ª$¯¬­%ª$¯¬­%°'¯²³&ª%¯°±$¬%¯°±$¨$¯¬­%°'¯²³&ª%¯°±$¬%¯°±$¨$¯¬­%°'¯²³&ª%¯°±$¬%¯°±$¨$¯¬­%°'¯²³&ª%¯°±$¬%¯°±$¨$¯¬­%°'¯²³&ª%¯°±$¬%¯°±$¨$¯¬­%°'¯²³&ª%¯°±$¬%¯°±$¨$¯¬­%°'¯²³&ª%¯°±$¬%¯°±$¨$¯¬­%°'¯²³&ª%¯°±$¬%¯°±$¨$¯¬­%°'¯²³&ª%¯°±$¬%¯°±$¨$¯¬­%ª$¯¬­%ª$¯¬­%ª$¯¬­%°'¯²³&ª%¯°±$¬%¯°±$¨$¯¬­%°'¯²³&ª%¯°±$¬%¯°±$¨$¯¬­%°'¯²³&ª%¯°±$¬%¯°±$¨$¯¬­%ª$¯¬­%ª$¯¬­%°'¯²³&ª%¯°±$¬%¯°±$¨$¯¬­%°'¯²³&ª%¯°±$¬%¯°±$¨$¯¬­%°'¯²³&ª%¯°±$¬%¯°±$¨$¯¬­%°'¯²³&ª%¯°±$¬%¯°±$¨$¯¬­%°'¯²³&ª%¯°±$¬%¯°±$¨$¯¬­%°'¯²³&ª%¯°±$¬%¯°±$¨$¯¬­%°'¯²³&ª%¯°±$¬%¯°±$¨$¯¬­%°'¯²³&ª%¯°±$¬%¯°±$¨$¯¬­%°'¯²³&ª%¯°±$¬%¯°±$¨$¯¬­%ª$¯¬­%ª$¯¬­%ª$¯¬­%°'¯²³&ª%¯°±$¬%¯°±$¨$¯¬­%°'¯²³&ª%¯°±$¬%¯°±$¨$¯¬­%°'¯²³&ª%¯°±$¬%¯°±$¨$¯¬­%ª$¯¬­%ª$¯¬­%°'¯²³&ª%¯°±$¬%¯°±$¨$¯¬­%°'¯²³&ª%¯°±$¬%¯°±$¨$¯¬­%°'¯²³&ª%¯°±$¬%¯°±$¨$¯¬­%°'¯²³&ª%¯°±$¬%¯°±$¨$¯¬­%°'¯²³&ª%¯°±$¬%¯°±$¨$¯¬­%°'¯²³&ª%¯°±$¬%¯°±$¨$¯¬­%°'¯²³&ª%¯°±$¬%¯°±$¨$¯¬­%°'¯²³&ª%¯°±$¬%¯°±$¨$¯¬­%°'¯²³&ª%¯°±$¬%¯°±$¨$¯¬­%ª$¯¬­%ª$¯¬­%ª$¯¬­%°'¯²³&ª%¯°±$¬%¯°±$¨$¯¬­%°'¯²³&ª%¯°±$¬%¯°±$¨$¯¬­%°'¯²³&ª%¯°±$¬%¯°±$¨$¯¬­%ª$¯¬­%ª$¯¬­%°'¯²³&ª%¯°±$¬%¯°±$¨$¯¬­%°'¯²³&ª%¯°±$¬%¯°±$¨$¯¬­%°'¯²³&ª%¯°±$¬%¯°±$¨$¯¬­%°'¯²³&ª%¯°±$¬%¯°±$¨$¯¬­%°'¯²³&ª%¯°±$¬%¯°±$¨$¯¬­%°'¯²³&ª%¯°±$¬%¯°±$¨$¯¬­%°'¯²³&ª%¯°±$¬%¯°±$¨$¯¬­%°'¯²³&ª%¯°±$¬%¯°±$¨$¯¬­%°'¯²³&ª%¯°±$¬%¯°±$¨$¯¬­%ª$¯¬­%ª$¯¬­%ª$¯¬­%°'¯²³&ª%¯°±$¬%¯°±$¨$¯¬­%°'¯²³&ª%¯°±$¬%¯°±$¨$¯¬­%°'¯²³&ª%¯°±$¬%¯°±$¨$¯¬­%ª$¯¬­%ª$¯¬­%°'¯²³&ª%¯°±$¬%¯°±$¨$¯¬­%°'¯²³&ª%¯°±$¬%¯°±$¨$¯¬­%°'¯²³&ª%¯°±$¬%¯°±$¨$¯¬­%°'¯²³&ª%¯°±$¬%¯°±$¨$¯¬­%°'¯²³&ª%¯°±$¬%¯°±$¨$¯¬­%°'¯²³&ª%¯°±$¬%¯°±$¨$¯¬­%°'¯²³&ª%¯°±$¬%¯°±$¨$¯¬­%°'¯²³&ª%¯°±$¬%¯°±$¨$¯¬­%°'¯²³&ª%¯°±$¬%¯°±$¨$¯¬­%ª$¯¬­%ª$¯¬­%ª$¯¬­%°'¯²³&ª%¯°±$¬%¯°±$¨$¯¬­%°'¯²³&ª%¯°±$¬%¯°±$¨$¯¬­%°'¯²³&ª%¯°±$¬%¯°±$¨$¯¬­%ª$¯¬­%ª$¯¬­%°'¯²³&ª%¯°±$¬%¯°±$¨$¯¬­%°'¯²³&ª%¯°±$¬%¯°±$¨$¯¬­%°'¯²³&ª%¯°±$¬%¯°±$¨$¯¬­%°'¯²³&ª%¯°±$¬%¯°±$¨$¯¬­%°'¯²³&ª%¯°±$¬%¯°±$¨$¯¬­%°'¯²³&ª%¯°±$¬%¯°±$¨$¯¬­%°'¯²³&ª%¯°±$¬%¯°±$¨$¯¬­%°'¯²³&ª%¯°±$¬%¯°±$¨$¯¬­%°'¯²³&ª%¯°±$¬%¯°±$¨$¯¬­%ª$¯¬­%ª$¯¬­%ª$¯¬­%°'¯²³&ª%¯°±$¬%¯°±$¨$¯¬­%°'¯²³&ª%¯°±$¬%¯°±$¨$¯¬­%°'¯²³&ª%¯°±$¬%¯°±$¨$¯¬­%ª$¯¬­%ª$¯¬­%°'¯²³&ª%¯°±$¬%¯°±$¨$¯¬­%°'¯²³&ª%¯°±$¬%¯°±$¨$¯¬­%°'¯²³&ª%¯°±$¬%¯°±$¨$¯¬­%°'¯²³&ª%¯°±$¬%¯°±$¨$¯¬­%°'¯²³&ª%¯°±$¬%¯°±$¨$¯¬­%°'¯²³&ª%¯°±$¬%¯°±$¨$¯¬­%°'¯²³&ª%¯°±$¬%¯°±$¨$¯¬­%°'¯²³&ª%¯°±$¬%¯°±$¨$¯¬­%°'¯²³&ª%¯°±$¬%¯°±$¨$¯¬­%ª$¯¬­%ª$¯¬­%ª$¯¬­%°'¯²³&ª%¯°±$¬%¯°±$¨$¯¬­%°'¯²³&ª%¯°±$¬%¯°±$¨$¯¬­%°'¯²³&ª%¯°±$¬%¯°±$¨$¯¬­%ª$¯¬­%ª$¯¬­%°'¯²³&ª%¯°±$¬%¯°±$¨$¯¬­%°'¯²³&ª%¯°±$¬%¯°±$¨$¯¬­%°'¯²³&ª%¯°±$¬%¯°±$¨$¯¬­%°'¯²³&ª%¯°±$¬%¯°±$¨$¯¬­%°'¯²³&ª%¯°±$¬%¯°±$¨$¯¬­%°'¯²³&ª%¯°±$¬%¯°±$¨$¯¬­%°'¯²³&ª%¯°±$¬%¯°±$¨$¯¬­%°'¯²³&ª%¯°±$¬%¯°±$¨$¯¬­%°'¯²³&ª%¯°±$¬%¯°±$¨$¯¬­%ª$¯¬­%ª$¯¬­%ª$¯¬­%°'¯²³&ª%¯°±$¬%¯°±$¨$¯¬­%°'¯²³&ª%¯°±$¬%¯°±$¨$¯¬­%°'¯²³&ª%¯°±$¬%¯°±$¨$¯¬­%ª$¯¬­%ª$¯¬­%°'¯²³&ª%¯°±$¬%¯°±$¨$¯¬­%°'¯²³&ª%¯°±$¬%¯°±$¨$¯¬­%°'¯²³&ª%¯°±$¬%¯°±$¨$¯¬­%°'¯²³&ª%¯°±$¬%¯°±$¨$¯¬­%°'¯²³&ª%¯°±$¬%¯°±$¨$¯¬­%°'¯²³&ª%¯°±$¬%¯°±$¨$¯¬­%°'¯²³&ª%¯°±$¬%¯°±$¨$¯¬­%°'¯²³&ª%¯°±$¬%¯°±$¨$¯¬­%°'¯²³&ª%¯°±$¬%¯°±$¨$¯¬­%ª$¯¬­%ª$¯¬­%ª$¯¬­%°'¯²³&ª%¯°±$¬%¯°±$¨$¯¬­%°'¯²³&ª%¯°±$¬%¯°±$¨$¯¬­%°'¯²³&ª%¯°±$¬%¯°±$¨$¯¬­%ª$¯¬­%ª$¯¬­%°'¯²³&ª%¯°±$¬%¯°±$¨$¯¬­%°'¯²³&ª%¯°±$¬%¯°±$¨$¯¬­%°'¯²³&ª%¯°±$¬%¯°±$¨$¯¬­%°'¯²³&ª%¯°±$¬%¯°±$¨$¯¬­%°'¯²³&ª%¯°±$¬%¯°±$¨$¯¬­%°'¯²³&ª%¯°±$¬%¯°±$¨$¯¬­%°'¯²³&ª%¯°±$¬%¯°±$¨$¯¬­%°'¯²³&ª%¯°±$¬%¯°±$¨$¯¬­%°'¯²³&ª%¯°±$¬%¯°±$¨$¯¬­%ª$¯¬­%ª$¯¬­%ª$¯¬­%°'¯²³&ª%¯°±$¬%¯°±$¨$¯¬­%°'¯²³&ª%¯°±$¬%¯°±$¨$¯¬­%°'¯²³&ª%¯°±$¬%¯°±$¨$¯¬­%ª$¯¬­%ª$¯¬­%°'¯²³&ª%¯°±$¬%¯°±$¨$¯¬­%°'¯²³&ª%¯°±$¬%¯°±$¨$¯¬­%°'¯²³&ª%¯°±$¬%¯°±$¨$¯¬­%°'¯²³&ª%¯°±$¬%¯°±$¨$¯¬­%°'¯²³&ª%¯°±$¬%¯°±$¨$¯¬­%°'¯²³&ª%¯°±$¬%¯°±$¨$¯¬­%°'¯²³&ª%¯°±$¬%¯°±$¨$¯¬­%°'¯²³&ª%¯°±$¬%¯°±$¨$¯¬­%°'¯²³&ª%¯°±$¬%¯°±$¨$¯¬­%ª$¯¬­%ª$¯¬­%ª$¯¬­%°'¯²³&ª%¯°±$¬%¯°±$¨$¯¬­%°'¯²³&ª%¯°±$¬%¯°±$¨$઄ઇઆ$ઇ'ં੿੾(ઉ%઀੿੾&અ%੾੽੼&ઇ$੺੽੼$ઃ$੶੹੸$੿$ੲੵੴ$ੵ'ੰ੭੬(੷%੮੭੬&ੳ%੬੫੪&ੵ$੨੫੪$੫'੦੣੢(੭%੤੣੢&੩%੢੡੠&੫$ਫ਼੡੠$੡'ੜਖ਼੘(੣%ਗ਼ਖ਼੘&੟%੘੗੖&੡$੔੗੖$੗'੒੏੎(ਖ਼%੐੏੎&੕%੎੍ੌ&੗$੊੍ੌ$੍'ੈ੅੄(੏%੆੅੄&ੋ%੄੃ੂ&੍$ੀ੃ੂ$੃'ਾ਻਺(੅%਼਻਺&ੁ%਺ਹਸ&੃$ਸ਼ਹਸ$ਹ'਴਱ਰ(਻%ਲ਱ਰ&਷%ਰਯਮ&ਹ$ਬਯਮ$ਯ'ਪਧਦ(਱%ਨਧਦ&ਭ%ਦਥਤ&ਯ$ਢਥਤ$ਥ'ਠਝਜ(ਧ%ਞਝਜ&ਣ%ਜਛਚ&ਥ$ਘਛਚ$ਡ$ਔਗਖ$ਝ$ਐਓ਒$ਙ$਌ਏ਎$ਏ'ਊਇਆ(਑%ਈਇਆ&਍%ਆਅ਄&ਏ$ਂਅ਄$ਅ'਀৽ৼ(ਇ%৾৽ৼ&ਃ%ৼ৻৺&ਃ%%&'%&)%*+(''%()&%'%()&)%%&'%%%%&'%%%%&'%&)%*+(''%()&%'%()&)%%&'%&)%*+(''%()&%'%()&)%%&'%&)%*+(''%()&%'%()&)%%&'%&)%*+(''%()&%'%()&)%%&'%&)%*+(''%()&%'%()&)%%&'%&)%*+(''%()&%'%()&)%%&'%&)%*+(''%()&%'%()&)%%&'%&)%*+(''%()&%'%()&)%%&'%&)%*+(''%()&%'%()&)%%&'%%%%&'%%%%&'%%%%&'%&)%*+(''%()&%'%()&)%%&'%&)%*+(''%()&%'%()&Į$ķĴĵ%ĸ)ĵĺĻ&İ'ĳĶķ$İ'ıĴĵ$Ħ$ĭĪī%Ĥ$ĩĦħ%Ġ$ĥĢģ%Ħ)ģĨĩ&Ğ'ġĤĥ$Ğ'ğĢģ$Ĕ$ěĘę%Ĝ)ęĞğ&Ĕ'ėĚě$Ĕ'ĕĘę$Ċ$đĎď%Ē)ďĔĕ&Ċ'čĐđ$Ċ'ċĎď$Ā$ćĄą%Ĉ)ąĊċ&Ā'ăĆć$Ā'āĄą$ö$ýúû%þ)ûĀā&ö'ùüý$ö'÷úû$ì$óðñ%ô)ñö÷&ì'ïòó$ì'íðñ$â$éæç%ê)çìí&â'åèé$â'ãæç$Ø$ßÜÝ%à)Ýâã&Ø'ÛÞß$Ø'ÙÜÝ$Î$ÕÒÓ%Ö)ÓØÙ&Î'ÑÔÕ$Î'ÏÒÓ$Ä$ËÈÉ%Â$ÇÄÅ%¾$ÃÀÁ%º$¿¼½%À)½ÂÃ&¸'»¾¿$¸'¹¼½$®$µ²³%¶)³¸¹&®'±´µ$®'¯²³$¨$¯¬­%°'¯²³&ª%¯°±$¬%¯°±$¨$¯¬­%ª$¯¬­%ª$¯¬­%°'¯²³&ª%¯°±$¬%¯°±$¨$¯¬­%°'¯²³&ª%¯°±$¬%¯°±$¨$¯¬­%°'¯²³&ª%¯°±$¬%¯°±$¨$¯¬­%°'¯²³&ª%¯°±$¬%¯°±$¨$¯¬­%°'¯²³&ª%¯°±$¬%¯°±$¨$¯¬­%°'¯²³&ª%¯°±$¬%¯°±$¨$¯¬­%°'¯²³&ª%¯°±$¬%¯°±$¨$¯¬­%°'¯²³&ª%¯°±$¬%¯°±$¨$¯¬­%°'¯²³&ª%¯°±$¬%¯°±$¨$¯¬­%ª$¯¬­%ª$¯¬­%ª$¯¬­%°'¯²³&ª%¯°±$¬%¯°±$¨$¯¬­%°'¯²³&ª%¯°±$¬%¯°±$¨$¯¬­%°'¯²³&ª%¯°±$¬%¯°±$¨$¯¬­%ª$¯¬­%ª$¯¬­%°'¯²³&ª%¯°±$¬%¯°±$¨$¯¬­%°'¯²³&ª%¯°±$¬%¯°±$¨$¯¬­%°'¯²³&ª%¯°±$¬%¯°±$¨$¯¬­%°'¯²³&ª%¯°±$¬%¯°±$¨$¯¬­%°'¯²³&ª%¯°±$¬%¯°±$¨$¯¬­%°'¯²³&ª%¯°±$¬%¯°±$¨$¯¬­%°'¯²³&ª%¯°±$¬%¯°±$¨$¯¬­%°'¯²³&ª%¯°±$¬%¯°±$¨$¯¬­%°'¯²³&ª%¯°±$¬%¯°±$¨$¯¬­%ª$¯¬­%ª$¯¬­%ª$¯¬­%°'¯²³&ª%¯°±$¬%¯°±$¨$¯¬­%°'¯²³&ª%¯°±$¬%¯°±$¨$¯¬­%°'¯²³&ª%¯°±$¬%¯°±$¨$¯¬­%ª$¯¬­%ª$¯¬­%°'¯²³&ª%¯°±$¬%¯°±$¨$¯¬­%°'¯²³&ª%¯°±$¬%¯°±$¨$¯¬­%°'¯²³&ª%¯°±$¬%¯°±$¨$¯¬­%°'¯²³&ª%¯°±$¬%¯°±$¨$¯¬­%°'¯²³&ª%¯°±$¬%¯°±$¨$¯¬­%°'¯²³&ª%¯°±$¬%¯°±$¨$¯¬­%°'¯²³&ª%¯°±$¬%¯°±$¨$¯¬­%°'¯²³&ª%¯°±$¬%¯°±$¨$¯¬­%°'¯²³&ª%¯°±$¬%¯°±$¨$¯¬­%ª$¯¬­%ª$¯¬­%ª$¯¬­%°'¯²³&ª%¯°±$¬%¯°±$¨$¯¬­%°'¯²³&ª%¯°±$¬%¯°±$¨$¯¬­%°'¯²³&ª%¯°±$¬%¯°±$¨$¯¬­%ª$¯¬­%ª$¯¬­%°'¯²³&ª%¯°±$¬%¯°±$¨$¯¬­%°'¯²³&ª%¯°±$¬%¯°±$¨$¯¬­%°'¯²³&ª%¯°±$¬%¯°±$¨$¯¬­%°'¯²³&ª%¯°±$¬%¯°±$¨$¯¬­%°'¯²³&ª%¯°±$¬%¯°±$¨$¯¬­%°'¯²³&ª%¯°±$¬%¯°±$¨$¯¬­%°'¯²³&ª%¯°±$¬%¯°±$¨$¯¬­%°'¯²³&ª%¯°±$¬%¯°±$¨$¯¬­%°'¯²³&ª%¯°±$¬%¯°±$¨$¯¬­%ª$¯¬­%ª$¯¬­%ª$¯¬­%°'¯²³&ª%¯°±$¬%¯°±$¨$¯¬­%°'¯²³&ª%¯°±$¬%¯°±$¨$¯¬­%°'¯²³&ª%¯°±$¬%¯°±$¨$¯¬­%ª$¯¬­%ª$¯¬­%°'¯²³&ª%¯°±$¬%¯°±$¨$¯¬­%°'¯²³&ª%¯°±$¬%¯°±$¨$¯¬­%°'¯²³&ª%¯°±$¬%¯°±$¨$¯¬­%°'¯²³&ª%¯°±$¬%¯°±$¨$¯¬­%°'¯²³&ª%¯°±$¬%¯°±$¨$¯¬­%°'¯²³&ª%¯°±$¬%¯°±$¨$¯¬­%°'¯²³&ª%¯°±$¬%¯°±$¨$¯¬­%°'¯²³&ª%¯°±$¬%¯°±$¨$¯¬­%°'¯²³&ª%¯°±$¬%¯°±$¨$¯¬­%ª$¯¬­%ª$¯¬­%ª$¯¬­%°'¯²³&ª%¯°±$¬%¯°±$¨$¯¬­%°'¯²³&ª%¯°±$¬%¯°±$¨$¯¬­%°'¯²³&ª%¯°±$¬%¯°±$¨$¯¬­%ª$¯¬­%ª$¯¬­%°'¯²³&ª%¯°±$¬%¯°±$¨$¯¬­%°'¯²³&ª%¯°±$¬%¯°±$¨$¯¬­%°'¯²³&ª%¯°±$¬%¯°±$¨$¯¬­%°'¯²³&ª%¯°±$¬%¯°±$¨$¯¬­%°'¯²³&ª%¯°±$¬%¯°±$¨$¯¬­%°'¯²³&ª%¯°±$¬%¯°±$¨$¯¬­%°'¯²³&ª%¯°±$¬%¯°±$¨$¯¬­%°'¯²³&ª%¯°±$¬%¯°±$¨$¯¬­%°'¯²³&ª%¯°±$¬%¯°±$¨$¯¬­%ª$¯¬­%ª$¯¬­%ª$¯¬­%°'¯²³&ª%¯°±$¬%¯°±$¨$¯¬­%°'¯²³&ª%¯°±$¬%¯°±$¨$¯¬­%°'¯²³&ª%¯°±$¬%¯°±$¨$¯¬­%ª$¯¬­%ª$¯¬­%°'¯²³&ª%¯°±$¬%¯°±$¨$¯¬­%°'¯²³&ª%¯°±$¬%¯°±$¨$¯¬­%°'¯²³&ª%¯°±$¬%¯°±$¨$¯¬­%°'¯²³&ª%¯°±$¬%¯°±$¨$¯¬­%°'¯²³&ª%¯°±$¬%¯°±$¨$¯¬­%°'¯²³&ª%¯°±$¬%¯°±$¨$¯¬­%°'¯²³&ª%¯°±$¬%¯°±$¨$¯¬­%°'¯²³&ª%¯°±$¬%¯°±$¨$¯¬­%°'¯²³&ª%¯°±$¬%¯°±$¨$¯¬­%ª$¯¬­%ª$¯¬­%ª$¯¬­%°'¯²³&ª%¯°±$¬%¯°±$¨$¯¬­%°'¯²³&ª%¯°±$¬%¯°±$¨$¯¬­%°'¯²³&ª%¯°±$¬%¯°±$¨$¯¬­%ª$¯¬­%ª$¯¬­%°'¯²³&ª%¯°±$¬%¯°±$¨$¯¬­%°'¯²³&ª%¯°±$¬%¯°±$¨$¯¬­%°'¯²³&ª%¯°±$¬%¯°±$¨$¯¬­%°'¯²³&ª%¯°±$¬%¯°±$¨$¯¬­%°'¯²³&ª%¯°±$¬%¯°±$¨$¯¬­%°'¯²³&ª%¯°±$¬%¯°±$¨$¯¬­%°'¯²³&ª%¯°±$¬%¯°±$¨$¯¬­%°'¯²³&ª%¯°±$¬%¯°±$¨$¯¬­%°'¯²³&ª%¯°±$¬%¯°±$¨$¯¬­%ª$¯¬­%ª$¯¬­%ª$¯¬­%°'¯²³&ª%¯°±$¬%¯°±$¨$¯¬­%°'¯²³&ª%¯°±$¬%¯°±$¨$¯¬­%°'¯²³&ª%¯°±$¬%¯°±$¨$¯¬­%ª$¯¬­%ª$¯¬­%°'¯²³&ª%¯°±$¬%¯°±$¨$¯¬­%°'¯²³&ª%¯°±$¬%¯°±$¨$¯¬­%°'¯²³&ª%¯°±$¬%¯°±$¨$¯¬­%°'¯²³&ª%¯°±$¬%¯°±$¨$¯¬­%°'¯²³&ª%¯°±$¬%¯°±$¨$¯¬­%°'¯²³&ª%¯°±$¬%¯°±$¨$¯¬­%°'¯²³&ª%¯°±$¬%¯°±$¨$¯¬­%°'¯²³&ª%¯°±$¬%¯°±$¨$¯¬­%°'¯²³&ª%¯°±$¬%¯°±$¨$¯¬­%ª$¯¬­%ª$¯¬­%ª$¯¬­%°'¯²³&ª%¯°±$¬%¯°±$¨$¯¬­%°'¯²³&ª%¯°±$¬%¯°±$¨$¯¬­%°'¯²³&ª%¯°±$¬%¯°±$¨$¯¬­%ª$¯¬­%ª$¯¬­%°'¯²³&ª%¯°±$¬%¯°±$¨$¯¬­%°'¯²³&ª%¯°±$¬%¯°±$¨$¯¬­%°'¯²³&ª%¯°±$¬%¯°±$¨$¯¬­%°'¯²³&ª%¯°±$¬%¯°±$¨$¯¬­%°'¯²³&ª%¯°±$¬%¯°±$¨$¯¬­%°'¯²³&ª%¯°±$¬%¯°±$¨$¯¬­%°'¯²³&ª%¯°±$¬%¯°±$¨$¯¬­%°'¯²³&ª%¯°±$¬%¯°±$¨$¯¬­%°'¯²³&ª%¯°±$¬%¯°±$¨$¯¬­%ª$¯¬­%ª$¯¬­%ª$¯¬­%°'¯²³&ª%¯°±$¬%¯°±$¨$¯¬­%°'¯²³&ª%¯°±$¬%¯°±$¨$¯¬­%°'¯²³&ª%¯°±$¬%¯°±$¨$¯¬­%ª$¯¬­%ª$¯¬­%°'¯²³&ª%¯°±$¬%¯°±$¨$¯¬­%°'¯²³&ª%¯°±$¬%¯°±$¨$¯¬­%°'¯²³&ª%¯°±$¬%¯°±$¨$¯¬­%°'¯²³&ª%¯°±$¬%¯°±$¨$¯¬­%°'¯²³&ª%¯°±$¬%¯°±$¨$¯¬­%°'¯²³&ª%¯°±$¬%¯°±$¨$¯¬­%°'¯²³&ª%¯°±$¬%¯°±$¨$¯¬­%°'¯²³&ª%¯°±$¬%¯°±$¨$¯¬­%°'¯²³&ª%¯°±$¬%¯°±$¨$¯¬­%ª$¯¬­%ª$¯¬­%ª$¯¬­%°'¯²³&ª%¯°±$¬%¯°±$¨$¯¬­%°'¯²³&ª%¯°±$¬%¯°±$¨$¯¬­%°'¯²³&ª%¯°±$¬%¯°±$¨$¯¬­%ª$¯¬­%ª$¯¬­%°'¯²³&ª%¯°±$¬%¯°±$¨$¯¬­%°'¯²³&ª%¯°±$¬%¯°±$¨$¯¬­%°'¯²³&ª%¯°±$¬%¯°±$¨$¯¬­%°'¯²³&ª%¯°±$¬%¯°±$¨$¯¬­%°'¯²³&ª%¯°±$¬%¯°±$¨$¯¬­%°'¯²³&ª%¯°±$¬%¯°±$¨$¯¬­%°'¯²³&ª%¯°±$¬%¯°±$¨$¯¬­%°'¯²³&ª%¯°±$¬%¯°±$¨$¯¬­%°'¯²³&ª%¯°±$¬%¯°±$¨$¯¬­%ª$¯¬­%ª$¯¬­%ª$¯¬­%°'¯²³&ª%¯°±$¬%¯°±$¨$¯¬­%°'¯²³&ª%¯°±$¬%¯°±$¨$¯¬­%°'¯²³&ª%¯°±$¬%¯°±$¨$¯¬­%ª$¯¬­%ª$¯¬­%°'¯²³&ª%¯°±$¬%¯°±$¨$¯¬­%°'¯²³&ª%¯°±$¬%¯°±$¨$¯¬­%°'¯²³&ª%¯°±$¬%¯°±$¨$¯¬­%°'¯²³&ª%¯°±$¬%¯°±$¨$¯¬­%°'¯²³&ª%¯°±$¬%¯°±$¨$¯¬­%°'¯²³&ª%¯°±$¬%¯°±$¨$¯¬­%°'¯²³&ª%¯°±$¬%¯°±$¨$¯¬­%°'¯²³&ª%¯°±$¬%¯°±$¨$¯¬­%°'¯²³&ª%¯°±$¬%¯°±$¨$¯¬­%ª$¯¬­%ª$¯¬­%ª$¯¬­%°'¯²³&ª%¯°±$¬%¯°±$¨$¯¬­%°'¯²³&ª%¯°±$¬%¯°±$¨$¯¬­%°'¯²³&ª%¯°±$¬%¯°±$¨$¯¬­%ª$¯¬­%ª$¯¬­%°'¯²³&ª%¯°±$¬%¯°±$¨$¯¬­%°'¯²³&ª%¯°±$¬%¯°±$¨$¯¬­%°'¯²³&ª%¯°±$¬%¯°±$¨$¯¬­%°'¯²³&ª%¯°±$¬%¯°±$¨$¯¬­%°'¯²³&ª%¯°±$¬%¯°±$¨$¯¬­%°'¯²³&ª%¯°±$¬%¯°±$¨$¯¬­%°'¯²³&ª%¯°±$¬%¯°±$¨$¯¬­%°'¯²³&ª%¯°±$¬%¯°±$¨$¯¬­%°'¯²³&ª%¯°±$¬%¯°±$¨$¯¬­%ª$¯¬­%ª$¯¬­%ª$¯¬­%°'¯²³&ª%¯°±$¬%¯°±$¨$¯¬­%°'¯²³&ª%¯°±$¬%¯°±$¨$¯¬­%°'¯²³&ª%¯°±$¬%¯°±$¨$¯¬­%ª$¯¬­%ª$¯¬­%°'¯²³&ª%¯°±$¬%¯°±$¨$¯¬­%°'¯²³&ª%¯°±$¬%¯°±$¨$¯¬­%°'¯²³&ª%¯°±$¬%¯°±$¨$¯¬­%°'¯²³&ª%¯°±$¬%¯°±$¨$¯¬­%°'¯²³&ª%¯°±$¬%¯°±$¨$¯¬­%°'¯²³&ª%¯°±$¬%¯°±$¨$¯¬­%°'¯²³&ª%¯°±$¬%¯°±$¨$¯¬­%°'¯²³&ª%¯°±$¬%¯°±$¨$¯¬­%°'¯²³&ª%¯°±$¬%¯°±$¨$¯¬­%ª$¯¬­%ª$¯¬­%ª$¯¬­%°'¯²³&ª%¯°±$¬%¯°±$¨$¯¬­%°'¯²³&ª%¯°±$¬%¯°±$¨$¯¬­%°'¯²³&ª%¯°±$¬%¯°±$¨$¯¬­%ª$¯¬­%ª$¯¬­%°'¯²³&ª%¯°±$¬%¯°±$¨$¯¬­%°'¯²³&ª%¯°±$¬%¯°±$¨$¯¬­%°'¯²³&ª%¯°±$¬%¯°±$¨$¯¬­%°'¯²³&ª%¯°±$¬%¯°±$¨$¯¬­%°'¯²³&ª%¯°±$¬%¯°±$¨$¯¬­%°'¯²³&ª%¯°±$¬%¯°±$¨$¯¬­%°'¯²³&ª%¯°±$¬%¯°±$¨$¯¬­%°'¯²³&ª%¯°±$¬%¯°±$¨$¯¬­%°'¯²³&ª%¯°±$¬%¯°±$¨$¯¬­%ª$¯¬­%ª$¯¬­%ª$¯¬­%°'¯²³&ª%¯°±$¬%¯°±$¨$¯¬­%°'¯²³&ª%¯°±$¬%¯°±$¨$¯¬­%°'¯²³&ª%¯°±$¬%¯°±$¨$¯¬­%ª$¯¬­%ª$¯¬­%°'¯²³&ª%¯°±$¬%¯°±$¨$¯¬­%°'¯²³&ª%¯°±$¬%¯°±$¨$¯¬­%°'¯²³&ª%¯°±$¬%¯°±$¨$¯¬­%°'¯²³&ª%¯°±$¬%¯°±$¨$¯¬­%°'¯²³&ª%¯°±$¬%¯°±$¨$¯¬­%°'¯²³&ª%¯°±$¬%¯°±$¨$¯¬­%°'¯²³&ª%¯°±$¬%¯°±$¨$¯¬­%°'¯²³&ª%¯°±$¬%¯°±$¨$¯¬­%°'¯²³&ª%¯°±$¬%¯°±$¨$¯¬­%ª$¯¬­%ª$¯¬­%ª$¯¬­%°'¯²³&ª%¯°±$¬%¯°±$¨$¯¬­%°'¯²³&ª%¯°±$¬%¯°±$¨$઄ઇઆ$ઇ'ં੿੾(ઉ%઀੿੾&અ%੾੽੼&ઇ$੺੽੼$ઃ$੶੹੸$੿$ੲੵੴ$ੵ'ੰ੭੬(੷%੮੭੬&ੳ%੬੫੪&ੵ$੨੫੪$੫'੦੣੢(੭%੤੣੢&੩%੢੡੠&੫$ਫ਼੡੠$੡'ੜਖ਼੘(੣%ਗ਼ਖ਼੘&੟%੘੗੖&੡$੔੗੖$੗'੒੏੎(ਖ਼%੐੏੎&੕%੎੍ੌ&੗$੊੍ੌ$੍'ੈ੅੄(੏%੆੅੄&ੋ%੄੃ੂ&੍$ੀ੃ੂ$੃'ਾ਻਺(੅%਼਻਺&ੁ%਺ਹਸ&੃$ਸ਼ਹਸ$ਹ'਴਱ਰ(਻%ਲ਱ਰ&਷%ਰਯਮ&ਹ$ਬਯਮ$ਯ'ਪਧਦ(਱%ਨਧਦ&ਭ%ਦਥਤ&ਯ$ਢਥਤ$ਥ'ਠਝਜ(ਧ%ਞਝਜ&ਣ%ਜਛਚ&ਥ$ਘਛਚ$ਡ$ਔਗਖ$ਝ$ਐਓ਒$ਙ$਌ਏ਎$ਏ'ਊਇਆ(਑%ਈਇਆ&਍%ਆਅ਄&ਏ$ਂਅ਄$ਅ'਀৽ৼ(ਇ%৾৽ৼ&ਃ%ৼ৻৺&ਃ%%&'%&)%*+(''%()&%'%()&)%%&'%%%%&'%%%%&'%&)%*+(''%()&%'%()&)%%&'%&)%*+(''%()&%'%()&)%%&'%&)%*+(''%()&%'%()&)%%&'%&)%*+(''%()&%'%()&)%%&'%&)%*+(''%()&%'%()&)%%&'%&)%*+(''%()&%'%()&)%%&'%&)%*+(''%()&%'%()&)%%&'%&)%*+(''%()&%'%()&)%%&'%&)%*+(''%()&%'%()&)%%&'%%%%&'%%%%&'%%%%&'%&)%*+(''%()&%'%()&)%%&'%&)%*+(''%()&%'%()&Į$ķĴĵ%ĸ)ĵĺĻ&İ'ĳĶķ$İ'ıĴĵ$Ħ$ĭĪī%Ĥ$ĩĦħ%Ġ$ĥĢģ%Ħ)ģĨĩ&Ğ'ġĤĥ$Ğ'ğĢģ$Ĕ$ěĘę%Ĝ)ęĞğ&Ĕ'ėĚě$Ĕ'ĕĘę$Ċ$đĎď%Ē)ďĔĕ&Ċ'čĐđ$Ċ'ċĎď$Ā$ćĄą%Ĉ)ąĊċ&Ā'ăĆć$Ā'āĄą$ö$ýúû%þ)ûĀā&ö'ùüý$ö'÷úû$ì$óðñ%ô)ñö÷&ì'ïòó$ì'íðñ$â$éæç%ê)çìí&â'åèé$â'ãæç$Ø$ßÜÝ%à)Ýâã&Ø'ÛÞß$Ø'ÙÜÝ$Î$ÕÒÓ%Ö)ÓØÙ&Î'ÑÔÕ$Î'ÏÒÓ$Ä$ËÈÉ%Â$ÇÄÅ%¾$ÃÀÁ%º$¿¼½%À)½ÂÃ&¸'»¾¿$¸'¹¼½$®$µ²³%¶)³¸¹&®'±´µ$®'¯²³$¨$¯¬­%°'¯²³&ª%¯°±$¬%¯°±$¨$¯¬­%ª$¯¬­%ª$¯¬­%°'¯²³&ª%¯°±$¬%¯°±$¨$¯¬­%°'¯²³&ª%¯°±$¬%¯°±$¨$¯¬­%°'¯²³&ª%¯°±$¬%¯°±$¨$¯¬­%°'¯²³&ª%¯°±$¬%¯°±$¨$¯¬­%°'¯²³&ª%¯°±$¬%¯°±$¨$¯¬­%°'¯²³&ª%¯°±$¬%¯°±$¨$¯¬­%°'¯²³&ª%¯°±$¬%¯°±$¨$¯¬­%°'¯²³&ª%¯°±$¬%¯°±$¨$¯¬­%°'¯²³&ª%¯°±$¬%¯°±$¨$¯¬­%ª$¯¬­%ª$¯¬­%ª$¯¬­%°'¯²³&ª%¯°±$¬%¯°±$¨$¯¬­%°'¯²³&ª%¯°±$¬%¯°±$¨$¯¬­%°'¯²³&ª%¯°±$¬%¯°±$¨$¯¬­%ª$¯¬­%ª$¯¬­%°'¯²³&ª%¯°±$¬%¯°±$¨$¯¬­%°'¯²³&ª%¯°±$¬%¯°±$¨$¯¬­%°'¯²³&ª%¯°±$¬%¯°±$¨$¯¬­%°'¯²³&ª%¯°±$¬%¯°±$¨$¯¬­%°'¯²³&ª%¯°±$¬%¯°±$¨$¯¬­%°'¯²³&ª%¯°±$¬%¯°±$¨$¯¬­%°'¯²³&ª%¯°±$¬%¯°±$¨$¯¬­%°'¯²³&ª%¯°±$¬%¯°±$¨$¯¬­%°'¯²³&ª%¯°±$¬%¯°±$¨$¯¬­%ª$¯¬­%ª$¯¬­%ª$¯¬­%°'¯²³&ª%¯°±$¬%¯°±$¨$¯¬­%°'¯²³&ª%¯°±$¬%¯°±$¨$¯¬­%°'¯²³&ª%¯°±$¬%¯°±$¨$¯¬­%ª$¯¬­%ª$¯¬­%°'¯²³&ª%¯°±$¬%¯°±$¨$¯¬­%°'¯²³&ª%¯°±$¬%¯°±$¨$¯¬­%°'¯²³&ª%¯°±$¬%¯°±$¨$¯¬­%°'¯²³&ª%¯°±$¬%¯°±$¨$¯¬­%°'¯²³&ª%¯°±$¬%¯°±$¨$¯¬­%°'¯²³&ª%¯°±$¬%¯°±$¨$¯¬­%°'¯²³&ª%¯°±$¬%¯°±$¨$¯¬­%°'¯²³&ª%¯°±$¬%¯°±$¨$¯¬­%°'¯²³&ª%¯°±$¬%¯°±$¨$¯¬­%ª$¯¬­%ª$¯¬­%ª$¯¬­%°'¯²³&ª%¯°±$¬%¯°±$¨$¯¬­%°'¯²³&ª%¯°±$¬%¯°±$¨$¯¬­%°'¯²³&ª%¯°±$¬%¯°±$¨$¯¬­%ª$¯¬­%ª$¯¬­%°'¯²³&ª%¯°±$¬%¯°±$¨$¯¬­%°'¯²³&ª%¯°±$¬%¯°±$¨$¯¬­%°'¯²³&ª%¯°±$¬%¯°±$¨$¯¬­%°'¯²³&ª%¯°±$¬%¯°±$¨$¯¬­%°'¯²³&ª%¯°±$¬%¯°±$¨$¯¬­%°'¯²³&ª%¯°±$¬%¯°±$¨$¯¬­%°'¯²³&ª%¯°±$¬%¯°±$¨$¯¬­%°'¯²³&ª%¯°±$¬%¯°±$¨$¯¬­%°'¯²³&ª%¯°±$¬%¯°±$¨$¯¬­%ª$¯¬­%ª$¯¬­%ª$¯¬­%°'¯²³&ª%¯°±$¬%¯°±$¨$¯¬­%°'¯²³&ª%¯°±$¬%¯°±$¨$¯¬­%°'¯²³&ª%¯°±$¬%¯°±$¨$¯¬­%ª$¯¬­%ª$¯¬­%°'¯²³&ª%¯°±$¬%¯°±$¨$¯¬­%°'¯²³&ª%¯°±$¬%¯°±$¨$¯¬­%°'¯²³&ª%¯°±$¬%¯°±$¨$¯¬­%°'¯²³&ª%¯°±$¬%¯°±$¨$¯¬­%°'¯²³&ª%¯°±$¬%¯°±$¨$¯¬­%°'¯²³&ª%¯°±$¬%¯°±$¨$¯¬­%°'¯²³&ª%¯°±$¬%¯°±$¨$¯¬­%°'¯²³&ª%¯°±$¬%¯°±$¨$¯¬­%°'¯²³&ª%¯°±$¬%¯°±$¨$¯¬­%ª$¯¬­%ª$¯¬­%ª$¯¬­%°'¯²³&ª%¯°±$¬%¯°±$¨$¯¬­%°'¯²³&ª%¯°±$¬%¯°±$¨$¯¬­%°'¯²³&ª%¯°±$¬%¯°±$¨$¯¬­%ª$¯¬­%ª$¯¬­%°'¯²³&ª%¯°±$¬%¯°±$¨$¯¬­%°'¯²³&ª%¯°±$¬%¯°±$¨$¯¬­%°'¯²³&ª%¯°±$¬%¯°±$¨$¯¬­%°'¯²³&ª%¯°±$¬%¯°±$¨$¯¬­%°'¯²³&ª%¯°±$¬%¯°±$¨$¯¬­%°'¯²³&ª%¯°±$¬%¯°±$¨$¯¬­%°'¯²³&ª%¯°±$¬%¯°±$¨$¯¬­%°'¯²³&ª%¯°±$¬%¯°±$¨$¯¬­%°'¯²³&ª%¯°±$¬%¯°±$¨$¯¬­%ª$¯¬­%ª$¯¬­%ª$¯¬­%°'¯²³&ª%¯°±$¬%¯°±$¨$¯¬­%°'¯²³&ª%¯°±$¬%¯°±$¨$¯¬­%°'¯²³&ª%¯°±$¬%¯°±$¨$¯¬­%ª$¯¬­%ª$¯¬­%°'¯²³&ª%¯°±$¬%¯°±$¨$¯¬­%°'¯²³&ª%¯°±$¬%¯°±$¨$¯¬­%°'¯²³&ª%¯°±$¬%¯°±$¨$¯¬­%°'¯²³&ª%¯°±$¬%¯°±$¨$¯¬­%°'¯²³&ª%¯°±$¬%¯°±$¨$¯¬­%°'¯²³&ª%¯°±$¬%¯°±$¨$¯¬­%°'¯²³&ª%¯°±$¬%¯°±$¨$¯¬­%°'¯²³&ª%¯°±$¬%¯°±$¨$¯¬­%°'¯²³&ª%¯°±$¬%¯°±$¨$¯¬­%ª$¯¬­%ª$¯¬­%ª$¯¬­%°'¯²³&ª%¯°±$¬%¯°±$¨$¯¬­%°'¯²³&ª%¯°±$¬%¯°±$¨$¯¬­%°'¯²³&ª%¯°±$¬%¯°±$¨$¯¬­%ª$¯¬­%ª$¯¬­%°'¯²³&ª%¯°±$¬%¯°±$¨$¯¬­%°'¯²³&ª%¯°±$¬%¯°±$¨$¯¬­%°'¯²³&ª%¯°±$¬%¯°±$¨$¯¬­%°'¯²³&ª%¯°±$¬%¯°±$¨$¯¬­%°'¯²³&ª%¯°±$¬%¯°±$¨$¯¬­%°'¯²³&ª%¯°±$¬%¯°±$¨$¯¬­%°'¯²³&ª%¯°±$¬%¯°±$¨$¯¬­%°'¯²³&ª%¯°±$¬%¯°±$¨$¯¬­%°'¯²³&ª%¯°±$¬%¯°±$¨$¯¬­%ª$¯¬­%ª$¯¬­%ª$¯¬­%°'¯²³&ª%¯°±$¬%¯°±$¨$¯¬­%°'¯²³&ª%¯°±$¬%¯°±$¨$¯¬­%°'¯²³&ª%¯°±$¬%¯°±$¨$¯¬­%ª$¯¬­%ª$¯¬­%°'¯²³&ª%¯°±$¬%¯°±$¨$¯¬­%°'¯²³&ª%¯°±$¬%¯°±$¨$¯¬­%°'¯²³&ª%¯°±$¬%¯°±$¨$¯¬­%°'¯²³&ª%¯°±$¬%¯°±$¨$¯¬­%°'¯²³&ª%¯°±$¬%¯°±$¨$¯¬­%°'¯²³&ª%¯°±$¬%¯°±$¨$¯¬­%°'¯²³&ª%¯°±$¬%¯°±$¨$¯¬­%°'¯²³&ª%¯°±$¬%¯°±$¨$¯¬­%°'¯²³&ª%¯°±$¬%¯°±$¨$¯¬­%ª$¯¬­%ª$¯¬­%ª$¯¬­%°'¯²³&ª%¯°±$¬%¯°±$¨$¯¬­%°'¯²³&ª%¯°±$¬%¯°±$¨$¯¬­%°'¯²³&ª%¯°±$¬%¯°±$¨$¯¬­%ª$¯¬­%ª$¯¬­%°'¯²³&ª%¯°±$¬%¯°±$¨$¯¬­%°'¯²³&ª%¯°±$¬%¯°±$¨$¯¬­%°'¯²³&ª%¯°±$¬%¯°±$¨$¯¬­%°'¯²³&ª%¯°±$¬%¯°±$¨$¯¬­%°'¯²³&ª%¯°±$¬%¯°±$¨$¯¬­%°'¯²³&ª%¯°±$¬%¯°±$¨$¯¬­%°'¯²³&ª%¯°±$¬%¯°±$¨$¯¬­%°'¯²³&ª%¯°±$¬%¯°±$¨$¯¬­%°'¯²³&ª%¯°±$¬%¯°±$¨$¯¬­%ª$¯¬­%ª$¯¬­%ª$¯¬­%°'¯²³&ª%¯°±$¬%¯°±$¨$¯¬­%°'¯²³&ª%¯°±$¬%¯°±$¨$¯¬­%°'¯²³&ª%¯°±$¬%¯°±$¨$¯¬­%ª$¯¬­%ª$¯¬­%°'¯²³&ª%¯°±$¬%¯°±$¨$¯¬­%°'¯²³&ª%¯°±$¬%¯°±$¨$¯¬­%°'¯²³&ª%¯°±$¬%¯°±$¨$¯¬­%°'¯²³&ª%¯°±$¬%¯°±$¨$¯¬­%°'¯²³&ª%¯°±$¬%¯°±$¨$¯¬­%°'¯²³&ª%¯°±$¬%¯°±$¨$¯¬­%°'¯²³&ª%¯°±$¬%¯°±$¨$¯¬­%°'¯²³&ª%¯°±$¬%¯°±$¨$¯¬­%°'¯²³&ª%¯°±$¬%¯°±$¨$¯¬­%ª$¯¬­%ª$¯¬­%ª$¯¬­%°'¯²³&ª%¯°±$¬%¯°±$¨$¯¬­%°'¯²³&ª%¯°±$¬%¯°±$¨$¯¬­%°'¯²³&ª%¯°±$¬%¯°±$¨$¯¬­%ª$¯¬­%ª$¯¬­%°'¯²³&ª%¯°±$¬%¯°±$¨$¯¬­%°'¯²³&ª%¯°±$¬%¯°±$¨$¯¬­%°'¯²³&ª%¯°±$¬%¯°±$¨$¯¬­%°'¯²³&ª%¯°±$¬%¯°±$¨$¯¬­%°'¯²³&ª%¯°±$¬%¯°±$¨$¯¬­%°'¯²³&ª%¯°±$¬%¯°±$¨$¯¬­%°'¯²³&ª%¯°±$¬%¯°±$¨$¯¬­%°'¯²³&ª%¯°±$¬%¯°±$¨$¯¬­%°'¯²³&ª%¯°±$¬%¯°±$¨$¯¬­%ª$¯¬­%ª$¯¬­%ª$¯¬­%°'¯²³&ª%¯°±$¬%¯°±$¨$¯¬­%°'¯²³&ª%¯°±$¬%¯°±$¨$¯¬­%°'¯²³&ª%¯°±$¬%¯°±$¨$¯¬­%ª$¯¬­%ª$¯¬­%°'¯²³&ª%¯°±$¬%¯°±$¨$¯¬­%°'¯²³&ª%¯°±$¬%¯°±$¨$¯¬­%°'¯²³&ª%¯°±$¬%¯°±$¨$¯¬­%°'¯²³&ª%¯°±$¬%¯°±$¨$¯¬­%°'¯²³&ª%¯°±$¬%¯°±$¨$¯¬­%°'¯²³&ª%¯°±$¬%¯°±$¨$¯¬­%°'¯²³&ª%¯°±$¬%¯°±$¨$¯¬­%°'¯²³&ª%¯°±$¬%¯°±$¨$¯¬­%°'¯²³&ª%¯°±$¬%¯°±$¨$¯¬­%ª$¯¬­%ª$¯¬­%ª$¯¬­%°'¯²³&ª%¯°±$¬%¯°±$¨$¯¬­%°'¯²³&ª%¯°±$¬%¯°±$¨$¯¬­%°'¯²³&ª%¯°±$¬%¯°±$¨$¯¬­%ª$¯¬­%ª$¯¬­%°'¯²³&ª%¯°±$¬%¯°±$¨$¯¬­%°'¯²³&ª%¯°±$¬%¯°±$¨$¯¬­%°'¯²³&ª%¯°±$¬%¯°±$¨$¯¬­%°'¯²³&ª%¯°±$¬%¯°±$¨$¯¬­%°'¯²³&ª%¯°±$¬%¯°±$¨$¯¬­%°'¯²³&ª%¯°±$¬%¯°±$¨$¯¬­%°'¯²³&ª%¯°±$¬%¯°±$¨$¯¬­%°'¯²³&ª%¯°±$¬%¯°±$¨$¯¬­%°'¯²³&ª%¯°±$¬%¯°±$¨$¯¬­%ª$¯¬­%ª$¯¬­%ª$¯¬­%°'¯²³&ª%¯°±$¬%¯°±$¨$¯¬­%°'¯²³&ª%¯°±$¬%¯°±$¨$¯¬­%°'¯²³&ª%¯°±$¬%¯°±$¨$¯¬­%ª$¯¬­%ª$¯¬­%°'¯²³&ª%¯°±$¬%¯°±$¨$¯¬­%°'¯²³&ª%¯°±$¬%¯°±$¨$¯¬­%°'¯²³&ª%¯°±$¬%¯°±$¨$¯¬­%°'¯²³&ª%¯°±$¬%¯°±$¨$¯¬­%°'¯²³&ª%¯°±$¬%¯°±$¨$¯¬­%°'¯²³&ª%¯°±$¬%¯°±$¨$¯¬­%°'¯²³&ª%¯°±$¬%¯°±$¨$¯¬­%°'¯²³&ª%¯°±$¬%¯°±$¨$¯¬­%°'¯²³&ª%¯°±$¬%¯°±$¨$¯¬­%ª$¯¬­%ª$¯¬­%ª$¯¬­%°'¯²³&ª%¯°±$¬%¯°±$¨$¯¬­%°'¯²³&ª%¯°±$¬%¯°±$¨$¯¬­%°'¯²³&ª%¯°±$¬%¯°±$¨$¯¬­%ª$¯¬­%ª$¯¬­%°'¯²³&ª%¯°±$¬%¯°±$¨$¯¬­%°'¯²³&ª%¯°±$¬%¯°±$¨$¯¬­%°'¯²³&ª%¯°±$¬%¯°±$¨$¯¬­%°'¯²³&ª%¯°±$¬%¯°±$¨$¯¬­%°'¯²³&ª%¯°±$¬%¯°±$¨$¯¬­%°'¯²³&ª%¯°±$¬%¯°±$¨$¯¬­%°'¯²³&ª%¯°±$¬%¯°±$¨$¯¬­%°'¯²³&ª%¯°±$¬%¯°±$¨$¯¬­%°'¯²³&ª%¯°±$¬%¯°±$¨$¯¬­%ª$¯¬­%ª$¯¬­%ª$¯¬­%°'¯²³&ª%¯°±$¬%¯°±$¨$¯¬­%°'¯²³&ª%¯°±$¬%¯°±$¨$¯¬­%°'¯²³&ª%¯°±$¬%¯°±$¨$¯¬­%ª$¯¬­%ª$¯¬­%°'¯²³&ª%¯°±$¬%¯°±$¨$¯¬­%°'¯²³&ª%¯°±$¬%¯°±$¨$¯¬­%°'¯²³&ª%¯°±$¬%¯°±$¨$¯¬­%°'¯²³&ª%¯°±$¬%¯°±$¨$¯¬­%°'¯²³&ª%¯°±$¬%¯°±$¨$¯¬­%°'¯²³&ª%¯°±$¬%¯°±$¨$¯¬­%°'¯²³&ª%¯°±$¬%¯°±$¨$¯¬­%°'¯²³&ª%¯°±$¬%¯°±$¨$¯¬­%°'¯²³&ª%¯°±$¬%¯°±$¨$¯¬­%ª$¯¬­%ª$¯¬­%ª$¯¬­%°'¯²³&ª%¯°±$¬%¯°±$¨$¯¬­%°'¯²³&ª%¯°±$¬%¯°±$¨$઄ઇઆ$ઇ'ં੿੾(ઉ%઀੿੾&અ%੾੽੼&ઇ$੺੽੼$ઃ$੶੹੸$੿$ੲੵੴ$ੵ'ੰ੭੬(੷%੮੭੬&ੳ%੬੫੪&ੵ$੨੫੪$੫'੦੣੢(੭%੤੣੢&੩%੢੡੠&੫$ਫ਼੡੠$੡'ੜਖ਼੘(੣%ਗ਼ਖ਼੘&੟%੘੗੖&੡$੔੗੖$੗'੒੏੎(ਖ਼%੐੏੎&੕%੎੍ੌ&੗$੊੍ੌ$੍'ੈ੅੄(੏%੆੅੄&ੋ%੄੃ੂ&੍$ੀ੃ੂ$੃'ਾ਻਺(੅%਼਻਺&ੁ%਺ਹਸ&੃$ਸ਼ਹਸ$ਹ'਴਱ਰ(਻%ਲ਱ਰ&਷%ਰਯਮ&ਹ$ਬਯਮ$ਯ'ਪਧਦ(਱%ਨਧਦ&ਭ%ਦਥਤ&ਯ$ਢਥਤ$ਥ'ਠਝਜ(ਧ%ਞਝਜ&ਣ%ਜਛਚ&ਥ$ਘਛਚ$ਡ$ਔਗਖ$ਝ$ਐਓ਒$ਙ$਌ਏ਎$ਏ'ਊਇਆ(਑%ਈਇਆ&਍%ਆਅ਄&ਏ$ਂਅ਄$ਅ'਀৽ৼ(ਇ%৾৽ৼ&ਃ%ৼ৻৺&ਃ%%&'%&)%*+(''%()&%'%()&)%%&'%%%%&'%%%%&'%&)%*+(''%()&%'%()&)%%&'%&)%*+(''%()&%'%()&)%%&'%&)%*+(''%()&%'%()&)%%&'%&)%*+(''%()&%'%()&)%%&'%&)%*+(''%()&%'%()&)%%&'%&)%*+(''%()&%'%()&)%%&'%&)%*+(''%()&%'%()&)%%&'%&)%*+(''%()&%'%()&)%%&'%&)%*+(''%()&%'%()&)%%&'%%%%&'%%%%&'%%%%&'%&)%*+(''%()&%'%()&)%%&'%&)%*+(''%()&%'%()&Į$ķĴĵ%ĸ)ĵĺĻ&İ'ĳĶķ$İ'ıĴĵ$Ħ$ĭĪī%Ĥ$ĩĦħ%Ġ$ĥĢģ%Ħ)ģĨĩ&Ğ'ġĤĥ$Ğ'ğĢģ$Ĕ$ěĘę%Ĝ)ęĞğ&Ĕ'ėĚě$Ĕ'ĕĘę$Ċ$đĎď%Ē)ďĔĕ&Ċ'čĐđ$Ċ'ċĎď$Ā$ćĄą%Ĉ)ąĊċ&Ā'ăĆć$Ā'āĄą$ö$ýúû%þ)ûĀā&ö'ùüý$ö'÷úû$ì$óðñ%ô)ñö÷&ì'ïòó$ì'íðñ$â$éæç%ê)çìí&â'åèé$â'ãæç$Ø$ßÜÝ%à)Ýâã&Ø'ÛÞß$Ø'ÙÜÝ$Î$ÕÒÓ%Ö)ÓØÙ&Î'ÑÔÕ$Î'ÏÒÓ$Ä$ËÈÉ%Â$ÇÄÅ%¾$ÃÀÁ%º$¿¼½%À)½ÂÃ&¸'»¾¿$¸'¹¼½$®$µ²³%¶)³¸¹&®'±´µ$®'¯²³$¨$¯¬­%°'¯²³&ª%¯°±$¬%¯°±$¨$¯¬­%ª$¯¬­%ª$¯¬­%°'¯²³&ª%¯°±$¬%¯°±$¨$¯¬­%°'¯²³&ª%¯°±$¬%¯°±$¨$¯¬­%°'¯²³&ª%¯°±$¬%¯°±$¨$¯¬­%°'¯²³&ª%¯°±$¬%¯°±$¨$¯¬­%°'¯²³&ª%¯°±$¬%¯°±$¨$¯¬­%°'¯²³&ª%¯°±$¬%¯°±$¨$¯¬­%°'¯²³&ª%¯°±$¬%¯°±$¨$¯¬­%°'¯²³&ª%¯°±$¬%¯°±$¨$¯¬­%°'¯²³&ª%¯°±$¬%¯°±$¨$¯¬­%ª$¯¬­%ª$¯¬­%ª$¯¬­%°'¯²³&ª%¯°±$¬%¯°±$¨$¯¬­%°'¯²³&ª%¯°±$¬%¯°±$¨$¯¬­%°'¯²³&ª%¯°±$¬%¯°±$¨$¯¬­%ª$¯¬­%ª$¯¬­%°'¯²³&ª%¯°±$¬%¯°±$¨$¯¬­%°'¯²³&ª%¯°±$¬%¯°±$¨$¯¬­%°'¯²³&ª%¯°±$¬%¯°±$¨$¯¬­%°'¯²³&ª%¯°±$¬%¯°±$¨$¯¬­%°'¯²³&ª%¯°±$¬%¯°±$¨$¯¬­%°'¯²³&ª%¯°±$¬%¯°±$¨$¯¬­%°'¯²³&ª%¯°±$¬%¯°±$¨$¯¬­%°'¯²³&ª%¯°±$¬%¯°±$¨$¯¬­%°'¯²³&ª%¯°±$¬%¯°±$¨$¯¬­%ª$¯¬­%ª$¯¬­%ª$¯¬­%°'¯²³&ª%¯°±$¬%¯°±$¨$¯¬­%°'¯²³&ª%¯°±$¬%¯°±$¨$¯¬­%°'¯²³&ª%¯°±$¬%¯°±$¨$¯¬­%ª$¯¬­%ª$¯¬­%°'¯²³&ª%¯°±$¬%¯°±$¨$¯¬­%°'¯²³&ª%¯°±$¬%¯°±$¨$¯¬­%°'¯²³&ª%¯°±$¬%¯°±$¨$¯¬­%°'¯²³&ª%¯°±$¬%¯°±$¨$¯¬­%°'¯²³&ª%¯°±$¬%¯°±$¨$¯¬­%°'¯²³&ª%¯°±$¬%¯°±$¨$¯¬­%°'¯²³&ª%¯°±$¬%¯°±$¨$¯¬­%°'¯²³&ª%¯°±$¬%¯°±$¨$¯¬­%°'¯²³&ª%¯°±$¬%¯°±$¨$¯¬­%ª$¯¬­%ª$¯¬­%ª$¯¬­%°'¯²³&ª%¯°±$¬%¯°±$¨$¯¬­%°'¯²³&ª%¯°±$¬%¯°±$¨$¯¬­%°'¯²³&ª%¯°±$¬%¯°±$¨$¯¬­%ª$¯¬­%ª$¯¬­%°'¯²³&ª%¯°±$¬%¯°±$¨$¯¬­%°'¯²³&ª%¯°±$¬%¯°±$¨$¯¬­%°'¯²³&ª%¯°±$¬%¯°±$¨$¯¬­%°'¯²³&ª%¯°±$¬%¯°±$¨$¯¬­%°'¯²³&ª%¯°±$¬%¯°±$¨$¯¬­%°'¯²³&ª%¯°±$¬%¯°±$¨$¯¬­%°'¯²³&ª%¯°±$¬%¯°±$¨$¯¬­%°'¯²³&ª%¯°±$¬%¯°±$¨$¯¬­%°'¯²³&ª%¯°±$¬%¯°±$¨$¯¬­%ª$¯¬­%ª$¯¬­%ª$¯¬­%°'¯²³&ª%¯°±$¬%¯°±$¨$¯¬­%°'¯²³&ª%¯°±$¬%¯°±$¨$¯¬­%°'¯²³&ª%¯°±$¬%¯°±$¨$¯¬­%ª$¯¬­%ª$¯¬­%°'¯²³&ª%¯°±$¬%¯°±$¨$¯¬­%°'¯²³&ª%¯°±$¬%¯°±$¨$¯¬­%°'¯²³&ª%¯°±$¬%¯°±$¨$¯¬­%°'¯²³&ª%¯°±$¬%¯°±$¨$¯¬­%°'¯²³&ª%¯°±$¬%¯°±$¨$¯¬­%°'¯²³&ª%¯°±$¬%¯°±$¨$¯¬­%°'¯²³&ª%¯°±$¬%¯°±$¨$¯¬­%°'¯²³&ª%¯°±$¬%¯°±$¨$¯¬­%°'¯²³&ª%¯°±$¬%¯°±$¨$¯¬­%ª$¯¬­%ª$¯¬­%ª$¯¬­%°'¯²³&ª%¯°±$¬%¯°±$¨$¯¬­%°'¯²³&ª%¯°±$¬%¯°±$¨$¯¬­%°'¯²³&ª%¯°±$¬%¯°±$¨$¯¬­%ª$¯¬­%ª$¯¬­%°'¯²³&ª%¯°±$¬%¯°±$¨$¯¬­%°'¯²³&ª%¯°±$¬%¯°±$¨$¯¬­%°'¯²³&ª%¯°±$¬%¯°±$¨$¯¬­%°'¯²³&ª%¯°±$¬%¯°±$¨$¯¬­%°'¯²³&ª%¯°±$¬%¯°±$¨$¯¬­%°'¯²³&ª%¯°±$¬%¯°±$¨$¯¬­%°'¯²³&ª%¯°±$¬%¯°±$¨$¯¬­%°'¯²³&ª%¯°±$¬%¯°±$¨$¯¬­%°'¯²³&ª%¯°±$¬%¯°±$¨$¯¬­%ª$¯¬­%ª$¯¬­%ª$¯¬­%°'¯²³&ª%¯°±$¬%¯°±$¨$¯¬­%°'¯²³&ª%¯°±$¬%¯°±$¨$¯¬­%°'¯²³&ª%¯°±$¬%¯°±$¨$¯¬­%ª$¯¬­%ª$¯¬­%°'¯²³&ª%¯°±$¬%¯°±$¨$¯¬­%°'¯²³&ª%¯°±$¬%¯°±$¨$¯¬­%°'¯²³&ª%¯°±$¬%¯°±$¨$¯¬­%°'¯²³&ª%¯°±$¬%¯°±$¨$¯¬­%°'¯²³&ª%¯°±$¬%¯°±$¨$¯¬­%°'¯²³&ª%¯°±$¬%¯°±$¨$¯¬­%°'¯²³&ª%¯°±$¬%¯°±$¨$¯¬­%°'¯²³&ª%¯°±$¬%¯°±$¨$¯¬­%°'¯²³&ª%¯°±$¬%¯°±$¨$¯¬­%ª$¯¬­%ª$¯¬­%ª$¯¬­%°'¯²³&ª%¯°±$¬%¯°±$¨$¯¬­%°'¯²³&ª%¯°±$¬%¯°±$¨$¯¬­%°'¯²³&ª%¯°±$¬%¯°±$¨$¯¬­%ª$¯¬­%ª$¯¬­%°'¯²³&ª%¯°±$¬%¯°±$¨$¯¬­%°'¯²³&ª%¯°±$¬%¯°±$¨$¯¬­%°'¯²³&ª%¯°±$¬%¯°±$¨$¯¬­%°'¯²³&ª%¯°±$¬%¯°±$¨$¯¬­%°'¯²³&ª%¯°±$¬%¯°±$¨$¯¬­%°'¯²³&ª%¯°±$¬%¯°±$¨$¯¬­%°'¯²³&ª%¯°±$¬%¯°±$¨$¯¬­%°'¯²³&ª%¯°±$¬%¯°±$¨$¯¬­%°'¯²³&ª%¯°±$¬%¯°±$¨$¯¬­%ª$¯¬­%ª$¯¬­%ª$¯¬­%°'¯²³&ª%¯°±$¬%¯°±$¨$¯¬­%°'¯²³&ª%¯°±$¬%¯°±$¨$¯¬­%°'¯²³&ª%¯°±$¬%¯°±$¨$¯¬­%ª$¯¬­%ª$¯¬­%°'¯²³&ª%¯°±$¬%¯°±$¨$¯¬­%°'¯²³&ª%¯°±$¬%¯°±$¨$¯¬­%°'¯²³&ª%¯°±$¬%¯°±$¨$¯¬­%°'¯²³&ª%¯°±$¬%¯°±$¨$¯¬­%°'¯²³&ª%¯°±$¬%¯°±$¨$¯¬­%°'¯²³&ª%¯°±$¬%¯°±$¨$¯¬­%°'¯²³&ª%¯°±$¬%¯°±$¨$¯¬­%°'¯²³&ª%¯°±$¬%¯°±$¨$¯¬­%°'¯²³&ª%¯°±$¬%¯°±$¨$¯¬­%ª$¯¬­%ª$¯¬­%ª$¯¬­%°'¯²³&ª%¯°±$¬%¯°±$¨$¯¬­%°'¯²³&ª%¯°±$¬%¯°±$¨$¯¬­%°'¯²³&ª%¯°±$¬%¯°±$¨$¯¬­%ª$¯¬­%ª$¯¬­%°'¯²³&ª%¯°±$¬%¯°±$¨$¯¬­%°'¯²³&ª%¯°±$¬%¯°±$¨$¯¬­%°'¯²³&ª%¯°±$¬%¯°±$¨$¯¬­%°'¯²³&ª%¯°±$¬%¯°±$¨$¯¬­%°'¯²³&ª%¯°±$¬%¯°±$¨$¯¬­%°'¯²³&ª%¯°±$¬%¯°±$¨$¯¬­%°'¯²³&ª%¯°±$¬%¯°±$¨$¯¬­%°'¯²³&ª%¯°±$¬%¯°±$¨$¯¬­%°'¯²³&ª%¯°±$¬%¯°±$¨$¯¬­%ª$¯¬­%ª$¯¬­%ª$¯¬­%°'¯²³&ª%¯°±$¬%¯°±$¨$¯¬­%°'¯²³&ª%¯°±$¬%¯°±$¨$¯¬­%°'¯²³&ª%¯°±$¬%¯°±$¨$¯¬­%ª$¯¬­%ª$¯¬­%°'¯²³&ª%¯°±$¬%¯°±$¨$¯¬­%°'¯²³&ª%¯°±$¬%¯°±$¨$¯¬­%°'¯²³&ª%¯°±$¬%¯°±$¨$¯¬­%°'¯²³&ª%¯°±$¬%¯°±$¨$¯¬­%°'¯²³&ª%¯°±$¬%¯°±$¨$¯¬­%°'¯²³&ª%¯°±$¬%¯°±$¨$¯¬­%°'¯²³&ª%¯°±$¬%¯°±$¨$¯¬­%°'¯²³&ª%¯°±$¬%¯°±$¨$¯¬­%°'¯²³&ª%¯°±$¬%¯°±$¨$¯¬­%ª$¯¬­%ª$¯¬­%ª$¯¬­%°'¯²³&ª%¯°±$¬%¯°±$¨$¯¬­%°'¯²³&ª%¯°±$¬%¯°±$¨$¯¬­%°'¯²³&ª%¯°±$¬%¯°±$¨$¯¬­%ª$¯¬­%ª$¯¬­%°'¯²³&ª%¯°±$¬%¯°±$¨$¯¬­%°'¯²³&ª%¯°±$¬%¯°±$¨$¯¬­%°'¯²³&ª%¯°±$¬%¯°±$¨$¯¬­%°'¯²³&ª%¯°±$¬%¯°±$¨$¯¬­%°'¯²³&ª%¯°±$¬%¯°±$¨$¯¬­%°'¯²³&ª%¯°±$¬%¯°±$¨$¯¬­%°'¯²³&ª%¯°±$¬%¯°±$¨$¯¬­%°'¯²³&ª%¯°±$¬%¯°±$¨$¯¬­%°'¯²³&ª%¯°±$¬%¯°±$¨$¯¬­%ª$¯¬­%ª$¯¬­%ª$¯¬­%°'¯²³&ª%¯°±$¬%¯°±$¨$¯¬­%°'¯²³&ª%¯°±$¬%¯°±$¨$¯¬­%°'¯²³&ª%¯°±$¬%¯°±$¨$¯¬­%ª$¯¬­%ª$¯¬­%°'¯²³&ª%¯°±$¬%¯°±$¨$¯¬­%°'¯²³&ª%¯°±$¬%¯°±$¨$¯¬­%°'¯²³&ª%¯°±$¬%¯°±$¨$¯¬­%°'¯²³&ª%¯°±$¬%¯°±$¨$¯¬­%°'¯²³&ª%¯°±$¬%¯°±$¨$¯¬­%°'¯²³&ª%¯°±$¬%¯°±$¨$¯¬­%°'¯²³&ª%¯°±$¬%¯°±$¨$¯¬­%°'¯²³&ª%¯°±$¬%¯°±$¨$¯¬­%°'¯²³&ª%¯°±$¬%¯°±$¨$¯¬­%ª$¯¬­%ª$¯¬­%ª$¯¬­%°'¯²³&ª%¯°±$¬%¯°±$¨$¯¬­%°'¯²³&ª%¯°±$¬%¯°±$¨$¯¬­%°'¯²³&ª%¯°±$¬%¯°±$¨$¯¬­%ª$¯¬­%ª$¯¬­%°'¯²³&ª%¯°±$¬%¯°±$¨$¯¬­%°'¯²³&ª%¯°±$¬%¯°±$¨$¯¬­%°'¯²³&ª%¯°±$¬%¯°±$¨$¯¬­%°'¯²³&ª%¯°±$¬%¯°±$¨$¯¬­%°'¯²³&ª%¯°±$¬%¯°±$¨$¯¬­%°'¯²³&ª%¯°±$¬%¯°±$¨$¯¬­%°'¯²³&ª%¯°±$¬%¯°±$¨$¯¬­%°'¯²³&ª%¯°±$¬%¯°±$¨$¯¬­%°'¯²³&ª%¯°±$¬%¯°±$¨$¯¬­%ª$¯¬­%ª$¯¬­%ª$¯¬­%°'¯²³&ª%¯°±$¬%¯°±$¨$¯¬­%°'¯²³&ª%¯°±$¬%¯°±$¨$¯¬­%°'¯²³&ª%¯°±$¬%¯°±$¨$¯¬­%ª$¯¬­%ª$¯¬­%°'¯²³&ª%¯°±$¬%¯°±$¨$¯¬­%°'¯²³&ª%¯°±$¬%¯°±$¨$¯¬­%°'¯²³&ª%¯°±$¬%¯°±$¨$¯¬­%°'¯²³&ª%¯°±$¬%¯°±$¨$¯¬­%°'¯²³&ª%¯°±$¬%¯°±$¨$¯¬­%°'¯²³&ª%¯°±$¬%¯°±$¨$¯¬­%°'¯²³&ª%¯°±$¬%¯°±$¨$¯¬­%°'¯²³&ª%¯°±$¬%¯°±$¨$¯¬­%°'¯²³&ª%¯°±$¬%¯°±$¨$¯¬­%ª$¯¬­%ª$¯¬­%ª$¯¬­%°'¯²³&ª%¯°±$¬%¯°±$¨$¯¬­%°'¯²³&ª%¯°±$¬%¯°±$¨$¯¬­%°'¯²³&ª%¯°±$¬%¯°±$¨$¯¬­%ª$¯¬­%ª$¯¬­%°'¯²³&ª%¯°±$¬%¯°±$¨$¯¬­%°'¯²³&ª%¯°±$¬%¯°±$¨$¯¬­%°'¯²³&ª%¯°±$¬%¯°±$¨$¯¬­%°'¯²³&ª%¯°±$¬%¯°±$¨$¯¬­%°'¯²³&ª%¯°±$¬%¯°±$¨$¯¬­%°'¯²³&ª%¯°±$¬%¯°±$¨$¯¬­%°'¯²³&ª%¯°±$¬%¯°±$¨$¯¬­%°'¯²³&ª%¯°±$¬%¯°±$¨$¯¬­%°'¯²³&ª%¯°±$¬%¯°±$¨$¯¬­%ª$¯¬­%ª$¯¬­%ª$¯¬­%°'¯²³&ª%¯°±$¬%¯°±$¨$¯¬­%°'¯²³&ª%¯°±$¬%¯°±$¨$¯¬­%°'¯²³&ª%¯°±$¬%¯°±$¨$¯¬­%ª$¯¬­%ª$¯¬­%°'¯²³&ª%¯°±$¬%¯°±$¨$¯¬­%°'¯²³&ª%¯°±$¬%¯°±$¨$¯¬­%°'¯²³&ª%¯°±$¬%¯°±$¨$¯¬­%°'¯²³&ª%¯°±$¬%¯°±$¨$¯¬­%°'¯²³&ª%¯°±$¬%¯°±$¨$¯¬­%°'¯²³&ª%¯°±$¬%¯°±$¨$¯¬­%°'¯²³&ª%¯°±$¬%¯°±$¨$¯¬­%°'¯²³&ª%¯°±$¬%¯°±$¨$¯¬­%°'¯²³&ª%¯°±$¬%¯°±$¨$¯¬­%ª$¯¬­%ª$¯¬­%ª$¯¬­%°'¯²³&ª%¯°±$¬%¯°±$¨$¯¬­%°'¯²³&ª%¯°±$¬%¯°±$¨$઄ઇઆ$ઇ'ં੿੾(ઉ%઀੿੾&અ%੾੽੼&ઇ$੺੽੼$ઃ$੶੹੸$੿$ੲੵੴ$ੵ'ੰ੭੬(੷%੮੭੬&ੳ%੬੫੪&ੵ$੨੫੪$੫'੦੣੢(੭%੤੣੢&੩%੢੡੠&੫$ਫ਼੡੠$੡'ੜਖ਼੘(੣%ਗ਼ਖ਼੘&੟%੘੗੖&੡$੔੗੖$੗'੒੏੎(ਖ਼%੐੏੎&੕%੎੍ੌ&੗$੊੍ੌ$੍'ੈ੅੄(੏%੆੅੄&ੋ%੄੃ੂ&੍$ੀ੃ੂ$੃'ਾ਻਺(੅%਼਻਺&ੁ%਺ਹਸ&੃$ਸ਼ਹਸ$ਹ'਴਱ਰ(਻%ਲ਱ਰ&਷%ਰਯਮ&ਹ$ਬਯਮ$ਯ'ਪਧਦ(਱%ਨਧਦ&ਭ%ਦਥਤ&ਯ$ਢਥਤ$ਥ'ਠਝਜ(ਧ%ਞਝਜ&ਣ%ਜਛਚ&ਥ$ਘਛਚ$ਡ$ਔਗਖ$ਝ$ਐਓ਒$ਙ$਌ਏ਎$ਏ'ਊਇਆ(਑%ਈਇਆ&਍%ਆਅ਄&ਏ$ਂਅ਄$ਅ'਀৽ৼ(ਇ%৾৽ৼ&ਃ%ৼ৻৺&ਃ%%%$'%%%%%%%%%%%%%%%%%%",
"name":"Lib_Table1_MESH03",
"normals":"С###Ѝ#9#Т###Р#7#Ѝ#####Ε#Δ###Δ#Ε#########У###Т###Р###С###########У###Т###Р###С###########У###Т###Р###С###########У###Т###Р###С###########У###Т###Р###С###########У###Т###Р###С###У###Т###############Р###ࠡ###Т###############Р###ࠝ%@$A@b@ª>Ń#@#@#@$m8B9TB>@'@÷)@(9BÀ>Ć8ƹa@bw@b@6BŞŉ>łȫBU@A@²@ï@@@~>ó@BCĄ>ǈ.Ę$Ρ_@`uBdB6BĠģ>ĜǷBQ@;@žo>lě@¹@a@K#@#ʞ#0&ˑ#B#ŊÑ@ÌŭBU@E@²@ï@DB>{$#~ºę$Z*97p\\4Õ&.ÔĄƻf]ZFĨǥ7#\\Ç^«CĔƢüͧfY\\2ĄƷ3&łbéC1$ɶ,ʁ#´¾Ĺ7'ZÇd.#&pó&P2;3dT,¹$0´Úŷh]vX4ôƑ5%Xz¯X|AìŌÆʷf[zX$Úŭ3$ĘP¿?1$Ȃ0ȓ#¢¢ċ5'Vz¯\\¼%&Rj$>05+J@&}%.xëRKXD&÷1#DVwDVe7È|ƙPIZF)ã-%¸<}_3-#ĸ.Ņ#pl­/#BVwFXŒ#####################################################################Ƭ$'Sk%?14*KA'|$/yêSJYE'ö0#EWvEWd6É}ƘQH[G(â,$¹=|^2,#Ĺ/ń#qm¬.#CWvGYƮ#'qò'Q3:2eU-¸%1µÛŶi\\wY5õƐ4$Y{®Y}@íōÇʶgZ{Y%ÛŬ2%ęQ¾>0%ȃ1Ȓ#££Ċ4&W{®]ź%#»Ę%[+86q]5Ô'/Õąƺg\\[GĩǤ6#]Æ_ªBĕƣýͦgX]3ąƶ2'ŃcèB0%ɷ-ʀ#µ¿ĸ6&[Æeĺ%#ÇĤ#_%68u]=Þ)-ÝĝǘcXWUŃȊ6#]Ð_´BġǕěξaTW=ĝǖ2)ŏmüB,#ʭ'ʰ#»ÍŌ6&[Ðeü%#ÉĦ#_#68u_=Þ)+áģǠaVUYŉȔ4#]Ð_¸@ģǥĥϚ_TWAģǠ0)őoĀB,#ʽ#ʼ#»ÑŒ4&[Ðc¡Â%#ÇĤ#_%68u]=Þ)-ÝĝǘcXWUŃȊ6#]Ð_´BġǕěξaTW=ĝǖ2)ŏmüB,#ʭ'ʰ#»ÍŌ6&[Ðez%#»Ę%[+86q]5Ô'/Õąƺg\\[GĩǤ6#]Æ_ªBĕƣýͦgX]3ąƶ2'ŃcèB0%ɷ-ʀ#µ¿ĸ6&[Æe/#'qò'Q3:2eU-¸%1µÛŶi\\wY5õƐ4$Y{®Y}@íōÇʶgZ{Y%ÛŬ2%ęQ¾>0%ȃ1Ȓ#££Ċ4&W{®]½$'Sk%?14*KA'|$/yêSJYE'ö0#EWvEWd6É}ƘQH[G(â,$¹=|^2,#Ĺ/ń#qm¬.#CWvGYœ#####################################################################ƭ%&Rj$>05+J@&}%.xëRKXD&÷1#DVwDVe7È|ƙPIZF)ã-%¸<}_3-#ĸ.Ņ#pl­/#BVwFXƯ#&pó&P2;3dT,¹$0´Úŷh]vX4ôƑ5%Xz¯X|AìŌÆʷf[zX$Úŭ3$ĘP¿?1$Ȃ0ȓ#¢¢ċ5'Vz¯\\Ż$#~ºę$Z*97p\\4Õ&.ÔĄƻf]ZFĨǥ7#\\Ç^«CĔƢüͧfY\\2ĄƷ3&łbéC1$ɶ,ʁ#´¾Ĺ7'ZÇdĻ$#Æĥ#^$79t\\<ß(,ÜĜǙbYVTłȋ7#\\Ñ^µCĠǔĚο`UV<ĜǗ3(ŎlýC-#ʬ&ʱ#ºÌō7'ZÑdû%@$A@b@ª>Ń#@#@#@$m8B9TB>@'@÷)@(9BÀ>Ć8ƹa@bw@b@6BŞŉ>łȫBU@A@²@ï@@@~>ó@BCĄ>ǈ.Ę$Ρ_@`uBdB6BĠģ>ĜǷBQ@;@žo>lě@¹@a@K#@#ʞ#0&ˑ#B#ŊÑ@ÌŭBU@E@²@ï@DB>{$#~ºę$Z*97p\\4Õ&.ÔĄƻf]ZFĨǥ7#\\Ç^«CĔƢüͧfY\\2ĄƷ3&łbéC1$ɶ,ʁ#´¾Ĺ7'ZÇd.#&pó&P2;3dT,¹$0´Úŷh]vX4ôƑ5%Xz¯X|AìŌÆʷf[zX$Úŭ3$ĘP¿?1$Ȃ0ȓ#¢¢ċ5'Vz¯\\¼%&Rj$>05+J@&}%.xëRKXD&÷1#DVwDVe7È|ƙPIZF)ã-%¸<}_3-#ĸ.Ņ#pl­/#BVwFXŒ#####################################################################Ƭ$'Sk%?14*KA'|$/yêSJYE'ö0#EWvEWd6É}ƘQH[G(â,$¹=|^2,#Ĺ/ń#qm¬.#CWvGYƮ#'qò'Q3:2eU-¸%1µÛŶi\\wY5õƐ4$Y{®Y}@íōÇʶgZ{Y%ÛŬ2%ęQ¾>0%ȃ1Ȓ#££Ċ4&W{®]ź%#»Ę%[+86q]5Ô'/Õąƺg\\[GĩǤ6#]Æ_ªBĕƣýͦgX]3ąƶ2'ŃcèB0%ɷ-ʀ#µ¿ĸ6&[Æeĺ%#ÇĤ#_%68u]=Þ)-ÝĝǘcXWUŃȊ6#]Ð_´BġǕěξaTW=ĝǖ2)ŏmüB,#ʭ'ʰ#»ÍŌ6&[Ðeü%#ÉĦ#_#68u_=Þ)+áģǠaVUYŉȔ4#]Ð_¸@ģǥĥϚ_TWAģǠ0)őoĀB,#ʽ#ʼ#»ÑŒ4&[Ðc¡Â%#ÇĤ#_%68u]=Þ)-ÝĝǘcXWUŃȊ6#]Ð_´BġǕěξaTW=ĝǖ2)ŏmüB,#ʭ'ʰ#»ÍŌ6&[Ðez%#»Ę%[+86q]5Ô'/Õąƺg\\[GĩǤ6#]Æ_ªBĕƣýͦgX]3ąƶ2'ŃcèB0%ɷ-ʀ#µ¿ĸ6&[Æe/#'qò'Q3:2eU-¸%1µÛŶi\\wY5õƐ4$Y{®Y}@íōÇʶgZ{Y%ÛŬ2%ęQ¾>0%ȃ1Ȓ#££Ċ4&W{®]½$'Sk%?14*KA'|$/yêSJYE'ö0#EWvEWd6É}ƘQH[G(â,$¹=|^2,#Ĺ/ń#qm¬.#CWvGYœ#####################################################################ƭ%&Rj$>05+J@&}%.xëRKXD&÷1#DVwDVe7È|ƙPIZF)ã-%¸<}_3-#ĸ.Ņ#pl­/#BVwFXƯ#&pó&P2;3dT,¹$0´Úŷh]vX4ôƑ5%Xz¯X|AìŌÆʷf[zX$Úŭ3$ĘP¿?1$Ȃ0ȓ#¢¢ċ5'Vz¯\\Ż$#~ºę$Z*97p\\4Õ&.ÔĄƻf]ZFĨǥ7#\\Ç^«CĔƢüͧfY\\2ĄƷ3&łbéC1$ɶ,ʁ#´¾Ĺ7'ZÇdĻ$#Æĥ#^$79t\\<ß(,ÜĜǙbYVTłȋ7#\\Ñ^µCĠǔĚο`UV<ĜǗ3(ŎlýC-#ʬ&ʱ#ºÌō7'ZÑdû%@$A@b@ª>Ń#@#@#@$m8B9TB>@'@÷)@(9BÀ>Ć8ƹa@bw@b@6BŞŉ>łȫBU@A@²@ï@@@~>ó@BCĄ>ǈ.Ę$Ρ_@`uBdB6BĠģ>ĜǷBQ@;@žo>lě@¹@a@K#@#ʞ#0&ˑ#B#ŊÑ@ÌŭBU@E@²@ï@DB>{$#~ºę$Z*97p\\4Õ&.ÔĄƻf]ZFĨǥ7#\\Ç^«CĔƢüͧfY\\2ĄƷ3&łbéC1$ɶ,ʁ#´¾Ĺ7'ZÇd.#&pó&P2;3dT,¹$0´Úŷh]vX4ôƑ5%Xz¯X|AìŌÆʷf[zX$Úŭ3$ĘP¿?1$Ȃ0ȓ#¢¢ċ5'Vz¯\\¼%&Rj$>05+J@&}%.xëRKXD&÷1#DVwDVe7È|ƙPIZF)ã-%¸<}_3-#ĸ.Ņ#pl­/#BVwFXŒ#####################################################################Ƭ$'Sk%?14*KA'|$/yêSJYE'ö0#EWvEWd6É}ƘQH[G(â,$¹=|^2,#Ĺ/ń#qm¬.#CWvGYƮ#'qò'Q3:2eU-¸%1µÛŶi\\wY5õƐ4$Y{®Y}@íōÇʶgZ{Y%ÛŬ2%ęQ¾>0%ȃ1Ȓ#££Ċ4&W{®]ź%#»Ę%[+86q]5Ô'/Õąƺg\\[GĩǤ6#]Æ_ªBĕƣýͦgX]3ąƶ2'ŃcèB0%ɷ-ʀ#µ¿ĸ6&[Æeĺ%#ÇĤ#_%68u]=Þ)-ÝĝǘcXWUŃȊ6#]Ð_´BġǕěξaTW=ĝǖ2)ŏmüB,#ʭ'ʰ#»ÍŌ6&[Ðeü%#ÉĦ#_#68u_=Þ)+áġǞaVUYŉȔ4#]Ð_¸@ģǥĥϚ_TWAģǠ0)őoĀB,#ʽ#ʼ#»ÑŒ4&[Ðc¡Â%#ÇĤ#_%68u]=Þ)-ÝĝǘcXWUŃȊ6#]Ð_´BġǕěξaTW=ĝǖ2)ŏmüB,#ʭ'ʰ#»ÍŌ6&[Ðez%#»Ę%[+86q]5Ô'/Õąƺg\\[GĩǤ6#]Æ_ªBĕƣýͦgX]3ąƶ2'ŃcèB0%ɷ-ʀ#µ¿ĸ6&[Æe/#'qò'Q3:2eU-¸%1µÛŶi\\wY5õƐ4$Y{®Y}@íōÇʶgZ{Y%ÛŬ2%ęQ¾>0%ȃ1Ȓ#££Ċ4&W{®]½$'Sk%?14*KA'|$/yêSJYE'ö0#EWvEWd6É}ƘQH[G(â,$¹=|^2,#Ĺ/ń#qm¬.#CWvGYœ#####################################################################ƭ%&Rj$>05+J@&}%.xëRKXD&÷1#DVwDVe7È|ƙPIZF)ã-%¸<}_3-#ĸ.Ņ#pl­/#BVwFXƯ#&pó&P2;3dT,¹$0´Úŷh]vX4ôƑ5%Xz¯X|AìŌÆʷf[zX$Úŭ3$ĘP¿?1$Ȃ0ȓ#¢¢ċ5'Vz¯\\Ż$#~ºę$Z*97p\\4Õ&.ÔĄƻf]ZFĨǥ7#\\Ç^«CĔƢüͧfY\\2ĄƷ3&łbéC1$ɶ,ʁ#´¾Ĺ7'ZÇdĻ$#Æĥ#^$79t\\<ß(,ÜĜǙbYVTłȋ7#\\Ñ^µCĠǔĚο`UV<ĜǗ3(ŎlýC-#ʬ&ʱ#ºÌō7'ZÑdû%@$A@b@ª>Ń#@#@#@$m8B9TB>@'@÷)@(9BÀ>Ć8ƹa@bw@b@6BŞŉ>łȫBU@A@²@ï@@@~>ó@BCĄ>ǈ.Ę$Ρ_@`uBdB6BĠģ>ĜǷBQ@;@žo>lě@¹@a@K#@#ʞ#0&ˑ#B#ŊÑ@ÌŭBU@E@²@ï@DB>{$#~ºę$Z*97p\\4Õ&.ÔĄƻf]ZFĨǥ7#\\Ç^«CĔƢüͧfY\\2ĄƷ3&łbéC1$ɶ,ʁ#´¾Ĺ7'ZÇd.#&pó&P2;3dT,¹$0´Úŷh]vX4ôƑ5%Xz¯X|AìŌÆʷf[zX$Úŭ3$ĘP¿?1$Ȃ0ȓ#¢¢ċ5'Vz¯\\¼%&Rj$>05+J@&}%.xëRKXD&÷1#DVwDVe7È|ƙPIZF)ã-%¸<}_3-#ĸ.Ņ#pl­/#BVwFXŒ#####################################################################Ƭ$'Sk%?14*KA'|$/yêSJYE'ö0#EWvEWd6É}ƘQH[G(â,$¹=|^2,#Ĺ/ń#qm¬.#CWvGYƮ#'qò'Q3:2eU-¸%1µÛŶi\\wY5õƐ4$Y{®Y}@íōÇʶgZ{Y%ÛŬ2%ęQ¾>0%ȃ1Ȓ#££Ċ4&W{®]ź%#»Ę%[+86q]5Ô'/Õąƺg\\[GĩǤ6#]Æ_ªBĕƣýͦgX]3ąƶ2'ŃcèB0%ɷ-ʀ#µ¿ĸ6&[Æeĺ%#ÇĤ#_%68u]=Þ)-ÝĝǘcXWUŃȊ6#]Ð_´BġǕěξaTW=ĝǖ2)ŏmüB,#ʭ'ʰ#»ÍŌ6&[Ðeü%#ÉĦ#_#68u_=Þ)+áġǞaVUYŉȔ4#]Ð_¸@ģǥĥϚ_TWAģǠ0)őoĀB,#ʽ#ʼ#»ÑŒ4&[Ðc¡Â%#ÇĤ#_%68u]=Þ)-ÝĝǘcXWUŃȊ6#]Ð_´BġǕěξaTW=ĝǖ2)ŏmüB,#ʭ'ʰ#»ÍŌ6&[Ðez%#»Ę%[+86q]5Ô'/Õąƺg\\[GĩǤ6#]Æ_ªBĕƣýͦgX]3ąƶ2'ŃcèB0%ɷ-ʀ#µ¿ĸ6&[Æe/#'qò'Q3:2eU-¸%1µÛŶi\\wY5õƐ4$Y{®Y}@íōÇʶgZ{Y%ÛŬ2%ęQ¾>0%ȃ1Ȓ#££Ċ4&W{®]½$'Sk%?14*KA'|$/yêSJYE'ö0#EWvEWd6É}ƘQH[G(â,$¹=|^2,#Ĺ/ń#qm¬.#CWvGYœ#####################################################################ƭ%&Rj$>05+J@&}%.xëRKXD&÷1#DVwDVe7È|ƙPIZF)ã-%¸<}_3-#ĸ.Ņ#pl­/#BVwFXƯ#&pó&P2;3dT,¹$0´Úŷh]vX4ôƑ5%Xz¯X|AìŌÆʷf[zX$Úŭ3$ĘP¿?1$Ȃ0ȓ#¢¢ċ5'Vz¯\\Ż$#~ºę$Z*97p\\4Õ&.ÔĄƻf]ZFĨǥ7#\\Ç^«CĔƢüͧfY\\2ĄƷ3&łbéC1$ɶ,ʁ#´¾Ĺ7'ZÇdĻ$#Æĥ#^$79t\\<ß(,ÜĜǙbYVTłȋ7#\\Ñ^µCĠǔĚο`UV<ĜǗ3(ŎlýC-#ʬ&ʱ#ºÌō7'ZÑd͆####˷#####˶#####˶#####I#H#С###########ϻK#Jܤ#͍#######͍#͌###Р###С###У###Т#######Р###С###############У###Т###Р###С###У###Т###########Р###С###У###Т#######Р###С###############У###Т###Р###С###У###Т###############У###Т###Р###С###########У###Т###Р###С#####ě$ĘěĚąĄÓÒ#ę%Ě#ć+Ď#đ)ĖāĀñðåä#ě&ĖęĘéè£¢#ĕ,ĊēĒûúõô#ãpėĖěĚęĘ#ďHèĝĜčČçæ#ĕ)ĚÛÚkj/.#ĕ*ČēĒûúõô#éh¢ęĘěĚėĖ#Í:´óòđĐęĘ#ě#Ě#s+z#ě#Ě#õTÂĕĔěĚěĚ#ďHèĝĜčČåŕ&'T¹'N1)1RD:(#®ď85V2BÀĭ-$>pBr3®þǱ83V28®ė)(ÄPg5%%ź-ű#tÑ-%>rFtƋ()vÀđ'f/1;rX@Û,&ÆöƕTKxDJĒƿ5&RÏX·?ĀŤÈ˗RI|F8öƛ1,ĦfßC)#Ȯ+ȧ#¨Àı7%RÏ^ ơ('òť%|)=AjFě,,úĶȍteXFŖȻ=$l¾ċpÄåMŊƲîΓrc¢\\.Ķȏ7,Ɔrē·O1#ˈ%ˉ#ÞîƉ?'jÀċvÈũ&%¤ĆƉ##CErFķ,0ĒŎȿs°d@ŲɭA#vÐĥzÔûQŪǐüϡo¶f(Ŏȿ;,ưvĥËU3#̊#̍#ôĂƭC'rÒĥÚé('òť%|)=AjFě,,úĶȍteXFŖȻ=$l¾ċpÄåMŊƲîΓrc¢\\.Ķȏ7,Ɔrē·O1#ˈ%ˉ#ÞîƉ?'jÀċvÈU()vÀđ'f/1;rX@Û,&ÆöƕTKxDJĒƿ5&RÏX·?ĀŤÈ˗RI|F8öƛ1,ĦfßC)#Ȯ+ȧ#¨Àı7%RÏ^ ^&'T¹'N1)1RD:(#®ď85V2BÀĭ-$>pBr3®þǱ83V28®ė)(ÄPg5%%ź-ű#tÑ-%>rFtª$%8Ti%6+%)82.Y&%Rh,+:(4p¥'$,HW2HQ)b^ĉ*):(.h%&l:aA+%#Ê+Ã#HTu)#.HW2Jä#####################################################################Ě%$9Uh$7*$(93/X'$Si-*;)5q¤&%-IV3IP(c_Ĉ+(;)/i$'m;`@*$#Ë*Â#IUt(#/IV3KŔ'&U¸&O0(0SE;)#¯Ď94W3CÁĬ,%?qCs2¯ÿǰ92W39¯Ė()ÅQf4$$Ż,Ű#uÐ,$?sGuƊ)(wÁĐ&g.0:sYAÚ-'Ç÷ƔUJyEKēƾ4'SÎY¶>āťÉ˖SH}G9÷ƚ0-ħgÞB(#ȯ*Ȧ#©Áİ6$SÎ_¡Ơ)&óŤ$}(<@kGĚ--ûķȌudYGŗȺ<%m¿ĊqÅäLŋƳïΒq`£]/ķȎ6-ƇsĒ¶N0#ˉ$ˈ#ßïƈ>&kÁĊwÉŨ'$¥ćƈ##BDuGĶ-1ēŏȾr±eAųɬ@#wÑĤ{ÕúPūǑýϠn·g)ŏȾ:-ƱwĤÊT2#̋#̊#óăƬB&sÓĤÛè)&óŤ$}(<@kGĚ--ûķȌudYGŗȺ<%m¿ĊqÅäLŋƳïΒsb£]/ķȎ6-ƇsĒ¶N0#ˉ$ˈ#ßïƈ>&kÁĊwÉT)(wÁĐ&g.0:sYAÚ-'Ç÷ƔUJyEKēƾ4'SÎY¶>āťÉ˖SH}G9÷ƚ0-ħgÞB(#ȯ*Ȧ#©Áİ6$SÎ_¡_'&U¸&O0(0SE;)#¯Ď94W3CÁĬ,%?qCs2¯ÿǰ92W39¯Ė()ÅQf4$$Ż,Ű#uÐ,$?sGu«%$9Uh$7*$(93/X'$Si-*;)5q¤&%-IV3IP(c_Ĉ+(;)/i$'m;`@*$#Ë*Â#IUt(#/IV3Kå#ě$ĘěĚąĄÓÒ#ę%Ě#ć+Ď#đ)ĖāĀñðåä#ě&ĖęĘéè£¢#ĕ,ĊēĒûúõô#ãpėĖěĚęĘ#ďHèĝĜčČçæ#ĕ)ĚÛÚkj/.#ĕ*ČēĒûúõô#éh¢ęĘěĚėĖ#Í:´óòđĐęĘ#ě#Ě#s+z#ě#Ě#õTÂĕĔěĚěĚ#ďHèĝĜčČåŕ&'T¹'N1)1RD:(#®ď85V2BÀĭ-$>pBr3®þǱ83V28®ė)(ÄPg5%%ź-ű#tÑ-%>rFtƋ()vÀđ'f/1;rX@Û,&ÆöƕTKxDJĒƿ5&RÏX·?ĀŤÈ˗RI|F8öƛ1,ĦfßC)#Ȯ+ȧ#¨Àı7%RÏ^ ơ('òť%|)=AjFě,,úĶȍteXFŖȻ=$l¾ċpÄåMŊƲîΓrc¢\\.Ķȏ7,Ɔrē·O1#ˈ%ˉ#ÞîƉ?'jÀċvÈū(%¤ĆƉ##CErFķ,0ĒŎȿs°d@ŲɭA#vÐĥzÔûQŪǐüϡo¶f(Ŏȿ;,ưvĥËU3#̊#̍#ôĂƭC'rÒĥÚé('òť%|)=AjFě,,úĶȍteXFŖȻ=$l¾ċpÄåMŊƲîΓrc¢\\.Ķȏ7,Ɔrē·O1#ˈ%ˉ#ÞîƉ?'jÀċvÈU()vÀđ'f/1;rX@Û,&ÆöƕTKxDJĒƿ5&RÏX·?ĀŤÈ˗RI|F8öƛ1,ĦfßC)#Ȯ+ȧ#¨Àı7%RÏ^ ^&'T¹'N1)1RD:(#®ď85V2BÀĭ-$>pBr3®þǱ83V28®ė)(ÄPg5%%ź-ű#tÑ-%>rFtª$%8Ti%6+%)82.Y&%Rh,+:(4p¥'$,HW2HQ)b^ĉ*):(.h%&l:aA+%#Ê+Ã#HTu)#.HW2Jä#####################################################################Ě%$9Uh$7*$(93/X'$Si-*;)5q¤&%-IV3IP(c_Ĉ+(;)/i$'m;`@*$#Ë*Â#IUt(#/IV3KŔ'&U¸&O0(0SE;)#¯Ď94W3CÁĬ,%?qCs2¯ÿǰ92W39¯Ė()ÅQf4$$Ż,Ű#uÐ,$?sGuƊ)(wÁĐ&g.0:sYAÚ-'Ç÷ƔUJyEKēƾ4'SÎY¶>āťÉ˖SH}G9÷ƚ0-ħgÞB(#ȯ*Ȧ#©Áİ6$SÎ_¡Ơ)&óŤ$}(<@kGĚ--ûķȌudYGŗȺ<%m¿ĊqÅäLŋƳïΒsb£]/ķȎ6-ƇsĒ¶N0#ˉ$ˈ#ßïƈ>&kÁĊwÉŪ)$¥ćƈ##BDsGĶ-1ēŏȾr±eAųɬ@#wÑĤ{ÕúPūǑýϠn·g)ŏȾ:-ƱwĤÊT2#̋#̊#óăƬB&sÓĤÛè)&óŤ$}(<@kGĚ--ûķȌudYGŗȺ<%m¿ĊqÅäLŋƳïΒsb£]/ķȎ6-ƇsĒ¶N0#ˉ$ˈ#ßïƈ>&kÁĊwÉT)(wÁĐ&g.0:sYAÚ-'Ç÷ƔUJyEKēƾ4'SÎY¶>āťÉ˖SH}G9÷ƚ0-ħgÞB(#ȯ*Ȧ#©Áİ6$SÎ_¡_'&U¸&O0(0SE;)#¯Ď94W3CÁĬ,%?qCs2¯ÿǰ92W39¯Ė()ÅQf4$$Ż,Ű#uÐ,$?sGu«%$9Uh$7*$(93/X'$Si-*;)5q¤&%-IV3IP(c_Ĉ+(;)/i$'m;`@*$#Ë*Â#IUt(#/IV3Kå#ě$ĘěĚąĄÓÒ#ę%Ě#ć+Ď#đ)ĖāĀñðåä#ě&ĖęĘéè£¢#ĕ,ĊēĒûúõô#ãpėĖěĚęĘ#ďHèĝĜčČçæ#ĕ)ĚÛÚkj/.#ĕ*ČēĒûúõô#éh¢ęĘěĚėĖ#Í:´óòđĐęĘ#ě#Ě#s+z#ě#Ě#õTÂĕĔěĚěĚ#ďHèĝĜčČåŕ&'T¹'N1)1RD:(#®ď85V2BÀĭ-$>pBr3®þǱ83V28®ė)(ÄPg5%%ź-ű#tÑ-%>rFtƋ()vÀđ'f/1;rX@Û,&ÆöƕTKxDJĒƿ5&RÏX·?ĀŤÈ˗RI|F8öƛ1,ĦfßC)#Ȯ+ȧ#¨Àı7%RÏ^ ơ('òť%|)=AjFě,,úĶȍteXFŖȻ=$l¾ċpÄåMŊƲîΓpa¢\\.Ķȏ7,Ɔrē·O1#ˈ%ˉ#ÞîƉ?'jÀċvÈū(%¤ĆƉ##CErFķ,0ĒŎȿs°d@ŲɭA#vÐĥzÔûQŪǐüϡo¶f(Ŏȿ;,ưvĥËU3#̊#̍#ôĂƭC'rÒĥÚé('òť%|)=AjFě,,úĶȍteXFŖȻ=$l¾ċpÄåMŊƲîΓpa¢\\.Ķȏ7,Ɔrē·O1#ˈ%ˉ#ÞîƉ?'jÀċvÈU()vÀđ'f/1;rX@Û,&ÆöƕTKxDJĒƿ5&RÏX·?ĀŤÈ˗RI|F8öƛ1,ĦfßC)#Ȯ+ȧ#¨Àı7%RÏ^ ^&'T¹'N1)1RD:(#®ď85V2BÀĭ-$>pBr3®þǱ83V28®ė)(ÄPg5%%ź-ű#tÑ-%>rFtª$%8Ti%6+%)82.Y&%Rh,+:(4p¥'$,HW2HQ)b^ĉ*):(.h%&l:aA+%#Ê+Ã#HTu)#.HW2Jä#####################################################################Ě%$9Uh$7*$(93/X'$Si-*;)5q¤&%-IV3IP(c_Ĉ+(;)/i$'m;`@*$#Ë*Â#IUt(#/IV3KŔ'&U¸&O0(0SE;)#¯Ď94W3CÁĬ,%?qCs2¯ÿǰ92W39¯Ė()ÅQf4$$Ż,Ű#uÐ,$?sGuƊ)(wÁĐ&g.0:sYAÚ-'Ç÷ƔUJyEKēƾ4'SÎY¶>āťÉ˖SH}G9÷ƚ0-ħgÞB(#ȯ*Ȧ#©Áİ6$SÎ_¡Ơ)&óŤ$}(<@kGĚ--ûķȌudYGŗȺ<%m¿ĊqÅäLŋƳïΒsb£]/ķȎ6-ƇsĒ¶N0#ˉ$ˈ#ßïƈ>&kÁĊwÉŪ)$¥ćƈ##BDsGĶ-1ēŏȾr±eAųɬ@#wÑĤ{ÕúPūǑýϠn·g)ŏȾ:-ƱwĤÊT2#̋#̊#óăƬB&sÓĤÛè)&óŤ$}(<@kGĚ--ûķȌudYGŗȺ<%m¿ĊqÅäLŋƳïΒsb£]/ķȎ6-ƇsĒ¶N0#ˉ$ˈ#ßïƈ>&kÁĊwÉT)(wÁĐ&g.0:sYAÚ-'Ç÷ƔUJyEKēƾ4'SÎY¶>āťÉ˖SH}G9÷ƚ0-ħgÞB(#ȯ*Ȧ#©Áİ6$SÎ_¡_'&U¸&O0(0SE;)#¯Ď94W3CÁĬ,%?qCs2¯ÿǰ92W39¯Ė()ÅQf4$$Ż,Ű#uÐ,$?sGu«%$9Uh$7*$(93/X'$Si-*;)5q¤&%-IV3IP(c_Ĉ+(;)/i$'m;`@*$#Ë*Â#IUt(#/IV3Kå#ě$ĘěĚąĄÓÒ#ę%Ě#ć+Ď#đ)ĖāĀñðåä#ě&ĖęĘéè£¢#ĕ,ĊēĒûúõô#ãpėĖěĚęĘ#ďHèĝĜčČçæ#ĕ)ĚÛÚkj/.#ĕ*ČēĒûúõô#éh¢ęĘěĚėĖ#Í:´óòđĐęĘ#ě#Ě#s+z#ě#Ě#õTÂĕĔěĚěĚ#ďHèĝĜčČåŕ&'T¹'N1)1RD:(#®ď85V2BÀĭ-$>pBr3®þǱ83V28®ė)(ÄPg5%%ź-ű#tÑ-%>rFtƋ()vÀđ'f/1;rX@Û,&ÆöƕTKxDJĒƿ5&RÏX·?ĀŤÈ˗RI|F8öƛ1,ĦfßC)#Ȯ+ȧ#¨Àı7%RÏ^ ơ('òť%|)=AjFě,,úĶȍteXFŖȻ=$l¾ċpÄåMŊƲîΓrc¢\\.Ķȏ7,Ɔrē·O1#ˈ%ˉ#ÞîƉ?'jÀċvÈũ&%¤ĆƉ##CErFķ,0ĒŎȿs°d@ŲɭA#vÐĥzÔûQŪǐüϡo¶f(Ŏȿ;,ưvĥËU3#̊#̍#ôĂƭC'rÒĥÚé('òť%|)=AjFě,,úĶȍteXFŖȻ=$l¾ċpÄåMŊƲîΓrc¢\\.Ķȏ7,Ɔrē·O1#ˈ%ˉ#ÞîƉ?'jÀċvÈU()vÀđ'f/1;rX@Û,&ÆöƕTKxDJĐƽ5&RÏX·?ĀŤÈ˗RI|F8öƛ1,ĦfßC)#Ȯ+ȧ#¨Àı7%RÏ^ ^&'T¹'N1)1RD:(#®ď85V2BÀĭ-$>pBr3®þǱ83V28®ė)(ÄPg5%%ź-ű#tÑ-%>rFtª$%8Ti%6+%)82.Y&%Rh,+:(4p¥'$,HW2HQ)b^ĉ*):(.h%&l:aA+%#Ê+Ã#HTu)#.HW2Jä#####################################################################Ě%$9Uh$7*$(93/X'$Si-*;)5q¤&%-IV3IP(c_Ĉ+(;)/i$'m;`@*$#Ë*Â#IUt(#/IV3KŔ'&U¸&O0(0SE;)#¯Ď94W3CÁĬ,%?qCs2¯ÿǰ92W39¯Ė()ÅQf4$$Ż,Ű#uÐ,$?sGuƊ)(wÁĐ&g.0:sYAÚ-'Ç÷ƔUJyEKēƾ4'SÎY¶>āťÉ˖SH}G9÷ƚ0-ħgÞB(#ȯ*Ȧ#©Áİ6$SÎ_¡Ơ)&óŤ$}(<@kGĚ--ûķȌudYGŗȺ<%m¿ĊqÅäLŋƳïΒq`£]/ķȎ6-ƇsĒ¶N0#ˉ$ˈ#ßïƈ>&kÁĊwÉŨ'$¥ćƈ##BDuGĶ-1ēŏȾr±eAųɬ@#wÑĤ{ÕúPūǑýϠn·g)ŏȾ:-ƱwĤÊT2#̋#̊#óăƬB&sÓĤÛè)&óŤ$}(<@kGĚ--ûķȌudYGŗȺ<%m¿ĊqÅäLŋƳïΒsb£]/ķȎ6-ƇsĒ¶N0#ˉ$ˈ#ßïƈ>&kÁĊwÉT)(wÁĐ&g.0:sYAÚ-'Ç÷ƔUJyEKēƾ4'SÎY¶>āťÉ˖SH}G9÷ƚ0-ħgÞB(#ȯ*Ȧ#©Áİ6$SÎ_¡_'&U¸&O0(0SE;)#¯Ď94W3CÁĬ,%?qCs2¯ÿǰ92W39¯Ė()ÅQf4$$Ż,Ű#uÐ,$?sGu«%$9Uh$7*$(93/X'$Si-*;)5q¤&%-IV3IP(c_Ĉ+(;)/i$'m;`@*$#Ë*Â#IUt(#/IV3Kȴ####˷#####˷#####˶#####̍#ķ#ð#ñ#У###Т#ð#hķ#Ķž##Ț###ț##ړ###Т###############Р###С###Р###С###У###Т#######У###Т###############Р###ࠡ###Т###############Р###С###Р###С###У###Т#######У###Т###############Р###С###Р###С###У###Т###########Р###С###У###Т#######yH%IÆ$Ɔ(Ė*ʓ#$#ľ#(#¹x({Ď(*B*˭h#kň$ǒ(Č(ǻù$þʑ'ĝ+o+šĞ)ĝ˜'à#Z#ʍĊ)čɨ#ź(Ĉ*ȩÞ&ãʂ*ŀ#R#ʡù&úʏ'ġ)q-ĳĒ)ēˊ%Ă#h$εf+eĠ+Į)º%Ì###ϊ#$$ϥ###̑ø+÷ȼ'¦%J#ȫĎ)đɲ$ż(Ĉ(ʱMÒƚĠʡ#Œ$aĞHˁoŜǞĎˑĈʷĭyaę˖ì^ƽĕɾƐĖűëʔĴNͩĆʵĳ{AďˊĐnΕaĒĮ¾Ø#ϐ$ϫ#ɕùɀªLŏęʊƒĖˏOâƨĨʹ$Ŧ$eĨH˥uŶǦĊ˗Ę˧ĻyUĕ˖údǗğʞƦĠſ÷ʤĤH͛Ĕ˥Ŀ{9ċˎĤtι_ČĶÆè#ϖ$ϳ#ɯùɈ´PšĥʮƦĠ˳Sðƶİˍ#ż$kĴḢ{ƎǪĈ˗Ĥ̗ŇwIđ˖ĈhǯīʾƸĮƍăʲĔD͍Ģ̕ŋy-ĉːĶzϙ]ĄľÎö#Ϝ#Ϲ#ʇùɎ¾RŭıˌƺĪ̓UøƺĴ˗#Ɔ#kĸJ̕ƖǮĆ˗Ī̭ŉwEď˔ĎlǷĳˌǀĴƓćʶĎBͅĦ̫ōy)ć˒ĺ~ϧ]ĂŀÒþ#Ϝ#ϻ#ʏûɐÂTųķ˚ǂİ̟Sðƶİˍ#ż$kĴḢ{ƎǪĈ˗Ĥ̗ŇwIđ˖ĈhǯīʾƸĮƍăʲĔD͍Ģ̕ŋy-ĉːĶzϙ]ĄľÎö#Ϝ#Ϲ#ʅûɎ¾RŭıˌƺĪ̍OâƨĨʹ$Ŧ$eĨH˥uŶǦĊ˗Ę˧ĻyUĕ˖údǗğʞƦĠſ÷ʤĤH͛Ĕ˥Ŀ{9ċˎĤtι_ČĶÆè#ϖ$ϳ#ɯùɈ´PšĥʮƦĠ˩MÒƚĠʡ#Œ$aĞHˁoŜǞĎˑĈʷĭyaę˖ì^ƽĕɾƐĖűëʔĴNͩĆʵĳ{AďˊĐnΓcĒĮ¾Ø#ϐ$ϫ#ɕ÷ȾªLŏęʊƒĖˇIÈƌĞʑ#ń#]{ĔJʧkŊǘĒˏþʕĥwkĝ˘àZƫčɨƀĐũãʊŀRͳúʓħ{IēˈĂj͹eĘĨ¸Ì#ό$ϥ#Ƀ÷ȸ¤JŅđɴƂĎʭIÄƈĜʋ#ŀ#]yĒJʟiņǔĒˋøʉġwmğ˘ÜZƥċɠźĎťßʂňRͷøʉĥwMē˄ĀhͯgĚĦ´Ê#ϊ#ϡ#Ȼùȶ¢HĿďɪžĎʩIÈƌĞʑ#ń#]{ĔJʧkŊǘĒˏþʕĥwkĝ˘àZƫčɨƀĐũãʊŀRͳúʓħ{IēˈĂj͹eĘĨ¸Ì#ό$ϥ#Ƀ÷ȸ¤JŅđɴƂĎʱMÒƚĠʡ#Œ$aĞHˁoŜǞĎˑĈʷĭyaę˖ì^ƽĕɾƐĖűëʔĴNͩĆʵĳ{AďˊĐnΕaĒĮ¾Ø#ϐ$ϫ#ɕùɀªLŏęʊƒĖˏOâƨĨʹ$Ŧ$eĨH˥uŶǦĊ˗Ę˧ĻyUĕ˖údǗğʞƦĠſ÷ʤĤH͛Ĕ˥Ŀ{9ċˎĤtι_ČĶÆè#ϖ$ϳ#ɯùɈ´PšĥʮƦĠ˳Sðƶİˍ#ż$kĴḢ{ƎǪĈ˗Ĥ̗ŇwIđ˖ĈhǯīʾƸĮƍăʲĔD͍Ģ̕ŋy-ĉːĶzϙ]ĄľÎö#Ϝ#Ϲ#ʅûɎ¾RŭıˌƺĪ̓UøƺĴ˗#Ɔ#kĸJ̕ƘǮĆ˗Ī̭ŉwEď˔ĎlǷĳˌǀĴƓćʶĎBͅĦ̫ōy)ć˒ĺ~ϧ]ĂŀÒþ#Ϝ#ϻ#ʏûɐÂTųķ˚ǂİ̟Sðƶİˍ#ż$kĴḢ{ƎǪĈ˗Ĥ̗ŇwIđ˖ĈhǯīʾƸĮƍăʲĔD͍Ģ̕ŋy-ĉːĶzϙ]ĄľÎö#Ϝ#Ϲ#ʅûɎ¾RŭıˌƺĪ̍OâƨĨʹ$Ŧ$eĨH˥uŶǦĊ˗Ę˧ĻyUĕ˖údǗğʞƦĠſ÷ʤĤH͛Ĕ˥Ŀ{9ċˎĤtι_ČĶÆè#ϖ$ϳ#ɯùɈ´PšĥʮƦĠ˩MÒƚĠʡ#Œ$aĞHˁoŜǞĎˑĈʷĭyaę˖ì^ƽĕɾƐĖűëʔĴNͩĆʵĳ{AďˊĐnΓcĒĮ¾Ø#ϐ$ϫ#ɕùɀªLŏęʊƒĖˇIÈƌĞʑ#ń#]{ĔJʧkŊǘĒˏþʕĥwkĝ˘àZƫčɨƀĐũãʊŀRͳúʓħ{IēˈĂj͹eĘĨ¸Ì#ό$ϥ#Ƀ÷ȸ¤JŅđɴƂĎ˓H%IÆ$Ɔ(Ė*ʓ#$#ľ#(#¹x({Ď(*B*˭h#kň$ǒ(Č(ǻù$þʑ'ĝ+o+šĞ)ĝ˜'à#Z#ʍĊ)čɨ#ź(Ĉ*ȩÞ&ãʂ*ŀ#R#ʡù&úʏ'ġ)q-ĳĒ)ēˊ%Ă#h$εf+eĠ+Į)º%Ì###ϊ#$$ϥ###̑ø+÷ȼ'¦%J#ȫĎ)đɲ$ż(Ĉ(ʱMÒƚĠʡ#Œ$aĞHˁoŜǞĎˑĈʷĭyaę˖ì^ƽĕɾƐĖűëʔĴNͩĆʵĳ{AďˊĐnΕaĒĮ¾Ø#ϐ$ϫ#ɕùɀªLŏęʊƒĖˏOâƨĨʹ$Ŧ$eĨH˥uŶǦĊ˗Ę˧ĻyUĕ˖údǗğʞƦĠſ÷ʤĤH͛Ĕ˥Ŀ{9ċˎĤtι_ČĶÆè#ϖ$ϳ#ɯùɈ´PšĥʮƦĠ˳Sðƶİˍ#ż$kĴḢ{ƎǪĈ˗Ĥ̗ŇwIđ˖ĈhǯīʾƸĮƍăʲĔD͍Ģ̕ŋy-ĉːĶzϙ]ĄľÎö#Ϝ#Ϲ#ʅûɎ¾RŭıˌƺĪ̓UøƺĴ˗#Ɔ#kĸJ̕ƖǮĆ˗Ī̭ŉwEď˔ĎlǷĳˌǀĴƓćʶĎBͅĦ̫ōy)ć˒ĺ~ϧ]ĂŀÒþ#Ϝ#ϻ#ʏûɐÂTųķ˚ǂİ̟Sðƶİˍ#ż$kĴḢ{ƎǪĈ˗Ĥ̗ŇwIđ˖ĈhǯīʾƸĮƍăʲĔD͍Ģ̕ŋy-ĉːĶzϙ]ĄľÎö#Ϝ#Ϲ#ʇùɎ¾RŭıˌƺĪ̍OâƨĨʹ$Ŧ$eĨH˥uŶǦĊ˗Ę˧ĻyUĕ˖údǗğʞƦĠſ÷ʤĤH͛Ĕ˥Ŀ{9ċˎĤtι_ČĶÆè#ϖ$ϳ#ɯùɈ´PšĥʮƦĠ˩MÒƚĠʡ#Œ$aĞHˁoŜǞĎˑĈʷĭyaę˖ì^ƽĕɾƐĖűëʔĴNͩĆʵĳ{AďˊĐnΕaĒĮ¾Ø#ϐ$ϫ#ɕ÷ȾªLŏęʊƒĖˇIÈƌĞʑ#ń#]{ĔJʧkŊǘĒˏþʕĥwkĝ˘àZƫčɨƀĐũãʊŀRͳúʓħ{IēˈĂj͹eĘĨ¸Ì#ό$ϥ#Ƀ÷ȸ¤JŅđɴƂĎʭIÄƈĜʋ#ŀ#]yĒJʟiņǔĒˋøʉġwmğ˘ÜZƥċɠźĎťßʂňRͷøʉĥwMē˄ĀhͯgĚĦ´Ê#ϊ#ϡ#Ȼùȶ¢HĿďɪžĎʩIÈƌĞʑ#ń#]{ĔJʧkŊǘĒˏþʕĥwkĝ˘àZƫčɨƀĐũãʊŀRͳúʓħ{IēˈĂj͹eĘĨ¸Ì#ό$ϥ#Ƀ÷ȸ¤JŅđɴƂĎʱMÒƚĠʡ#Œ$aĞHˁoŜǞĎˑĈʷĭyaę˖ì^ƽĕɾƐĖűëʔĴNͩĆʵĳ{AďˊĐnΕaĒĮ¾Ø#ϐ$ϫ#ɕ÷ȾªLŏęʊƒĖˏOâƨĨʹ$Ŧ$eĨH˥uŶǦĊ˗Ę˧ĻyUĕ˖údǗğʞƦĠſ÷ʤĤH͛Ĕ˥Ŀ{9ċˎĤtι_ČĶÆè#ϖ$ϳ#ɯùɈ´PšĥʮƦĠ˳Sðƶİˍ#ż$kĴḢ{ƎǪĈ˗Ĥ̗ŇwIđ˖ĈhǯīʾƸĮƍăʲĔD͍Ģ̕ŋy-ĉːĶzϙ]ĄľÎö#Ϝ#Ϲ#ʇùɎ¾RŭıˌƺĪ̓UøƺĴ˗#Ɔ#kĸJ̕ƖǮĆ˗Ī̭ŉwEď˔ĎlǷĳˌǀĴƓćʶĎBͅĦ̫ōy)ć˒ĺ~ϧ]ĂŀÒþ#Ϝ#ϻ#ʏûɐÂTųķ˚ǂİ̟Sðƶİˍ#ż$kĴḢ{ƎǪĈ˗Ĥ̗ŇwIđ˖ĈhǯīʾƸĮƍăʲĔD͍Ģ̕ŋy-ĉːĶzϙ]ĄľÎö#Ϝ#Ϲ#ʇùɎ¾RŭıˌƺĪ̍OâƨĨʹ$Ŧ$eĨH˥uŶǦĊ˗Ę˧ĻyUĕ˖údǗğʞƦĠſ÷ʤĤH͛Ĕ˥Ŀ{9ċˎĤtι_ČĶÆè#ϖ$ϳ#ɯùɈ´PšĥʮƦĠ˩MÒƚĠʡ#Œ$aĞHˁoŜǞĎˑĈʷĭyaę˖ì^ƽĕɾƐĖűëʔĴNͩĆʵĳ{AďˊĐnΕaĒĮ¾Ø#ϐ$ϫ#ɕùɀªLŏęʊƒĖˇIÈƌĞʑ#ń#]{ĔJʧkŊǘĒˏþʕĥwkĝ˘àZƫčɨƀĐũãʊŀRͳúʓħ{IēˈĂj͹eĘĨ¸Ì#ό$ϥ#Ƀ÷ȸ¤JŅđɴƂĎ˓H%IÆ$Ɔ(Ė*ʓ#$#ľ#(#¹x({Ď(*B*˭h#kň$ǒ(Č(ǻù$þʑ'ĝ+o+šĞ)ĝ˜'à#Z#ʍĊ)čɨ#ź(Ĉ*ȩÞ&ãʂ*ŀ#R#ʡù&úʏ'ġ)q-ĳĒ)ēˊ%Ă#h$εf+eĠ+Į)º%Ì###ϊ#$$ϥ###̑ø+÷ȼ'¦%J#ȫĎ)đɲ$ż(Ĉ(ʱMÒƚĠʡ#Œ$aĞHˁoŜǞĎˑĈʷĭyaę˖ì^ƽĕɾƐĖűëʔĴNͩĆʵĳ{AďˊĐnΕaĒĮ¾Ø#ϐ$ϫ#ɕùɀªLŏęʊƒĖˏOâƨĨʹ$Ŧ$eĨH˥uŶǦĊ˗Ę˧ĻyUĕ˖údǗğʞƦĠſ÷ʤĤH͛Ĕ˥Ŀ{9ċˎĤtι_ČĶÆè#ϖ$ϳ#ɯùɈ´PšĥʮƦĠ˳Sðƶİˍ#ż$kĴḢ{ƎǪĈ˗Ĥ̗ŇwIđ˖ĈhǯīʾƸĮƍăʲĔD͍Ģ̕ŋy-ĉːĶzϙ]ĄľÎö#Ϝ#Ϲ#ʅûɎ¾RŭıˌƺĪ̓UøƺĴ˗#Ɔ#kĸJ̕ƖǮĆ˗Ī̭ŉwEď˔ĎlǷĳˌǀĴƓćʶĎBͅĦ̫ōy)ć˒ĺ~ϧ]ĂŀÒþ#Ϝ#ϻ#ʏûɐÂTųķ˚ǂİ̟Sðƶİˍ#ż$kĴḢ{ƎǪĈ˗Ĥ̗ŇwIđ˖ĈhǯīʾƸĮƍăʲĔD͍Ģ̕ŋy-ĉːĶzϙ]ĄľÎö#Ϝ#Ϲ#ʇùɎ¾RŭıˌƺĪ̍OâƨĨʹ$Ŧ$eĨH˥uŶǦĊ˗Ę˧ĻyUĕ˖údǗğʞƦĠſ÷ʤĤH͛Ĕ˥Ŀ{9ċˎĤtι_ČĶÆè#ϖ$ϳ#ɯùɈ´PšĥʮƦĠ˩MÒƚĠʡ#Œ$aĞHˁoŜǞĎˑĈʷĭyaę˖ì^ƽĕɾƐĖűëʔĴNͩĆʵĳ{AďˊĐnΓcĒĮ¾Ø#ϐ$ϫ#ɕùɀªLŏęʊƒĖˇIÈƌĞʑ#ń#]{ĔJʧkŊǘĒˏþʕĥwkĝ˘àZƫčɨƀĐũãʊŀRͳúʓħ{IēˈĂj͹eĘĨ¸Ì#ό$ϥ#Ƀ÷ȸ¤JŅđɴƂĎʭIÄƈĜʋ#ŀ#]yĒJʟiņǔĒˋøʉġwmğ˘ÜZƥċɠźĎťßʂňRͷøʉĥwMē˄ĀhͯgĚĦ´Ê#ϊ#ϡ#Ȼùȶ¢HĿďɪžĎʩIÈƌĞʑ#ń#]{ĔJʧkŊǘĒˏþʕĥwkĝ˘àZƫčɨƀĐũãʊŀRͳúʓħ{IēˈĂj͹eĘĨ¸Ì#ό$ϥ#Ƀ÷ȸ¤JŅđɴƂĎʱMÒƚĠʡ#Œ$aĞHˁoŜǞĎˑĈʷĭyaę˖ì^ƽĕɾƐĖűëʔĴNͩĆʵĳ{AďˊĐnΕaĒĮ¾Ø#ϐ$ϫ#ɕùɀªLŏęʊƒĖˏOâƨĨʹ$Ŧ$eĨH˥uŶǦĊ˗Ę˧ĻyUĕ˖údǗğʞƦĠſ÷ʤĤH͛Ĕ˥Ŀ{9ċˎĤtι_ČĶÆè#ϖ$ϳ#ɯùɈ´PšĥʮƦĠ˳Sðƶİˍ#ż$kĴḢ{ƎǪĈ˗Ĥ̗ŇwIđ˖ĈhǯīʾƸĮƍăʲĔD͍Ģ̕ŋy-ĉːĶzϙ]ĄľÎö#Ϝ#Ϲ#ʅûɎ¾RŭıˌƺĪ̓UøƺĴ˗#Ɔ#kĸJ̕ƖǮĆ˗Ī̭ŉwEď˔ĎlǷĳˌǀĴƓćʶĎBͅĦ̫ōy)ć˒ĺ~ϧ]ĂŀÒþ#Ϝ#ϻ#ʏûɐÂTųķ˚ǂİ̟Sðƶİˍ#ż$kĴḢ{ƎǪĈ˗Ĥ̗ŇwIđ˖ĈhǯīʾƸĮƍăʲĔD͍Ģ̕ŋy-ĉːĶzϙ]ĄľÎö#Ϝ#Ϲ#ʇùɎ¾RŭıˌƺĪ̍OâƨĨʹ$Ŧ$eĨH˥uŶǦĊ˗Ę˧ĻyUĕ˖údǗğʞƦĠſ÷ʤĤH͛Ĕ˥Ŀ{9ċˎĤtι_ČĶÆè#ϖ$ϳ#ɯùɈ´PšĥʮƦĠ˩MÒƚĠʡ#Œ$aĞHˁoŜǞĎˑĈʷĭyaę˖ì^ƽĕɾƐĖűëʔĴNͩĆʵĳ{AďˊĐnΕaĒĮ¾Ø#ϐ$ϫ#ɕùɀªLŏęʊƒĖˇIÈƌĞʑ#ń#]{ĔJʧkŊǘĒˏþʕĥwkĝ˘àZƫčɨƀĐũãʊŀRͳúʓħ{IēˈĂj͹eĘĨ¸Ì#ό$ϥ#Ƀ÷ȸ¤JŅđɴƂĎ˓H%IÆ$Ɔ(Ė*ʓ#$#ľ#(#¹x({Ď(*B*˭h#kň$ǒ(Č(ǻù$þʑ'ĝ+o+šĞ)ĝ˜'à#Z#ʍĊ)čɨ#ź(Ĉ*ȩÞ&ãʂ*ŀ#R#ʡù&úʏ'ġ)q-ĳĒ)ēˊ%Ă#h$εf+eĠ+Į)º%Ì###ϊ#$$ϥ###̑ø+÷ȼ'¦%J#ȫĎ)đɲ$ż(Ĉ(ʱMÒƚĠʡ#Œ$aĞHˁoŜǞĎˑĈʷĭyaę˖ì^ƽĕɾƐĖűëʔĴNͩĆʵĳ{AďˊĐnΕaĒĮ¾Ø#ϐ$ϫ#ɕùɀªLŏęʊƒĖˏOâƨĨʹ$Ŧ$eĨH˥uŶǦĊ˗Ę˧ĻyUĕ˖údǗğʞƦĠſ÷ʤĤH͛Ĕ˥Ŀ{9ċˎĤtι_ČĶÆè#ϖ$ϳ#ɯùɈ´PšĥʮƦĠ˳Sðƶİˍ#ż$kĴḢ{ƎǪĈ˗Ĥ̗ŇwIđ˖ĈhǯīʾƸĮƍăʲĔD͍Ģ̕ŋy-ĉːĶzϙ]ĄľÎö#Ϝ#Ϲ#ʇùɎ¾RŭıˌƺĪ̓UøƺĴ˗#Ɔ#kĸJ̕ƖǮĆ˗Ī̭ŉwEď˔ĎlǷĳˌǀĴƓćʶĎBͅĦ̫ōy)ć˒ĺ~ϧ]ĂŀÒþ#Ϝ#ϻ#ʏûɐÂTųķ˚ǂİ̟Sðƶİˍ#ż$kĴḢ{ƎǪĈ˗Ĥ̗ŇwIđ˖ĈhǯīʾƸĮƍăʲĔD͍Ģ̕ŋy-ĉːĶzϙ]ĄľÎö#Ϝ#Ϲ#ʅûɎ¾RŭıˌƺĪ̍OâƨĨʹ$Ŧ$eĨH˥uŶǦĊ˗Ę˧ĻyUĕ˖údǗğʞƦĠſ÷ʤĤH͛Ĕ˥Ŀ{9ċˎĤtι_ČĶÆè#ϖ$ϳ#ɯùɈ´PšĥʮƦĠ˩MÒƚĠʡ#Œ$aĞHˁoŜǞĎˑĈʷĭyaę˖ì^ƽĕɾƐĖűëʔĴNͩĆʵĳ{AďˊĐnΓcĒĮ¾Ø#ϐ$ϫ#ɕùɀªLŏęʊƒĖˇIÈƌĞʑ#ń#]{ĔJʧkŊǘĒˏþʕĥwkĝ˘àZƫčɨƀĐũãʊŀRͳúʓħ{IēˈĂj͹eĘĨ¸Ì#ό$ϥ#Ƀ÷ȸ¤JŅđɴƂĎʭIÄƈĜʋ#ŀ#]yĒJʟiņǔĒˋøʉġwmğ˘ÜZƥċɠźĎťßʂňRͷøʉĥwMē˄ĀhͯgĚĦ´Ê#ϊ#ϡ#Ȼùȶ¢HĿďɪžĎʩIÈƌĞʑ#ń#]{ĔJʧkŊǘĒˏþʕĥwkĝ˘àZƫčɨƀĐũãʊŀRͳúʓħ{IēˈĂj͹eĘĨ¸Ì#ό$ϥ#Ƀ÷ȸ¤JŅđɴƂĎʱMÒƚĠʡ#Œ$aĞHˁoŜǞĎˑĈʷĭyaę˖ì^ƽĕɾƐĖűëʔĴNͩĆʵĳ{AďˊĐnΕaĒĮ¾Ø#ϐ$ϫ#ɕùɀªLŏęʊƒĖˏOâƨĨʹ$Ŧ$eĨH˥uŶǦĊ˗Ę˧ĻyUĕ˖údǗğʞƦĠſ÷ʤĤH͛Ĕ˥Ŀ{9ċˎĤtι_ČĶÆè#ϖ$ϳ#ɯùɈ´PšĥʮƦĠ˳Sðƶİˍ#ż$kĴḢ{ƎǪĈ˗Ĥ̗ŇwIđ˖ĈhǯīʾƸĮƍăʲĔD͍Ģ̕ŋy-ĉːĶzϙ]ĄľÎö#Ϝ#Ϲ#ʅûɎ¾RŭıˌƺĪ̓UøƺĴ˗#Ɔ#kĸJ̕ƘǮĆ˗Ī̭ŉwEď˔ĎlǷĳˌǀĴƓćʶĎBͅĦ̫ōy)ć˒ĺ~ϧ]ĂŀÒþ#Ϝ#ϻ#ʏûɐÂTųķ˚ǂİ̟Sðƶİˍ#ż$kĴḢ{ƎǪĈ˗Ĥ̗ŇwIđ˖ĈhǯīʾƸĮƍăʲĔD͍Ģ̕ŋy-ĉːĶzϙ]ĄľÎö#Ϝ#Ϲ#ʅûɎ¾RŭıˌƺĪ̍OâƨĨʹ$Ŧ$eĨH˥uŶǦĊ˗Ę˧ĻyUĕ˖údǗğʞƦĠſ÷ʤĤH͛Ĕ˥Ŀ{9ċˎĤtι_ČĶÆè#ϖ$ϳ#ɯùɈ´PšĥʮƦĠ˩MÒƚĠʡ#Œ$aĞHˁoŜǞĎˑĈʷĭyaę˖ì^ƽĕɾƐĖűëʔĴNͩĆʵĳ{AďˊĐnΓcĒĮ¾Ø#ϐ$ϫ#ɕùɀªLŏęʊƒĖˇIÈƌĞʑ#ń#]{ĔJʧkŊǘĒˏþʕĥwkĝ˘àZƫčɨƀĐũãʊŀRͳúʓħ{IēˈĂj͹eĘĨ¸Ì#ό$ϥ#Ƀ÷ȸ¤JŅđɴƂĎՑ######################",
"textureCoords":[
{
"UVOffsets":[
240.92625577716061,
164.66658973277848
],
"UVScales":[
6.0251291150237765e-05,
5.9911705688145082e-05
],
"UVs":"#####耡#耠#耡$耞#耟#耞耟#%#纴#絇絆絇#絆#絇絆絇#㪨ᆝ#ᆜ##ᆝ#######ᆜ#######ᆝ#³#ᜥ#ᜤ#####ᜥ#######ᜤ##ᜥ#ᜤሬᆝ#ᆜ##ᆝ#######ᆜ#######ᆝ#ᆜᆝ#ᆜ##ᆝ#######ᆜ#######ᆝ#³#ᜥ#ᜤ#####ᜥ#######ᜤ##ᜥ#ᜤሬᆝ#ᆜ##ᆝ#######ᆜ#######ᆝ#³#ᜥ#ᜤ#####ᜥ#######ᜤ##ᜥ#ᜤ##ᜥ#ᜤ#####ᜥ#######ᜤ##ᜥ#ᜤ⽬/l.}l3h`aÖXÏÞNÕеĈx®n>hi+h*mh'f\\]ÂT»vV±Z\\]Åd¼ŃhuhehiƩzƖɯFzŌhi<f;Hb:^5\\]ÂT»vV±Z\\]ÓfÈŏhmhahioljştĝ|ÉȂhǫƤĒ^ĉÌ#^#_áfØƁjlunoƣƐɟP~Ŏlì,1P¬´µŌ»˯uĬÚv)(%V°¤¥kO¥¤Û-$şŞǅŚ67zhD¤¥kO±°å'(a`é«aƦƧɪçæ#¿¾ďE'śŚƵŠŤ*-Dúȫaæ¨^)(%HvYA©+$ĉĈœnĆ01bV:vYA±'(QP³OļĽǊ±°#Ï;'ăĂŇxĊƾ&)4VZ[]ĵChB'&%6XTUN=5SRi'$ÃJ*+B>.TUN=5YXm%&;:oW;¶·Āml#]\\}/%½PǮ#####################################################################ǲ'(5W[Z\\Ĵ@iC&'$7YUTO<4RSh&%ÂK+*C?/UTO<4XYl$':;nV:·¶ālm#\\]|.$¼QǊ+,EûȪ^å©_()$IwX@¨*%ĈĉŒoć10cW;wX@°&)PQ²NĽļǋ°±#Î:&ĂăņyċŶ-0Q­µ´ōºˮtĭÛw()$W±¥¤jN¤¥Ú,%ŞşǄś76{kC¥¤jN°±ä&)`aèª`ƧƦɫæç#¼½ĎD&ŘřƴšĂ/2YÇÍÌſÔͪşû*+&cÉ»º«xT¼½ü.'ƔƕȎƓ;:wK»º«xTÈÉĈ&+jkČÂjǫǪˑĈĉ#ØÙĸH(ƐƑǺ­ƙx/2]Í×ÖƓÞΖůą*+&eÓÃÂ±|VÄÅĆ0'ƨƩȨ§ƥ=<{MÃÂ±|VÒÓĔ&+noĘÊnȃȂ˵Ĕĕ#âãņJ*ƢƣȒµƫa/2YÇÍÌſÔͪşû*+&cÉ»º«xT¼½ü.'ƔƕȎƓ;:wK»º«xTÈÉĈ&+jkČÂjǫǪˑĈĉ#ØÙĸH(ƐƑǺ­ƙí-0Q­µ´ōºˮtĭÛw()$W±¥¤jN¤¥Ú,%ŞşǄś76{kC¥¤jN°±ä&)`aèª`ƧƦɫæç#¼½ĎD&Řřƴšť+,EûȪ^å©_()$IwX@¨*%ĈĉŒoć10cW;wX@°&)PQ²NĽļǋ°±#Î:&Ăăņyċƿ'(5W[Z\\Ĵ@iC&'$7YUTO<4RSh&%ÂK+*C?/UTO<4XYl$':;nV:·¶ālm#\\]|.$¼Qǯ#####################################################################ǳ&)4VZ[]ĵChB'&%6XTUN=5SRi'$ÃJ*+B>.TUN=5YXm%&;:oW;¶·Āml#]\\}/%½Pǋ*-Dúȫ_ä¨^)(%HvYA©+$ĉĈœnĆ01bV:vYA±'(QP³OļĽǊ±°#Ï;'ăĂŇxĊŷ,1P¬´µŌ»˯uĬÚv)(%V°¤¥kO¥¤Û-$şŞǅŚ67zhD¤¥kO±°å'(a`é«aƦƧɪçæ#¿¾ďE'śŚƵŠă.3XÄÎÏƀÕͫŞú+*'bÈº»ªyU½¼ý/&ƗƖȏƒ:;vJº»ªyUÉÈĉ'*kjčÃkǪǫːĉĈ#ÙØĹI)ƑƐǻ¬Ƙm/l.}l3h`aÖXÏÞNÕеĈx®n>hi+h*mh'f\\]ÂT»vV±Z\\]Åd¼ŃhuhehiƩzƖɯFzŌhi<f;Hb:^5\\]ÂT»vV±Z\\]ÓfÈŏhmhahioljştĝ|ÉȂhǫƤĒ^ĉÌ#^#_áfØƁjlunoƣƐɟP~Ŏlì,1P¬´µŌ»˯uĬÚv)(%V°¤¥kO¥¤Û-$şŞǅŚ67zhD¤¥kO±°å'(a`é«aƦƧɪçæ#¿¾ďE'śŚƵŠŤ*-Dúȫaæ¨^)(%HvYA©+$ĉĈœnĆ01bV:vYA±'(QP³OļĽǊ±°#Ï;'ăĂŇxĊƾ&)4VZ[]ĵChB'&%6XTUN=5SRi'$ÃJ*+B>.TUN=5YXm%&;:oW;¶·Āml#]\\}/%½PǮ#####################################################################ǲ'(5W[Z\\Ĵ@iC&'$7YUTO<4RSh&%ÂK+*C?/UTO<4XYl$':;nV:·¶ālm#\\]|.$¼QǊ+,EûȪ^å©_()$IwX@¨*%ĈĉŒoć10cW;wX@°&)PQ²NĽļǋ°±#Î:&ĂăņyċŶ-0Q­µ´ōºˮtĭÛw()$W±¥¤jN¤¥Ú,%ŞşǄś76{kC¥¤jN°±ä&)`aèª`ƧƦɫæç#¼½ĎD&ŘřƴšĂ/2YÇÍÌſÔͪşû*+&cÉ»º«xT¼½ü.'ƔƕȎƓ;:wK»º«xTÈÉĈ&+jkČÂjǫǪˑĈĉ#ØÙĸH(ƐƑǺ­ƙx/2]Í×ÖƓÞΖůą*+&eÓÃÂ±|VÄÅĆ0'ƨƩȨ§ƥ=<{MÃÂ±|VÒÓĔ&+noĘÊnȃȂ˵Ĕĕ#âãņJ*ƢƣȒµƫa/2YÇÍÌſÔͪşû*+&cÉ»º«xT¼½ü.'ƔƕȎƓ;:wK»º«xTÈÉĈ&+jkČÂjǫǪˑĈĉ#ØÙĸH(ƐƑǺ­ƙí-0Q­µ´ōºˮtĭÛw()$W±¥¤jN¤¥Ú,%ŞşǄś76{kC¥¤jN°±ä&)`aèª`ƧƦɫæç#¼½ĎD&Řřƴšť+,EûȪ^å©_()$IwX@¨*%ĈĉŒoć10cW;wX@°&)PQ²NĽļǋ°±#Î:&Ăăņyċƿ'(5W[Z\\Ĵ@iC&'$7YUTO<4RSh&%ÂK+*C?/UTO<4XYl$':;nV:·¶ālm#\\]|.$¼Qǯ#####################################################################ǳ&)4VZ[]ĵChB'&%6XTUN=5SRi'$ÃJ*+B>.TUN=5YXm%&;:oW;¶·Āml#]\\}/%½Pǋ*-Dúȫ_ä¨^)(%HvYA©+$ĉĈœnĆ01bV:vYA±'(QP³OļĽǊ±°#Ï;'ăĂŇxĊŷ,1P¬´µŌ»˯uĬÚv)(%V°¤¥kO¥¤Û-$şŞǅŚ67zhD¤¥kO±°å'(a`é«aƦƧɪçæ#¿¾ďE'śŚƵŠă.3XÄÎÏƀÕͫŞú+*'bÈº»ªyU½¼ý/&ƗƖȏƒ:;vJº»ªyUÉÈĉ'*kjčÃkǪǫːĉĈ#ÙØĹI)ƑƐǻ¬Ƙm/l.}l3h`aÖXÏÞNÕеĈx®n>hi+h*mh'f\\]ÂT»vV±Z\\]Åd¼ŃhuhehiƩzƖɯFzŌhi<f;Hb:^5\\]ÂT»vV±Z\\]ÓfÈŏhmhahioljştĝ|ÉȂhǫƤĒ^ĉÌ#^#_áfØƁjlunoƣƐɟP~Ŏlì,1P¬´µŌ»˯uĬÚv)(%V°¤¥kO¥¤Û-$şŞǅŚ67zhD¤¥kO±°å'(a`é«aƦƧɪçæ#¿¾ďE'śŚƵŠŤ*-Dúȫaæ¨^)(%HvYA©+$ĉĈœnĆ01bV:vYA±'(QP³OļĽǊ±°#Ï;'ăĂŇxĊƾ&)4VZ[]ĵChB'&%6XTUN=5SRi'$ÃJ*+B>.TUN=5YXm%&;:oW;¶·Āml#]\\}/%½PǮ#####################################################################ǲ'(5W[Z\\Ĵ@iC&'$7YUTO<4RSh&%ÂK+*C?/UTO<4XYl$':;nV:·¶ālm#\\]|.$¼QǊ+,EûȪ^å©_()$IwX@¨*%ĈĉŒoć10cW;wX@°&)PQ²NĽļǋ°±#Î:&ĂăņyċŶ-0Q­µ´ōºˮtĭÛw()$W±¥¤jN¤¥Ú,%ŞşǄś76{kC¥¤jN°±ä&)`aèª`ƧƦɫæç#¼½ĎD&ŘřƴšĂ/2YÇÍÌſÔͪşû*+&cÉ»º«xT¼½ü.'ƔƕȎƓ;:wK»º«xTÈÉĈ&+jkČÂjǫǪˑĈĉ#ØÙĸH(ƐƑǺ­ƙx/2]Í×ÖƓÞΖůą*+&eÓÃÂ±|VÄÅĆ0'ƨƩȨ§ƥ=<{MÃÂ±|VÒÓĔ&+noĘÊnȃȂ˵Ĕĕ#âãņJ*ƢƣȒµƫa/2YÇÍÌſÔͪşû*+&cÉ»º«xT¼½ü.'ƔƕȎƓ;:wK»º«xTÈÉĈ&+jkČÂjǫǪˑĈĉ#ØÙĸH(ƐƑǺ­ƙí-0Q­µ´ōºˮtĭÛw()$W±¥¤jN¤¥Ú,%ŞşǄś76{kC¥¤jN°±ä&)`aèª`ƧƦɫæç#¼½ĎD&Řřƴšť+,EûȪ^å©_()$IwX@¨*%ĈĉŒoć10cW;wX@°&)PQ²NĽļǋ°±#Î:&Ăăņyċƿ'(5W[Z\\Ĵ@iC&'$7YUTO<4RSh&%ÂK+*C?/UTO<4XYl$':;nV:·¶ālm#\\]|.$¼Qǯ#####################################################################ǳ&)4VZ[]ĵChB'&%6XTUN=5SRi'$ÃJ*+B>.TUN=5YXm%&;:oW;¶·Āml#]\\}/%½Pǋ*-Dúȫ_ä¨^)(%HvYA©+$ĉĈœnĆ01bV:vYA±'(QP³OļĽǊ±°#Ï;'ăĂŇxĊŷ,1P¬´µŌ»˯uĬÚv)(%V°¤¥kO¥¤Û-$şŞǅŚ67zhD¤¥kO±°å'(a`é«aƦƧɪçæ#¿¾ďE'śŚƵŠă.3XÄÎÏƀÕͫŞú+*'bÈº»ªyU½¼ý/&ƗƖȏƒ:;vJº»ªyUÉÈĉ'*kjčÃkǪǫːĉĈ#ÙØĹI)ƑƐǻ¬Ƙm/l.}l3h`aÖXÏÞNÕеĈx®n>hi+h*mh'f\\]ÂT»vV±Z\\]Åd¼ŃhuhehiƩzƖɯFzŌhi<f;Hb:^5\\]ÂT»vV±Z\\]ÓfÈŏhmhahioljştĝ|ÉȂhǫƤĒ^ĉÌ#^#_áfØƁjlunoƣƐɟP~Ŏlì,1P¬´µŌ»˯uĬÚv)(%V°¤¥kO¥¤Û-$şŞǅŚ67zhD¤¥kO±°å'(a`é«aƦƧɪçæ#¿¾ďE'śŚƵŠŤ*-Dúȫaæ¨^)(%HvYA©+$ĉĈœnĆ01bV:vYA±'(QP³OļĽǊ±°#Ï;'ăĂŇxĊƾ&)4VZ[]ĵChB'&%6XTUN=5SRi'$ÃJ*+B>.TUN=5YXm%&;:oW;¶·Āml#]\\}/%½PǮ#####################################################################ǲ'(5W[Z\\Ĵ@iC&'$7YUTO<4RSh&%ÂK+*C?/UTO<4XYl$':;nV:·¶ālm#\\]|.$¼QǊ+,EûȪ^å©_()$IwX@¨*%ĈĉŒoć10cW;wX@°&)PQ²NĽļǋ°±#Î:&ĂăņyċŶ-0Q­µ´ōºˮtĭÛw()$W±¥¤jN¤¥Ú,%ŞşǄś76{kC¥¤jN°±ä&)`aèª`ƧƦɫæç#¼½ĎD&ŘřƴšĂ/2YÇÍÌſÔͪşû*+&cÉ»º«xT¼½ü.'ƔƕȎƓ;:wK»º«xTÈÉĈ&+jkČÂjǫǪˑĈĉ#ØÙĸH(ƐƑǺ­ƙx/2]Í×ÖƓÞΖůą*+&eÓÃÂ±|VÄÅĆ0'ƨƩȨ§ƥ=<{MÃÂ±|VÒÓĔ&+noĘÊnȃȂ˵Ĕĕ#âãņJ*ƢƣȒµƫa/2YÇÍÌſÔͪşû*+&cÉ»º«xT¼½ü.'ƔƕȎƓ;:wK»º«xTÈÉĈ&+jkČÂjǫǪˑĈĉ#ØÙĸH(ƐƑǺ­ƙí-0Q­µ´ōºˮtĭÛw()$W±¥¤jN¤¥Ú,%ŞşǄś76{kC¥¤jN°±ä&)`aèª`ƧƦɫæç#¼½ĎD&Řřƴšť+,EûȪ^å©_()$IwX@¨*%ĈĉŒoć10cW;wX@°&)PQ²NĽļǋ°±#Î:&Ăăņyċƿ'(5W[Z\\Ĵ@iC&'$7YUTO<4RSh&%ÂK+*C?/UTO<4XYl$':;nV:·¶ālm#\\]|.$¼Qǯ#####################################################################ǳ&)4VZ[]ĵChB'&%6XTUN=5SRi'$ÃJ*+B>.TUN=5YXm%&;:oW;¶·Āml#]\\}/%½Pǋ*-Dúȫ_ä¨^)(%HvYA©+$ĉĈœnĆ01bV:vYA±'(QP³OļĽǊ±°#Ï;'ăĂŇxĊŷ,1P¬´µŌ»˯uĬÚv)(%V°¤¥kO¥¤Û-$şŞǅŚ67zhD¤¥kO±°å'(a`é«aƦƧɪçæ#¿¾ďE'śŚƵŠă.3XÄÎÏƀÕͫŞú+*'bÈº»ªyU½¼ý/&ƗƖȏƒ:;vJº»ªyUÉÈĉ'*kjčÃkǪǫːĉĈ#ÙØĹI)ƑƐǻ¬Ƙᢕ㼔㼕㼔##㼕䄯䄮䄯䄮䄯䄮#䄭䄬##㼔耟䄬䄭耞罡罠#罡罠#####罡#######罠#í緋緊#緋緊#緋##緊緋哄####ᤔ#ᤕ#ᤔ#ᤕ#ᤔ#ᤕ#ᤔ#ᤕᤔ###潃糘#糙##糘#######糙#######糘#⚫####ᤔ#ᤕ#ᤔ#ᤕ#ᤔ#ᤕ#ᤔ#ᤕᤔ###ᤕ####ᤔ#ᤕ#ᤔ#ᤕ#ᤔ#ᤕ#ᤔ#ᤕᤔ###潃糘#糙##糘#######糙#######糘#⚫####ᤔ#ᤕ#ᤔ#ᤕ#ᤔ#ᤕ#ᤔ#ᤕᤔ###潃糘#糙##糘#######糙#######糘#糙糘#糙##糘#######糙#######糘#ᆱ#Ÿ#Ę#¦##ݪ#ݫݪƄ#ƅ甉ź#Ż̂#İ###Z#[Ú#¨#r##Ĵ#ĵȖ#¼#Z##b#cî#®#`##ƶ#ƷՒ#θ#ƨ##Ĝ#ĝƔ#F#$##Ķ#ķȘ#º#X##t#uú#¢#Z##L#MÖ#Ę#Ɩ##㲢#㲣㲢`#a`ϰ#ϱϰ#ž#ú###Ʈ#ƯԶ#Φ#Ƣ#ŸĘ¦ݪݫ࣌ƅ玱Ż̂İZ[Ú¨rĴĵȖ¼Zbcî®`ƶƷՒθƨĜĝƔF$ĶķȘºXtuú¢ZLMÖĘƖ㲢㲣㳠aЮϱѪžúƮƯԶΦƢŸĘ¦ݪݫ࣌ƅ玱Ż̂İZ[Ú¨rĴĵȖ¼Zbcî®`ƶƷՒθƨĜĝƔF$ĶķȘºXtuú¢ZLMÖĘƖ㲢㲣㳠aЮϱѪžúƮƯԶΦƢŸĘ¦ݪݫ࣌ƅ玱Ż̂İZ[Ú¨rĴĵȖ¼Zbcî®`ƶƷՒθƨĜĝƔF$ĶķȘºXtuú¢ZLMÖĘƖ㲢㲣㳠aЮϱѪžúƮƯԶΦƢŸĘ¦ݪݫ࣌ƅ玱Ż̂İZ[Ú¨rĴĵȖ¼Zbcî®`ƶƷՒθƨĜĝƔF$ĶķȘºXtuú¢ZLMÖĘƖ㲢㲣㳠aЮϱѪžúƮƯԶΦƢŸĘ¦ݪݫ࣌ƅ玱Ż̂İZ[Ú¨rĴĵȖ¼Zbcî®`ƶƷՒθƨĜĝƔF$ĶķȘºXtuú¢ZLMÖĘƖ㲢㲣㳠aЮϱѪžúƮƯԶΦƢŸĘ¦ݪݫ࣌ƅ玱Ż̂İZ[Ú¨rĴĵȖ¼Zbcî®`ƶƷՒθƨĜĝƔF$ĶķȘºXtuú¢ZLMÖĘƖ㲢㲣㳠aЮϱѪžúƮƯԶΦƢŸĘ¦ݪݫ࣌ƅ玱Ż̂İZ[Ú¨rĴĵȖ¼Zbcî®`ƶƷՒθƨĜĝƔF$ĶķȘºXtuú¢ZLMÖĘƖ㲢㲣㳠aЮϱѪžúƮƯԶΦƢŸĘ¦ݪݫ࣌ƅ玱Ż̂İZ[Ú¨rĴĵȖ¼Zbcî®`ƶƷՒθƨĜĝƔF$ĶķȘºXtuú¢ZLMÖĘƖ㲢㲣㳠aЮϱѪžúƮƯԶΦƢŸĘ¦ݪݫ࣌ƅ玱Ż̂İZ[Ú¨rĴĵȖ¼Zbcî®`ƶƷՒθƨĜĝƔF$ĶķȘºXtuú¢ZLMÖĘƖ㲢㲣㳠aЮϱѪžúƮƯԶΦƢŸĘ¦ݪݫ࣌ƅ玱Ż̂İZ[Ú¨rĴĵȖ¼Zbcî®`ƶƷՒθƨĜĝƔF$ĶķȘºXtuú¢ZLMÖĘƖ㲢㲣㳠aЮϱѪžúƮƯԶΦƢŸĘ¦ݪݫ࣌ƅ玱Ż̂İZ[Ú¨rĴĵȖ¼Zbcî®`ƶƷՒθƨĜĝƔF$ĶķȘºXtuú¢ZLMÖĘƖ㲢㲣㳠aЮϱѪžúƮƯԶΦƢŸĘ¦ݪݫ࣌ƅ玱Ż̂İZ[Ú¨rĴĵȖ¼Zbcî®`ƶƷՒθƨĜĝƔF$ĶķȘºXtuú¢ZLMÖĘƖ㲢㲣㳠aЮϱѪžúƮƯԶΦƢŸĘ¦ݪݫ࣌ƅ玱Ż̂İZ[Ú¨rĴĵȖ¼Zbcî®`ƶƷՒθƨĜĝƔF$ĶķȘºXtuú¢ZLMÖĘƖ㲢㲣㳠aЮϱѪžúƮƯԶΦƢŸĘ¦ݪݫ࣌ƅ玱Ż̂İZ[Ú¨rĴĵȖ¼Zbcî®`ƶƷՒθƨĜĝƔF$ĶķȘºXtuú¢ZLMÖĘƖ㲢㲣㳠aЮϱѪžúƮƯԶΦƢŸĘ¦ݪݫ࣌ƅ玱Ż̂İZ[Ú¨rĴĵȖ¼Zbcî®`ƶƷՒθƨĜĝƔF$ĶķȘºXtuú¢ZLMÖĘƖ㲢㲣㳠aЮϱѪžúƮƯԶΦƢŸĘ¦ݪݫ࣌ƅ玱Ż̂İZ[Ú¨rĴĵȖ¼Zbcî®`ƶƷՒθƨĜĝƔF$ĶķȘºXtuú¢ZLMÖĘƖ㲢㲣㳠aЮϱѪžúƮƯԶΦƢŸĘ¦ݪݫ࣌ƅ玱Ż̂İZ[Ú¨rĴĵȖ¼Zbcî®`ƶƷՒθƨĜĝƔF$ĶķȘºXtuú¢ZLMÖĘƖ㲢㲣㳠aЮϱѪžúƮƯԶΦƢŸĘ¦ݪݫ࣌ƅ玱Ż̂İZ[Ú¨rĴĵȖ¼Zbcî®`ƶƷՒθƨĜĝƔF$ĶķȘºXtuú¢ZLMÖĘƖ㲢㲣㳠aЮϱѪžúƮƯԶΦƢ##Ÿ#Ę#¦##ݪ#ݫݪƄ#ƅ甉ź#Ż̂#İ###Z#[Ú#¨#r##Ĵ#ĵȖ#¼#Z##b#cî#®#`##ƶ#ƷՒ#θ#ƨ##Ĝ#ĝƔ#F#$##Ķ#ķȘ#º#X##t#uú#¢#Z##L#MÖ#Ę#Ɩ##㲢#㲣㲢`#a`ϰ#ϱϰ#ž#ú###Ʈ#ƯԶ#Φ#Ƣ#ŸĘ¦ݪݫ࣌ƅ玱Ż̂İZ[Ú¨rĴĵȖ¼Zbcî®`ƶƷՒθƨĜĝƔF$ĶķȘºXtuú¢ZLMÖĘƖ㲢㲣㳠aЮϱѪžúƮƯԶΦƢŸĘ¦ݪݫ࣌ƅ玱Ż̂İZ[Ú¨rĴĵȖ¼Zbcî®`ƶƷՒθƨĜĝƔF$ĶķȘºXtuú¢ZLMÖĘƖ㲢㲣㳠aЮϱѪžúƮƯԶΦƢŸĘ¦ݪݫ࣌ƅ玱Ż̂İZ[Ú¨rĴĵȖ¼Zbcî®`ƶƷՒθƨĜĝƔF$ĶķȘºXtuú¢ZLMÖĘƖ㲢㲣㳠aЮϱѪžúƮƯԶΦƢŸĘ¦ݪݫ࣌ƅ玱Ż̂İZ[Ú¨rĴĵȖ¼Zbcî®`ƶƷՒθƨĜĝƔF$ĶķȘºXtuú¢ZLMÖĘƖ㲢㲣㳠aЮϱѪžúƮƯԶΦƢŸĘ¦ݪݫ࣌ƅ玱Ż̂İZ[Ú¨rĴĵȖ¼Zbcî®`ƶƷՒθƨĜĝƔF$ĶķȘºXtuú¢ZLMÖĘƖ㲢㲣㳠aЮϱѪžúƮƯԶΦƢŸĘ¦ݪݫ࣌ƅ玱Ż̂İZ[Ú¨rĴĵȖ¼Zbcî®`ƶƷՒθƨĜĝƔF$ĶķȘºXtuú¢ZLMÖĘƖ㲢㲣㳠aЮϱѪžúƮƯԶΦƢŸĘ¦ݪݫ࣌ƅ玱Ż̂İZ[Ú¨rĴĵȖ¼Zbcî®`ƶƷՒθƨĜĝƔF$ĶķȘºXtuú¢ZLMÖĘƖ㲢㲣㳠aЮϱѪžúƮƯԶΦƢŸĘ¦ݪݫ࣌ƅ玱Ż̂İZ[Ú¨rĴĵȖ¼Zbcî®`ƶƷՒθƨĜĝƔF$ĶķȘºXtuú¢ZLMÖĘƖ㲢㲣㳠aЮϱѪžúƮƯԶΦƢŸĘ¦ݪݫ࣌ƅ玱Ż̂İZ[Ú¨rĴĵȖ¼Zbcî®`ƶƷՒθƨĜĝƔF$ĶķȘºXtuú¢ZLMÖĘƖ㲢㲣㳠aЮϱѪžúƮƯԶΦƢŸĘ¦ݪݫ࣌ƅ玱Ż̂İZ[Ú¨rĴĵȖ¼Zbcî®`ƶƷՒθƨĜĝƔF$ĶķȘºXtuú¢ZLMÖĘƖ㲢㲣㳠aЮϱѪžúƮƯԶΦƢŸĘ¦ݪݫ࣌ƅ玱Ż̂İZ[Ú¨rĴĵȖ¼Zbcî®`ƶƷՒθƨĜĝƔF$ĶķȘºXtuú¢ZLMÖĘƖ㲢㲣㳠aЮϱѪžúƮƯԶΦƢŸĘ¦ݪݫ࣌ƅ玱Ż̂İZ[Ú¨rĴĵȖ¼Zbcî®`ƶƷՒθƨĜĝƔF$ĶķȘºXtuú¢ZLMÖĘƖ㲢㲣㳠aЮϱѪžúƮƯԶΦƢŸĘ¦ݪݫ࣌ƅ玱Ż̂İZ[Ú¨rĴĵȖ¼Zbcî®`ƶƷՒθƨĜĝƔF$ĶķȘºXtuú¢ZLMÖĘƖ㲢㲣㳠aЮϱѪžúƮƯԶΦƢŸĘ¦ݪݫ࣌ƅ玱Ż̂İZ[Ú¨rĴĵȖ¼Zbcî®`ƶƷՒθƨĜĝƔF$ĶķȘºXtuú¢ZLMÖĘƖ㲢㲣㳠aЮϱѪžúƮƯԶΦƢŸĘ¦ݪݫ࣌ƅ玱Ż̂İZ[Ú¨rĴĵȖ¼Zbcî®`ƶƷՒθƨĜĝƔF$ĶķȘºXtuú¢ZLMÖĘƖ㲢㲣㳠aЮϱѪžúƮƯԶΦƢŸĘ¦ݪݫ࣌ƅ玱Ż̂İZ[Ú¨rĴĵȖ¼Zbcî®`ƶƷՒθƨĜĝƔF$ĶķȘºXtuú¢ZLMÖĘƖ㲢㲣㳠aЮϱѪžúƮƯԶΦƢŸĘ¦ݪݫ࣌ƅ玱Ż̂İZ[Ú¨rĴĵȖ¼Zbcî®`ƶƷՒθƨĜĝƔF$ĶķȘºXtuú¢ZLMÖĘƖ㲢㲣㳠aЮϱѪžúƮƯԶΦƢŸĘ¦ݪݫ࣌ƅ玱Ż̂İZ[Ú¨rĴĵȖ¼Zbcî®`ƶƷՒθƨĜĝƔF$ĶķȘºXtuú¢ZLMÖĘƖ㲢㲣㳠aЮϱѪžúƮƯԶΦƢ##Ÿ#Ę#¦##ݪ#ݫݪƄ#ƅ甉ź#Ż̂#İ###Z#[Ú#¨#r##Ĵ#ĵȖ#¼#Z##b#cî#®#`##ƶ#ƷՒ#θ#ƨ##Ĝ#ĝƔ#F#$##Ķ#ķȘ#º#X##t#uú#¢#Z##L#MÖ#Ę#Ɩ##㲢#㲣㲢`#a`ϰ#ϱϰ#ž#ú###Ʈ#ƯԶ#Φ#Ƣ#ŸĘ¦ݪݫ࣌ƅ玱Ż̂İZ[Ú¨rĴĵȖ¼Zbcî®`ƶƷՒθƨĜĝƔF$ĶķȘºXtuú¢ZLMÖĘƖ㲢㲣㳠aЮϱѪžúƮƯԶΦƢŸĘ¦ݪݫ࣌ƅ玱Ż̂İZ[Ú¨rĴĵȖ¼Zbcî®`ƶƷՒθƨĜĝƔF$ĶķȘºXtuú¢ZLMÖĘƖ㲢㲣㳠aЮϱѪžúƮƯԶΦƢŸĘ¦ݪݫ࣌ƅ玱Ż̂İZ[Ú¨rĴĵȖ¼Zbcî®`ƶƷՒθƨĜĝƔF$ĶķȘºXtuú¢ZLMÖĘƖ㲢㲣㳠aЮϱѪžúƮƯԶΦƢŸĘ¦ݪݫ࣌ƅ玱Ż̂İZ[Ú¨rĴĵȖ¼Zbcî®`ƶƷՒθƨĜĝƔF$ĶķȘºXtuú¢ZLMÖĘƖ㲢㲣㳠aЮϱѪžúƮƯԶΦƢŸĘ¦ݪݫ࣌ƅ玱Ż̂İZ[Ú¨rĴĵȖ¼Zbcî®`ƶƷՒθƨĜĝƔF$ĶķȘºXtuú¢ZLMÖĘƖ㲢㲣㳠aЮϱѪžúƮƯԶΦƢŸĘ¦ݪݫ࣌ƅ玱Ż̂İZ[Ú¨rĴĵȖ¼Zbcî®`ƶƷՒθƨĜĝƔF$ĶķȘºXtuú¢ZLMÖĘƖ㲢㲣㳠aЮϱѪžúƮƯԶΦƢŸĘ¦ݪݫ࣌ƅ玱Ż̂İZ[Ú¨rĴĵȖ¼Zbcî®`ƶƷՒθƨĜĝƔF$ĶķȘºXtuú¢ZLMÖĘƖ㲢㲣㳠aЮϱѪžúƮƯԶΦƢŸĘ¦ݪݫ࣌ƅ玱Ż̂İZ[Ú¨rĴĵȖ¼Zbcî®`ƶƷՒθƨĜĝƔF$ĶķȘºXtuú¢ZLMÖĘƖ㲢㲣㳠aЮϱѪžúƮƯԶΦƢŸĘ¦ݪݫ࣌ƅ玱Ż̂İZ[Ú¨rĴĵȖ¼Zbcî®`ƶƷՒθƨĜĝƔF$ĶķȘºXtuú¢ZLMÖĘƖ㲢㲣㳠aЮϱѪžúƮƯԶΦƢŸĘ¦ݪݫ࣌ƅ玱Ż̂İZ[Ú¨rĴĵȖ¼Zbcî®`ƶƷՒθƨĜĝƔF$ĶķȘºXtuú¢ZLMÖĘƖ㲢㲣㳠aЮϱѪžúƮƯԶΦƢŸĘ¦ݪݫ࣌ƅ玱Ż̂İZ[Ú¨rĴĵȖ¼Zbcî®`ƶƷՒθƨĜĝƔF$ĶķȘºXtuú¢ZLMÖĘƖ㲢㲣㳠aЮϱѪžúƮƯԶΦƢŸĘ¦ݪݫ࣌ƅ玱Ż̂İZ[Ú¨rĴĵȖ¼Zbcî®`ƶƷՒθƨĜĝƔF$ĶķȘºXtuú¢ZLMÖĘƖ㲢㲣㳠aЮϱѪžúƮƯԶΦƢŸĘ¦ݪݫ࣌ƅ玱Ż̂İZ[Ú¨rĴĵȖ¼Zbcî®`ƶƷՒθƨĜĝƔF$ĶķȘºXtuú¢ZLMÖĘƖ㲢㲣㳠aЮϱѪžúƮƯԶΦƢŸĘ¦ݪݫ࣌ƅ玱Ż̂İZ[Ú¨rĴĵȖ¼Zbcî®`ƶƷՒθƨĜĝƔF$ĶķȘºXtuú¢ZLMÖĘƖ㲢㲣㳠aЮϱѪžúƮƯԶΦƢŸĘ¦ݪݫ࣌ƅ玱Ż̂İZ[Ú¨rĴĵȖ¼Zbcî®`ƶƷՒθƨĜĝƔF$ĶķȘºXtuú¢ZLMÖĘƖ㲢㲣㳠aЮϱѪžúƮƯԶΦƢŸĘ¦ݪݫ࣌ƅ玱Ż̂İZ[Ú¨rĴĵȖ¼Zbcî®`ƶƷՒθƨĜĝƔF$ĶķȘºXtuú¢ZLMÖĘƖ㲢㲣㳠aЮϱѪžúƮƯԶΦƢŸĘ¦ݪݫ࣌ƅ玱Ż̂İZ[Ú¨rĴĵȖ¼Zbcî®`ƶƷՒθƨĜĝƔF$ĶķȘºXtuú¢ZLMÖĘƖ㲢㲣㳠aЮϱѪžúƮƯԶΦƢŸĘ¦ݪݫ࣌ƅ玱Ż̂İZ[Ú¨rĴĵȖ¼Zbcî®`ƶƷՒθƨĜĝƔF$ĶķȘºXtuú¢ZLMÖĘƖ㲢㲣㳠aЮϱѪžúƮƯԶΦƢ##Ÿ#Ę#¦##ݪ#ݫݪƄ#ƅ甉ź#Ż̂#İ###Z#[Ú#¨#r##Ĵ#ĵȖ#¼#Z##b#cî#®#`##ƶ#ƷՒ#θ#ƨ##Ĝ#ĝƔ#F#$##Ķ#ķȘ#º#X##t#uú#¢#Z##L#MÖ#Ę#Ɩ##㲢#㲣㲢`#a`ϰ#ϱϰ#ž#ú###Ʈ#ƯԶ#Φ#Ƣ#ŸĘ¦ݪݫ࣌ƅ玱Ż̂İZ[Ú¨rĴĵȖ¼Zbcî®`ƶƷՒθƨĜĝƔF$ĶķȘºXtuú¢ZLMÖĘƖ㲢㲣㳠aЮϱѪžúƮƯԶΦƢŸĘ¦ݪݫ࣌ƅ玱Ż̂İZ[Ú¨rĴĵȖ¼Zbcî®`ƶƷՒθƨĜĝƔF$ĶķȘºXtuú¢ZLMÖĘƖ㲢㲣㳠aЮϱѪžúƮƯԶΦƢŸĘ¦ݪݫ࣌ƅ玱Ż̂İZ[Ú¨rĴĵȖ¼Zbcî®`ƶƷՒθƨĜĝƔF$ĶķȘºXtuú¢ZLMÖĘƖ㲢㲣㳠aЮϱѪžúƮƯԶΦƢŸĘ¦ݪݫ࣌ƅ玱Ż̂İZ[Ú¨rĴĵȖ¼Zbcî®`ƶƷՒθƨĜĝƔF$ĶķȘºXtuú¢ZLMÖĘƖ㲢㲣㳠aЮϱѪžúƮƯԶΦƢŸĘ¦ݪݫ࣌ƅ玱Ż̂İZ[Ú¨rĴĵȖ¼Zbcî®`ƶƷՒθƨĜĝƔF$ĶķȘºXtuú¢ZLMÖĘƖ㲢㲣㳠aЮϱѪžúƮƯԶΦƢŸĘ¦ݪݫ࣌ƅ玱Ż̂İZ[Ú¨rĴĵȖ¼Zbcî®`ƶƷՒθƨĜĝƔF$ĶķȘºXtuú¢ZLMÖĘƖ㲢㲣㳠aЮϱѪžúƮƯԶΦƢŸĘ¦ݪݫ࣌ƅ玱Ż̂İZ[Ú¨rĴĵȖ¼Zbcî®`ƶƷՒθƨĜĝƔF$ĶķȘºXtuú¢ZLMÖĘƖ㲢㲣㳠aЮϱѪžúƮƯԶΦƢŸĘ¦ݪݫ࣌ƅ玱Ż̂İZ[Ú¨rĴĵȖ¼Zbcî®`ƶƷՒθƨĜĝƔF$ĶķȘºXtuú¢ZLMÖĘƖ㲢㲣㳠aЮϱѪžúƮƯԶΦƢŸĘ¦ݪݫ࣌ƅ玱Ż̂İZ[Ú¨rĴĵȖ¼Zbcî®`ƶƷՒθƨĜĝƔF$ĶķȘºXtuú¢ZLMÖĘƖ㲢㲣㳠aЮϱѪžúƮƯԶΦƢŸĘ¦ݪݫ࣌ƅ玱Ż̂İZ[Ú¨rĴĵȖ¼Zbcî®`ƶƷՒθƨĜĝƔF$ĶķȘºXtuú¢ZLMÖĘƖ㲢㲣㳠aЮϱѪžúƮƯԶΦƢŸĘ¦ݪݫ࣌ƅ玱Ż̂İZ[Ú¨rĴĵȖ¼Zbcî®`ƶƷՒθƨĜĝƔF$ĶķȘºXtuú¢ZLMÖĘƖ㲢㲣㳠aЮϱѪžúƮƯԶΦƢŸĘ¦ݪݫ࣌ƅ玱Ż̂İZ[Ú¨rĴĵȖ¼Zbcî®`ƶƷՒθƨĜĝƔF$ĶķȘºXtuú¢ZLMÖĘƖ㲢㲣㳠aЮϱѪžúƮƯԶΦƢŸĘ¦ݪݫ࣌ƅ玱Ż̂İZ[Ú¨rĴĵȖ¼Zbcî®`ƶƷՒθƨĜĝƔF$ĶķȘºXtuú¢ZLMÖĘƖ㲢㲣㳠aЮϱѪžúƮƯԶΦƢŸĘ¦ݪݫ࣌ƅ玱Ż̂İZ[Ú¨rĴĵȖ¼Zbcî®`ƶƷՒθƨĜĝƔF$ĶķȘºXtuú¢ZLMÖĘƖ㲢㲣㳠aЮϱѪžúƮƯԶΦƢŸĘ¦ݪݫ࣌ƅ玱Ż̂İZ[Ú¨rĴĵȖ¼Zbcî®`ƶƷՒθƨĜĝƔF$ĶķȘºXtuú¢ZLMÖĘƖ㲢㲣㳠aЮϱѪžúƮƯԶΦƢŸĘ¦ݪݫ࣌ƅ玱Ż̂İZ[Ú¨rĴĵȖ¼Zbcî®`ƶƷՒθƨĜĝƔF$ĶķȘºXtuú¢ZLMÖĘƖ㲢㲣㳠aЮϱѪžúƮƯԶΦƢŸĘ¦ݪݫ࣌ƅ玱Ż̂İZ[Ú¨rĴĵȖ¼Zbcî®`ƶƷՒθƨĜĝƔF$ĶķȘºXtuú¢ZLMÖĘƖ㲢㲣㳠aЮϱѪžúƮƯԶΦƢŸĘ¦ݪݫ࣌ƅ玱Ż̂İZ[Ú¨rĴĵȖ¼Zbcî®`ƶƷՒθƨĜĝƔF$ĶķȘºXtuú¢ZLMÖĘƖ㲢㲣㳠aЮϱѪžúƮƯԶΦƢ⬵䀊䀋㽹罠#䀋䀊䀋䀊䀋䀊䀋#㽹㽸##㽹#㽸㽹#"
}
],
"vertexCount":5847,
"vertexOffsets":{
"xOffset":-4119.466193691268,
"yOffset":-3035.9232652078767,
"zOffset":345.74865212424049
},
"vertexScale":0.011449145461616081,
"vertices":"#䀡#䀠䀡####㽚######䀡#㽔㽕#㽔㽕#㽔##㽕㽔ȣϷ#϶##Ϸ#######϶#######Ϸ##㌥#㌤##㌥#######㌤#######㌥##Ϸ#϶##Ϸ#######϶#######Ϸ#㫌Ϸ#϶##Ϸ#######϶#######Ϸ##㌥#㌤##㌥#######㌤#######㌥##Ϸ#϶##Ϸ#######϶#######Ϸ#㡾####î#ï#î#ï#î#ï#î#ïî###㟉####î#ï#î#ï#î#ï#î#ïî###㕎'2&72'2801J.I<J,Ić889T4B2(23%2$30#0:./F,E6,A.;./G2Ba250123y6t¥8*4d23(0'*0&0'./F,E6,A.;./I0Fc032123322i4Y6I892vV0UF#0#1M2Jq2;2523w6r8,6d2N$%,@BCbCÁ5^J4%$%.B>?<3-?>K'$ih:f&'42*>?<3-CBO#$10OA1xy¢ML#EDW)%gf{<hh$%*889P;/L@.###*:674/)98A%#UTe4R&'0.(674/);:C##-,A9-`a~A@#;:I'%SRc6T|$%&../:/_)80*###&.,-,)'-,3##=<G,<$%*($,-,)'/.3##)(3/)DET32#107%%=<E,>#######################################################################'-10=.^*93+$%$)/-,+($./2$%>?F+?##))'-,+($./4#%()4,(CBS23#./6$#<=D-=~%$)9;:S:0O?1$%#+9985,*67>$#TUd3U'&1/'985,*89@$%,-B8,a`BC#:;H(#TUb5Wn'&-ACBeD¾4]K5###/AA@=2,>?J$#fg|9g)(73)A@=2,@AL##./L@0yx£LM#DEV*#fgz=iT%$/EIHqJÚ8iQ9$%#1GEDA4.DER$#rs?s)(97+EDA4.FGT$%23TF2¹TU#JK^*$rsAu4%$/IIHsLä8kU;$%$1KEDA6,FGT&%xy?y'&97-EDA6,JKX#%45XH2ÁVW#LMb*$vwCy1%$/EIHqJÚ8iQ9$%#1GEDA4.DER$#rs?s)(97+EDA4.FGT$%23TF2¹TU#JK^*$rsAuO'&-ACBeD¾4]K5###/AA@=2,>?J$#fg|9g)(73)A@=2,@AL##./L@0yx£LM#DEV*#fgz=ii%$)9;:S:0O?1$%#+9985,*67>$#TUd3U'&1/'985,*89@$%,-B8,a`BC#:;H(#TUb5W}##'-10=.^*93+$%$)/-,+($./2$%>?F+?##))'-,+($./4#%()4,(CBS23#./6$#<=D-=#####################################################################$%&../:/_)80*###&.,-,)'-,3##=<G,<$%*($,-,)'/.3##)(3/)DET32#107%%=<E,>$%*889P;/L@.###*:674/)98A%#UTe4R&'0.(674/);:C##-,A9-`a~A@#;:I'%SRc6Tm$%,@BCbCÁ5^J4%$%.B>?<3-?>K'$ih:f&'42*>?<3-CBO#$10OA1xy¢ML#EDW)%gf{<hU&'.FHInIÛ9fR8%$%0FDE@5/CBQ'$ut<t&'84*DE@5/GFU#$32WE3¸UT#KJa+%sr@t3'2&72'2801J.I<J,Ić889T4B2(23%2$30#0:./F,E6,A.;./G2Ba250123y6t¥8*4d23(0'*0&0'./F,E6,A.;./I0Fc032123322i4Y6I892vV0UF#0#1M2Jq2;2523w6r8,6d2N$%,@BCbCÁ5^J4%$%.B>?<3-?>K'$ih:f&'42*>?<3-CBO#$10OA1xy¢ML#EDW)%gf{<hh$%*889P;/L@.###*:674/)98A%#UTe4R&'0.(674/);:C##-,A9-`a~A@#;:I'%SRc6T|$%&../:/_)80*###&.,-,)'-,3##=<G,<$%*($,-,)'/.3##)(3/)DET32#107%%=<E,>#######################################################################'-10=.^*93+$%$)/-,+($./2$%>?F+?##))'-,+($./4#%()4,(CBS23#./6$#<=D-=~%$)9;:S:0O?1$%#+9985,*67>$#TUd3U'&1/'985,*89@$%,-B8,a`BC#:;H(#TUb5Wn'&-ACBeD¾4]K5###/AA@=2,>?J$#fg|9g)(73)A@=2,@AL##./L@0yx£LM#DEV*#fgz=iT%$/EIHqJÚ8iQ9$%#1GEDA4.DER$#rs?s)(97+EDA4.FGT$%23TF2¹TU#JK^*$rsAu4%$/IIHsLä8kU;$%$1KEDA6,FGT&%xy?y'&97-EDA6,JKX#%45XH2ÁVW#LMb*$vwCy1%$/EIHqJÚ8iQ9$%#1GEDA4.DER$#rs?s)(97+EDA4.FGT$%23TF2¹TU#JK^*$rsAuO'&-ACBeD¾4]K5###/AA@=2,>?J$#fg|9g)(73)A@=2,@AL##./L@0yx£LM#DEV*#fgz=ii%$)9;:S:0O?1$%#+9985,*67>$#TUd3U'&1/'985,*89@$%,-B8,a`BC#:;H(#TUb5W}##'-10=.^*93+$%$)/-,+($./2$%>?F+?##))'-,+($./4#%()4,(CBS23#./6$#<=D-=#####################################################################$%&../:/_)80*###&.,-,)'-,3##=<G,<$%*($,-,)'/.3##)(3/)DET32#107%%=<E,>$%*889P;/L@.###*:674/)98A%#UTe4R&'0.(674/);:C##-,A9-`a~A@#;:I'%SRc6Tm$%,@BCbCÁ5^J4%$%.B>?<3-?>K'$ih:f&'42*>?<3-CBO#$10OA1xy¢ML#EDW)%gf{<hU&'.FHInIÛ9fR8%$%0FDE@5/CBQ'$ut<t&'84*DE@5/GFU#$32WE3¸UT#KJa+%sr@t㜋%2$74'2601J.I<L,Kć889T6@2(23#0$32%2801F.E4.C.;01E0Dc252323w4t£6*6b23(2)*0(0)01F.E4.C.;01I2Fe230123322g4[6G672vX.UH#.#/M0Jo2=4523w6r¡8,6d2N$%,@BCdE¿5\\J4###.@@A<3-?>K%#gf:f()62(@A<3-A@M##/.MA1vw¢ON#EDW+#gf{<fj$%(8:;R;1N>0%$#*8674-+76A##UTe2T$%0,(674-+98A%$-,C9-`aCB#=<I)#UTc4V|##&,./<1]+82(###(,./,)'-,1%#=<E*<$%*($./,)'-,3##'&3/'BCR32#/.7%#=<E,<#####################################################################%$'//.;.^(93)###'//.-(&,-2##<=D+=%$+)%/.-(&./2##()2.(EDU23#016$$<=B-=%$+9;:S:0MA1$%$-9765.(89@$%VWf5U%$//)765.(89B#%,-B8,a`@A#:;F(#TUb5Ul%$-ACBcBÀ4_K5$%#-C?>=2,>?J$#hi~;g'&71+?>=2,BCL$%01N@0yx£LM#BCT*$fgz=iR%&/GIHoHÚ8gS9$%$1GEDA4.BCP&%tu=u'&95+EDA4.FGT#%23VD2¹TU#JK`*#rsAu4%&/IKJsJä8kU9$%#1IGFC6.DET$#xyAw)(;7+GFC6.HIV$%23XF4ÁVW#JKb*$vwCy1%&/GIHoHÚ8gS9$%$1GEDA4.BCP&%tu=u'&95+EDA4.FGT#%23VD2¹TU#JK`*#rsAuO%$-ACBcBÀ4_K5$%#-C?>=2,>?J$#hi~;g'&71+?>=2,BCL$%01N@0yx£LM#BCT*$fgz=ii%$+9;:S:0MA1$%$-9765.(89@$%VWf5U%$//)765.(89B#%,-B8,a`@A#:;F(#TUb5U}%$'//.;.^(93)###'//.-(&,-2##<=D+=%$+)%/.-(&./2##()2.(EDU23#016$$<=B-=#######################################################################&,./<1]+82(###(,./,)'-,1%#=<E*<$%*($./,)'-,3##'&3/'BCR32#/.7%#=<E,<$%(8:;R;1N>0%$#*8674-+76A##UTe2T$%0,(674-+98A%$-,C9-`aCB#=<I)#UTc4Vo$%,@BCdE¿5\\J4###.@@A<3-?>K%#gf:f()62(@A<3-A@M##/.MA1vw¢ON#EDW+#gf{<fS$%.DHIpKÛ9hP8%$#0FDE@7-EDS%#ut>r()86*DE@7-GFU%$32UG3¸UT#KJ_+%sr@t3%2$74'2601J.I<L,Kć889T6@2(23#0$32%2801F.E4.C.;01E0Dc252323w4t£6*6b23(2)*0(0)01F.E4.C.;01I2Fe230123322g4[6G672vX.UH#.#/M0Jo2=4523w6r¡8,6d2N$%,@BCdE¿5\\J4###.@@A<3-?>K%#gf:f()62(@A<3-A@M##/.MA1vw¢ON#EDW+#gf{<fj$%(8:;R;1N>0%$#*8674-+76A##UTe2T$%0,(674-+98A%$-,C9-`aCB#=<I)#UTc4V|##&,./<1]+82(###(,./,)'-,1%#=<E*<$%*($./,)'-,3##'&3/'BCR32#/.7%#=<E,<#####################################################################%$'//.;.^(93)###'//.-(&,-2##<=D+=%$+)%/.-(&./2##()2.(EDU23#016$$<=B-=%$+9;:S:0MA1$%$-9765.(89@$%VWf5U%$//)765.(89B#%,-B8,a`@A#:;F(#TUb5Ul%$-ACBcBÀ4_K5$%#-C?>=2,>?J$#hi~;g'&71+?>=2,BCL$%01N@0yx£LM#BCT*$fgz=iR%&/GIHoHÚ8gS9$%$1GEDA4.BCP&%tu=u'&95+EDA4.FGT#%23VD2¹TU#JK`*#rsAu4%&/IKJsJä8kU9$%#1IGFC6.DET$#xyAw)(;7+GFC6.HIV$%23XF4ÁVW#JKb*$vwCy1%&/GIHoHÚ8gS9$%$1GEDA4.BCP&%tu=u'&95+EDA4.FGT#%23VD2¹TU#JK`*#rsAuO%$-ACBcBÀ4_K5$%#-C?>=2,>?J$#hi~;g'&71+?>=2,BCL$%01N@0yx£LM#BCT*$fgz=ii%$+9;:S:0MA1$%$-9765.(89@$%VWf5U%$//)765.(89B#%,-B8,a`@A#:;F(#TUb5U}%$'//.;.^(93)###'//.-(&,-2##<=D+=%$+)%/.-(&./2##()2.(EDU23#016$$<=B-=#######################################################################&,./<1]+82(###(,./,)'-,1%#=<E*<$%*($./,)'-,3##'&3/'BCR32#/.7%#=<E,<$%(8:;R;1N>0%$#*8674-+76A##UTe2T$%0,(674-+98A%$-,C9-`aCB#=<I)#UTc4Vo$%,@BCdE¿5\\J4###.@@A<3-?>K%#gf:f()62(@A<3-A@M##/.MA1vw¢ON#EDW+#gf{<fS$%.DHIpKÛ9hP8%$#0FDE@7-EDS%#ut>r()86*DE@7-GFU%$32UG3¸UT#KJ_+%sr@tσ㾼㽛#㾾㾿䀠#####⽿#⽾⺻#⺺⽿#⽾⽿###⻸#⹳⹲⹳#⹲#⹳⹲⹳#⯐#֭#֬#####֭#######֬##֭#֬Ƚ####ı#İ#ı#İ#ı#İ#ı#İı###͊#֭#֬#####֭#######֬##֭#֬⍥#֯#֮#####֯#######֮##֯#֮ȿ####į#Į#į#Į#į#Į#į#Įį###͊#֯#֮#####֯#######֮##֯#֮ᷚᷛ#ᷚ##ᷛ#######ᷚ#######ᷛ#ᷚᷛ#ᷚ##ᷛ#######ᷚ#######ᷛ#˩#©#¨«ª¥¤#3#u3#Õ+ÜÁÀ«ª£¢#£#¢£¢#1#0¡ £¢£¢#ÅD¢ÑÐÅÄ£¢#¡%¢#1#2£¢£¢£¢#©(¢¹¸ÇÆÏÎ#£OÎ#7¢###2©¨«ª­¬#ÏD¬ÙØËÊ©$%,>BC`A¹5ZH4%$#,@>?:3+?>I%#ed{8d&'40*>?:3+A@K%$10M?1tuKJ#CBS+#edw:d&'0HLMxOñ;pV:%$#2JHID9/IHY%#}|@|()<6,HID9/KJ[%$54[K5Ê[Z#ONg+%}|D~e&'2PTUWĕ?|`>%$#4RNOH;1ONc%#±F*+@:.NOH;1SRe%$76eS7¦§èed#WVs/%«J;&)4RVWYġAd@%$#4TPQL=3QPe%#·F*+B:.PQL=3UTg%$98iU9®¯ògf#YXw-%³L2&'2PTUWĕ?|`>%$#4RNOH;1ONc%#±F*+@:.NOH;1SRe%$76eS7¦§èed#WVs/%«J\\&'0HLMxOñ;pV:%$#2JHID9/IHY%#}|@|()<6,HID9/KJ[%$54[K5Ê[Z#ONg+%}|D~~$%,>BC`A¹5ZH4%$#,@>?:3+?>I%#ed{8d&'40*>?:3+A@K%$10M?1tuKJ#CBS+#edw:d#%(223B3s+>8*###(201.+'107%#EDQ.D$%,*&01.+'329##)(91+NOb76#32=%%EDO0D¨#####################################################################¨%$)132E4p,A7-$%#)1321*(016##FGP/E%$-+%321*(016$%*+82(MLc89#23<&#DEN/G%$+AA@aB¸4]I5$%$/A=<;2*>?J$%fgz9e'&51+=<;2*@AL#%01L@.utJK#BCT($bcv=e%$/KMLyNð:qW;$%#1MGFC6.HIX$#|}A})(=7-GFC6.LMZ$%45\\H4ËZ[#NOf,#|}E}b'&3QUTTĖ>a?$%$5SONK:2NO`&%°G)(A;-ONK:2RSd#%89fP6§¦éde#XYr.$ªK:%&3UWVXĢ@eA$%$7UQPM<2PQd&%¸I)(A=/QPM<2TUh#%89jR8­¬óhi#XYv.$°M5'&3QUTTĖ>a?$%$5SONK:2NO`&%°G)(A;-ONK:2RSd#%89fP6§¦éde#XYr.$ªK]%$/KMLyNð:qW;$%#1MGFC6.HIX$#|}A})(=7-GFC6.LMZ$%45\\H4ËZ[#NOf,#|}E}%$+AA@aB¸4]I5$%$/A=<;2*>?J$%fgz9e'&51+=<;2*@AL#%01L@.utJK#BCT($bcv=e%$)132E4p,A7-$%#)1321*(016##FGP/E%$-+%321*(016$%*+82(MLc89#23<&#DEN/G⋠#©$¦©¨¥¤#3#u3#Ó-Ü¿¾«ª¡ #£$ £¢#1#0¡ £¢¡ #ÅF ÑÐÅÄ¡ #% #1#2£¢£¢¡ #©* ·¶ÇÆÍÌ#£MÌ#9¢###4§¦«ª«ª#ÍDª×ÖËÊ§$',@@A`C¹5ZJ2###.>>?:1-=<I%#ed{:b&'42(>?:1-?>K##/.M?/rsML#CBU)%cbw:f$'0JLMxOñ;nX:%$%2JHID71GFW'$~B|():8*HID71KJ[#$54]I5Ê[Z#QPg-%{zD~c&)2RRSWĕ?|`@'&%4RNOJ=1ONa'$±F()>:.NOJ=1SRe%&98gQ9¦§èed#WVs-%«J=&'2TVWYģAd@'&%6TPQJ=1QPe'$¹H()@<.PQJ=1UTi%&;:kS9¬­òih#[Zw/%³L4&)2RRSWĕ?|`@'&%4RNOJ=1ONa'$±F()>:.NOJ=1SRe%&98gQ9¦§èed#WVs-%«J\\$'0JLMxOñ;nX:%$%2JHID71GFW'$~B|():8*HID71KJ[#$54]I5Ê[Z#QPg-%{zD~$',@@A`C¹5ZJ2###.>>?:1-=<I%#ed{:b&'42(>?:1-?>K##/.M?/rsML#CBU)%cbw:f$%&223B3q-@6,%$%(201.))107%$GFS.F$%**&01.))329#$+*93)LMb98#54='#EDO.F¦#####################################################################¨%$'332C2p,A7+###)310/*&016$#DEP/E'&-+'10/*&238##()62(MLc89#45<&#DEN/G'&-AA@aB¸4[I5$%#-A?>;0,<=H$#dez9e'&53)?>;0,@AJ$%./L>.srLM#BCT($bcv;g%&1KMLyNð:oY;$%$3KIHE60FGV&%~C})(;9+IHE60JKZ#%45\\J4ÍZ[#PQf,$|}Eb%&3SSRVĔ>}a?$%#5SONK<0NO`&#°G+*A;/ONK<0RSd$%67dP8§¦éde#VWr,$ªK:'&3SWVXĠ@e?$%#5WQPK<0RSd&#¶I+*C=/QPK<0VWh$%89hR8­¬óhi#Z[v.$²M5%&3SSRVĔ>}a?$%#5SONK<0NO`&#°G+*A;/ONK<0RSd$%67dP8§¦éde#VWr,$ªK_%&1KMLyNð:oY;$%$3KIHE60FGV&%~C})(;9+IHE60JKZ#%45\\J4ÍZ[#PQf,$|}E'&-AA@aB¸4[I5$%#-A?>;0,<=H$#dez9e'&53)?>;0,@AJ$%./L>.srLM#BCT($bcv;g%$'332C2p,A7+###)310/*&016$#DEP/E'&-+'10/*&238##()62(MLc89#45<&#DEN/G§#©$¦©¨¥¤#3#u3#Ó-Ü¿¾«ª¡ #£$ £¢#1#0¡ £¢¡ #ÅF ÑÐÅÄ¡ #% #1#2£¢£¢¡ #©* ·¶ÇÆÍÌ#£MÌ#9¢###4§¦«ª«ª#ÍDª×ÖËÊ§$',@@A`C¹5ZJ2###.>>?:1-=<I%#ed{:b&'42(>?:1-?>K##/.M?/rsML#CBU)%cbw:f$'0JLMxOñ;nX:%$%2JHID71GFW'$~B|():8*HID71KJ[#$54]I5Ê[Z#QPg-%{zD~c&)2RRSWĕ?|`@'&%4RNOJ=1ONa'$±F()>:.NOJ=1SRe%&98gQ9¦§èed#WVs-%«J=&'2TVWYģAd@'&%6TPQJ=1QPe'$¹H()@<.PQJ=1UTi%&;:kS9¬­òih#[Zw/%³L4&)2RRSWĕ?|`@'&%4RNOJ=1ONa'$±F()>:.NOJ=1SRe%&98gQ9¦§èed#WVs-%«J\\$'0JLMxOñ;nX:%$%2JHID71GFW'$~B|():8*HID71KJ[#$54]I5Ê[Z#QPg-%{zD~$',@@A`C¹5ZJ2###.>>?:1-=<I%#ed{:b&'42(>?:1-?>K##/.M?/rsML#CBU)%cbw:f$%&223B3q-@6,%$%(201.))107%$GFS.F$%**&01.))329#$+*93)LMb98#54='#EDO.F¦#####################################################################¨%$'332C2p,A7+###)310/*&016$#DEP/E'&-+'10/*&238##()62(MLc89#45<&#DEN/G'&-AA@aB¸4[I5$%#-A?>;0,<=H$#dez9e'&53)?>;0,@AJ$%./L>.srLM#BCT($bcv;g%&1KMLyNð:oY;$%$3KIHE60FGV&%~C})(;9+IHE60JKZ#%45\\J4ÍZ[#PQf,$|}Eb%&3SSRVĔ>}a?$%#5SONK<0NO`&#°G+*A;/ONK<0RSd$%67dP8§¦éde#VWr,$ªK:'&3SWVXĠ@e?$%#5WQPK<0RSd&#¶I+*C=/QPK<0VWh$%89hR8­¬óhi#Z[v.$²M5%&3SSRVĔ>}a?$%#5SONK<0NO`&#°G+*A;/ONK<0RSd$%67dP8§¦éde#VWr,$ªK_%&1KMLyNð:oY;$%$3KIHE60FGV&%~C})(;9+IHE60JKZ#%45\\J4ÍZ[#PQf,$|}E'&-AA@aB¸4[I5$%#-A?>;0,<=H$#dez9e'&53)?>;0,@AJ$%./L>.srLM#BCT($bcv;g%$'332C2p,A7+###)310/*&016$#DEP/E'&-+'10/*&238##()62(MLc89#45<&#DEN/G⏩#©#¨«ª¥¤#3#u3#Õ+ÜÁÀ«ª£¢#£#¢£¢#1#0¡ £¢£¢#ÅD¢ÑÐÅÄ£¢#¡%¢#1#2£¢£¢£¢#©(¢¹¸ÇÆÏÎ#£OÎ#7¢###2©¨«ª­¬#ÏD¬ÙØËÊ©$%,>BC`A¹5ZH4%$#,@>?:3+?>I%#ed{8d&'40*>?:3+A@K%$10M?1tuKJ#CBS+#edw:d&'0HLMxOñ;pV:%$#2JHID9/IHY%#}|@|()<6,HID9/KJ[%$54[K5Ê[Z#ONg+%}|D~e&'2PTUWĕ?|`>%$#4RNOH;1ONc%#±F*+@:.NOH;1SRe%$76eS7¦§èed#WVs/%«J;&)4RVWYġAd@%$#4TPQL=3QPe%#·F*+B:.PQL=3UTg%$98iU9®¯ògf#YXw-%³L2&'2PTUWĕ?|`>%$#4RNOH;1ONc%#±F*+@:.NOH;1SRe%$76eS7¦§èed#WVs/%«J\\&'0HLMxOñ;pV:%$#2JHID9/IHY%#}|@|()<6,HID9/KJ[%$54[K5Ê[Z#ONg+%}|D~~$%,>BC`A¹5ZH4%$#,@>?:3+?>I%#ed{8d&'40*>?:3+A@K%$10M?1tuKJ#CBS+#edw:d#%(223B3s+>8*###(201.+'107%#EDQ.D$%,*&01.+'329##)(91+NOb76#32=%%EDO0D¨#####################################################################¨%$)132E4p,A7-$%#)1321*(016##FGP/E%$-+%321*(016$%*+82(MLc89#23<&#DEN/G%$+AA@aB¸4]I5$%$/A=<;2*>?J$%fgz9e'&51+=<;2*@AL#%01L@.utJK#BCT($bcv=e%$/KMLyNð:qW;$%#1MGFC6.HIX$#|}A})(=7-GFC6.LMZ$%45\\H4ËZ[#NOf,#|}E}b'&3QUTTĖ>a?$%$5SONK:2NO`&%°G)(A;-ONK:2RSd#%89fP6§¦éde#XYr.$ªK:%&3UWVXĢ@eA$%$7UQPM<2PQd&%¸I)(A=/QPM<2TUh#%89jR8­¬óhi#XYv.$°M5'&3QUTTĖ>a?$%$5SONK:2NO`&%°G)(A;-ONK:2RSd#%89fP6§¦éde#XYr.$ªK]%$/KMLyNð:qW;$%#1MGFC6.HIX$#|}A})(=7-GFC6.LMZ$%45\\H4ËZ[#NOf,#|}E}%$+AA@aB¸4]I5$%$/A=<;2*>?J$%fgz9e'&51+=<;2*@AL#%01L@.utJK#BCT($bcv=e%$)132E4p,A7-$%#)1321*(016##FGP/E%$-+%321*(016$%*+82(MLc89#23<&#DEN/G⣎##⼝⼜⼝⽾⼝⼜ⷡ#ĝ#Ĝ#ĝ#####Ĝ##ĝ#ĜÐ################ࠊ#ࠋ#ࠊ#ࠋ#ࠊ#ࠋ#ࠊ#ࠋࠊ###ķ#۷#۶#####۷#######۶##۷#۶۷####ࠊ#ࠋ#ࠊ#ࠋ#ࠊ#ࠋ#ࠊ#ࠋࠊ###ࠋ####ࠊ#ࠋ#ࠊ#ࠋ#ࠊ#ࠋ#ࠊ#ࠋࠊ###ķ#۷#۶#####۷#######۶##۷#۶۷####ࠊ#ࠋ#ࠊ#ࠋ#ࠊ#ࠋ#ࠊ#ࠋࠊ###ķ#۷#۶#####۷#######۶##۷#۶##۷#۶#####۷#######۶##۷#۶⋄D#E#n#L##ɬ#ɭɬ#ⓝ#Ċ#v#B##4#5\\#L#<##x#y¾#R#4##6#7b#N#6##¢#£Ǆ#ł###p#q#.####z#{À#R#4##:#;d#J#4##0#1Z#p###ጢ#ጣጢ6#76Ŕ#ŕŔJ#K#f#@###ƺ#ľ##DEnLɬɭ˚⑱ĊvB45\\L<xy¾R467bN6¢£Ǆłpq.#z{ÀR4:;dJ401Zpጢጣጶ7ŨŕżKf@ƺľDEnLɬɭ˚⑱ĊvB45\\L<xy¾R467bN6¢£Ǆłpq.#z{ÀR4:;dJ401Zpጢጣጶ7ŨŕżKf@ƺľDEnLɬɭ˚⑱ĊvB45\\L<xy¾R467bN6¢£Ǆłpq.#z{ÀR4:;dJ401Zpጢጣጶ7ŨŕżKf@ƺľDEnLɬɭ˚⑱ĊvB45\\L<xy¾R467bN6¢£Ǆłpq.#z{ÀR4:;dJ401Zpጢጣጶ7ŨŕżKf@ƺľDEnLɬɭ˚⑱ĊvB45\\L<xy¾R467bN6¢£Ǆłpq.#z{ÀR4:;dJ401Zpጢጣጶ7ŨŕżKf@ƺľDEnLɬɭ˚⑱ĊvB45\\L<xy¾R467bN6¢£Ǆłpq.#z{ÀR4:;dJ401Zpጢጣጶ7ŨŕżKf@ƺľDEnLɬɭ˚⑱ĊvB45\\L<xy¾R467bN6¢£Ǆłpq.#z{ÀR4:;dJ401Zpጢጣጶ7ŨŕżKf@ƺľDEnLɬɭ˚⑱ĊvB45\\L<xy¾R467bN6¢£Ǆłpq.#z{ÀR4:;dJ401Zpጢጣጶ7ŨŕżKf@ƺľDEnLɬɭ˚⑱ĊvB45\\L<xy¾R467bN6¢£Ǆłpq.#z{ÀR4:;dJ401Zpጢጣጶ7ŨŕżKf@ƺľDEnLɬɭ˚⑱ĊvB45\\L<xy¾R467bN6¢£Ǆłpq.#z{ÀR4:;dJ401Zpጢጣጶ7ŨŕżKf@ƺľDEnLɬɭ˚⑱ĊvB45\\L<xy¾R467bN6¢£Ǆłpq.#z{ÀR4:;dJ401Zpጢጣጶ7ŨŕżKf@ƺľDEnLɬɭ˚⑱ĊvB45\\L<xy¾R467bN6¢£Ǆłpq.#z{ÀR4:;dJ401Zpጢጣጶ7ŨŕżKf@ƺľDEnLɬɭ˚⑱ĊvB45\\L<xy¾R467bN6¢£Ǆłpq.#z{ÀR4:;dJ401Zpጢጣጶ7ŨŕżKf@ƺľDEnLɬɭ˚⑱ĊvB45\\L<xy¾R467bN6¢£Ǆłpq.#z{ÀR4:;dJ401Zpጢጣጶ7ŨŕżKf@ƺľDEnLɬɭ˚⑱ĊvB45\\L<xy¾R467bN6¢£Ǆłpq.#z{ÀR4:;dJ401Zpጢጣጶ7ŨŕżKf@ƺľDEnLɬɭ˚⑱ĊvB45\\L<xy¾R467bN6¢£Ǆłpq.#z{ÀR4:;dJ401Zpጢጣጶ7ŨŕżKf@ƺľDEnLɬɭ˚⑱ĊvB45\\L<xy¾R467bN6¢£Ǆłpq.#z{ÀR4:;dJ401Zpጢጣጶ7ŨŕżKf@ƺľDEnLɬɭ˚⑱ĊvB45\\L<xy¾R467bN6¢£Ǆłpq.#z{ÀR4:;dJ401Zpጢጣጶ7ŨŕżKf@ƺľ#D#E#n#L##ɬ#ɭɬ#ⓝ#Ċ#v#B##4#5\\#L#<##x#y¾#R#4##6#7b#N#6##¢#£Ǆ#ł###p#q#.####z#{À#R#4##:#;d#J#4##0#1Z#p###ጢ#ጣጢ6#76Ŕ#ŕŔJ#K#f#@###ƺ#ľ##DEnLɬɭ˚⑱ĊvB45\\L<xy¾R467bN6¢£Ǆłpq.#z{ÀR4:;dJ401Zpጢጣጶ7ŨŕżKf@ƺľDEnLɬɭ˚⑱ĊvB45\\L<xy¾R467bN6¢£Ǆłpq.#z{ÀR4:;dJ401Zpጢጣጶ7ŨŕżKf@ƺľDEnLɬɭ˚⑱ĊvB45\\L<xy¾R467bN6¢£Ǆłpq.#z{ÀR4:;dJ401Zpጢጣጶ7ŨŕżKf@ƺľDEnLɬɭ˚⑱ĊvB45\\L<xy¾R467bN6¢£Ǆłpq.#z{ÀR4:;dJ401Zpጢጣጶ7ŨŕżKf@ƺľDEnLɬɭ˚⑱ĊvB45\\L<xy¾R467bN6¢£Ǆłpq.#z{ÀR4:;dJ401Zpጢጣጶ7ŨŕżKf@ƺľDEnLɬɭ˚⑱ĊvB45\\L<xy¾R467bN6¢£Ǆłpq.#z{ÀR4:;dJ401Zpጢጣጶ7ŨŕżKf@ƺľDEnLɬɭ˚⑱ĊvB45\\L<xy¾R467bN6¢£Ǆłpq.#z{ÀR4:;dJ401Zpጢጣጶ7ŨŕżKf@ƺľDEnLɬɭ˚⑱ĊvB45\\L<xy¾R467bN6¢£Ǆłpq.#z{ÀR4:;dJ401Zpጢጣጶ7ŨŕżKf@ƺľDEnLɬɭ˚⑱ĊvB45\\L<xy¾R467bN6¢£Ǆłpq.#z{ÀR4:;dJ401Zpጢጣጶ7ŨŕżKf@ƺľDEnLɬɭ˚⑱ĊvB45\\L<xy¾R467bN6¢£Ǆłpq.#z{ÀR4:;dJ401Zpጢጣጶ7ŨŕżKf@ƺľDEnLɬɭ˚⑱ĊvB45\\L<xy¾R467bN6¢£Ǆłpq.#z{ÀR4:;dJ401Zpጢጣጶ7ŨŕżKf@ƺľDEnLɬɭ˚⑱ĊvB45\\L<xy¾R467bN6¢£Ǆłpq.#z{ÀR4:;dJ401Zpጢጣጶ7ŨŕżKf@ƺľDEnLɬɭ˚⑱ĊvB45\\L<xy¾R467bN6¢£Ǆłpq.#z{ÀR4:;dJ401Zpጢጣጶ7ŨŕżKf@ƺľDEnLɬɭ˚⑱ĊvB45\\L<xy¾R467bN6¢£Ǆłpq.#z{ÀR4:;dJ401Zpጢጣጶ7ŨŕżKf@ƺľDEnLɬɭ˚⑱ĊvB45\\L<xy¾R467bN6¢£Ǆłpq.#z{ÀR4:;dJ401Zpጢጣጶ7ŨŕżKf@ƺľDEnLɬɭ˚⑱ĊvB45\\L<xy¾R467bN6¢£Ǆłpq.#z{ÀR4:;dJ401Zpጢጣጶ7ŨŕżKf@ƺľDEnLɬɭ˚⑱ĊvB45\\L<xy¾R467bN6¢£Ǆłpq.#z{ÀR4:;dJ401Zpጢጣጶ7ŨŕżKf@ƺľDEnLɬɭ˚⑱ĊvB45\\L<xy¾R467bN6¢£Ǆłpq.#z{ÀR4:;dJ401Zpጢጣጶ7ŨŕżKf@ƺľ#D#E#n#L##ɬ#ɭɬ#ⓝ#Ċ#v#B##4#5\\#L#<##x#y¾#R#4##6#7b#N#6##¢#£Ǆ#ł###p#q#.####z#{À#R#4##:#;d#J#4##0#1Z#p###ጢ#ጣጢ6#76Ŕ#ŕŔJ#K#f#@###ƺ#ľ##DEnLɬɭ˚⑱ĊvB45\\L<xy¾R467bN6¢£Ǆłpq.#z{ÀR4:;dJ401Zpጢጣጶ7ŨŕżKf@ƺľDEnLɬɭ˚⑱ĊvB45\\L<xy¾R467bN6¢£Ǆłpq.#z{ÀR4:;dJ401Zpጢጣጶ7ŨŕżKf@ƺľDEnLɬɭ˚⑱ĊvB45\\L<xy¾R467bN6¢£Ǆłpq.#z{ÀR4:;dJ401Zpጢጣጶ7ŨŕżKf@ƺľDEnLɬɭ˚⑱ĊvB45\\L<xy¾R467bN6¢£Ǆłpq.#z{ÀR4:;dJ401Zpጢጣጶ7ŨŕżKf@ƺľDEnLɬɭ˚⑱ĊvB45\\L<xy¾R467bN6¢£Ǆłpq.#z{ÀR4:;dJ401Zpጢጣጶ7ŨŕżKf@ƺľDEnLɬɭ˚⑱ĊvB45\\L<xy¾R467bN6¢£Ǆłpq.#z{ÀR4:;dJ401Zpጢጣጶ7ŨŕżKf@ƺľDEnLɬɭ˚⑱ĊvB45\\L<xy¾R467bN6¢£Ǆłpq.#z{ÀR4:;dJ401Zpጢጣጶ7ŨŕżKf@ƺľDEnLɬɭ˚⑱ĊvB45\\L<xy¾R467bN6¢£Ǆłpq.#z{ÀR4:;dJ401Zpጢጣጶ7ŨŕżKf@ƺľDEnLɬɭ˚⑱ĊvB45\\L<xy¾R467bN6¢£Ǆłpq.#z{ÀR4:;dJ401Zpጢጣጶ7ŨŕżKf@ƺľDEnLɬɭ˚⑱ĊvB45\\L<xy¾R467bN6¢£Ǆłpq.#z{ÀR4:;dJ401Zpጢጣጶ7ŨŕżKf@ƺľDEnLɬɭ˚⑱ĊvB45\\L<xy¾R467bN6¢£Ǆłpq.#z{ÀR4:;dJ401Zpጢጣጶ7ŨŕżKf@ƺľDEnLɬɭ˚⑱ĊvB45\\L<xy¾R467bN6¢£Ǆłpq.#z{ÀR4:;dJ401Zpጢጣጶ7ŨŕżKf@ƺľDEnLɬɭ˚⑱ĊvB45\\L<xy¾R467bN6¢£Ǆłpq.#z{ÀR4:;dJ401Zpጢጣጶ7ŨŕżKf@ƺľDEnLɬɭ˚⑱ĊvB45\\L<xy¾R467bN6¢£Ǆłpq.#z{ÀR4:;dJ401Zpጢጣጶ7ŨŕżKf@ƺľDEnLɬɭ˚⑱ĊvB45\\L<xy¾R467bN6¢£Ǆłpq.#z{ÀR4:;dJ401Zpጢጣጶ7ŨŕżKf@ƺľDEnLɬɭ˚⑱ĊvB45\\L<xy¾R467bN6¢£Ǆłpq.#z{ÀR4:;dJ401Zpጢጣጶ7ŨŕżKf@ƺľDEnLɬɭ˚⑱ĊvB45\\L<xy¾R467bN6¢£Ǆłpq.#z{ÀR4:;dJ401Zpጢጣጶ7ŨŕżKf@ƺľDEnLɬɭ˚⑱ĊvB45\\L<xy¾R467bN6¢£Ǆłpq.#z{ÀR4:;dJ401Zpጢጣጶ7ŨŕżKf@ƺľ#D#E#n#L##ɬ#ɭɬ#ⓝ#Ċ#v#B##4#5\\#L#<##x#y¾#R#4##6#7b#N#6##¢#£Ǆ#ł###p#q#.####z#{À#R#4##:#;d#J#4##0#1Z#p###ጢ#ጣጢ6#76Ŕ#ŕŔJ#K#f#@###ƺ#ľ##DEnLɬɭ˚⑱ĊvB45\\L<xy¾R467bN6¢£Ǆłpq.#z{ÀR4:;dJ401Zpጢጣጶ7ŨŕżKf@ƺľDEnLɬɭ˚⑱ĊvB45\\L<xy¾R467bN6¢£Ǆłpq.#z{ÀR4:;dJ401Zpጢጣጶ7ŨŕżKf@ƺľDEnLɬɭ˚⑱ĊvB45\\L<xy¾R467bN6¢£Ǆłpq.#z{ÀR4:;dJ401Zpጢጣጶ7ŨŕżKf@ƺľDEnLɬɭ˚⑱ĊvB45\\L<xy¾R467bN6¢£Ǆłpq.#z{ÀR4:;dJ401Zpጢጣጶ7ŨŕżKf@ƺľDEnLɬɭ˚⑱ĊvB45\\L<xy¾R467bN6¢£Ǆłpq.#z{ÀR4:;dJ401Zpጢጣጶ7ŨŕżKf@ƺľDEnLɬɭ˚⑱ĊvB45\\L<xy¾R467bN6¢£Ǆłpq.#z{ÀR4:;dJ401Zpጢጣጶ7ŨŕżKf@ƺľDEnLɬɭ˚⑱ĊvB45\\L<xy¾R467bN6¢£Ǆłpq.#z{ÀR4:;dJ401Zpጢጣጶ7ŨŕżKf@ƺľDEnLɬɭ˚⑱ĊvB45\\L<xy¾R467bN6¢£Ǆłpq.#z{ÀR4:;dJ401Zpጢጣጶ7ŨŕżKf@ƺľDEnLɬɭ˚⑱ĊvB45\\L<xy¾R467bN6¢£Ǆłpq.#z{ÀR4:;dJ401Zpጢጣጶ7ŨŕżKf@ƺľDEnLɬɭ˚⑱ĊvB45\\L<xy¾R467bN6¢£Ǆłpq.#z{ÀR4:;dJ401Zpጢጣጶ7ŨŕżKf@ƺľDEnLɬɭ˚⑱ĊvB45\\L<xy¾R467bN6¢£Ǆłpq.#z{ÀR4:;dJ401Zpጢጣጶ7ŨŕżKf@ƺľDEnLɬɭ˚⑱ĊvB45\\L<xy¾R467bN6¢£Ǆłpq.#z{ÀR4:;dJ401Zpጢጣጶ7ŨŕżKf@ƺľDEnLɬɭ˚⑱ĊvB45\\L<xy¾R467bN6¢£Ǆłpq.#z{ÀR4:;dJ401Zpጢጣጶ7ŨŕżKf@ƺľDEnLɬɭ˚⑱ĊvB45\\L<xy¾R467bN6¢£Ǆłpq.#z{ÀR4:;dJ401Zpጢጣጶ7ŨŕżKf@ƺľDEnLɬɭ˚⑱ĊvB45\\L<xy¾R467bN6¢£Ǆłpq.#z{ÀR4:;dJ401Zpጢጣጶ7ŨŕżKf@ƺľDEnLɬɭ˚⑱ĊvB45\\L<xy¾R467bN6¢£Ǆłpq.#z{ÀR4:;dJ401Zpጢጣጶ7ŨŕżKf@ƺľDEnLɬɭ˚⑱ĊvB45\\L<xy¾R467bN6¢£Ǆłpq.#z{ÀR4:;dJ401Zpጢጣጶ7ŨŕżKf@ƺľDEnLɬɭ˚⑱ĊvB45\\L<xy¾R467bN6¢£Ǆłpq.#z{ÀR4:;dJ401Zpጢጣጶ7ŨŕżKf@ƺľ⭁###"
}