{
"boundingBox":{
"max":[
40.6712646484375,
27.116939544677734,
3.958526611328125
],
"min":[
-41.985790252685547,
-27.569942474365234,
0.0
]
},
"colors":"",
"compression":{
"compressed":true,
"compressedColorsRange":255,
"compressedUnitVectorRange":1023,
"compressedVertsRange":16383
},
"indexLengths":[
1176
],
"indexModes":[
"Triangles"
],
"indices":"#%%&'%%%%&'%*$/,-%&$+()%&$+()%&$+()%&$+()%&$+()%&$+()%&$+()%&$+()%&$+()%&$+()%&$+()%&$+()%&$+()%&$+()%&$+()%&$+()%&$+()%&$+()%&$+()%&$+()%&$+()%&$+()%&$+()%&$+()%&$+()%&$+()%&$+()%&$+()%&$+()%&$+()%&$+()%&$+()%&$+()%&$+()%&$+()%&$¸»º$Á$´·¶$»%%%%(+%&)%&)%&)%&)87'%<?BA'%FIFE>',1'*/63-@'CD$/+452$I%%&'%%%%&'%*$/,-%&$+()%&$+()%&$+()%&$+()%&$+()%&$+()%&$+()%&$+()%&$+()%&$+()%&$+()%&$+()%&$+()%&$+()%&$+()%&$+()%&$+()%&$+()%&$+()%&$+()%&$+()%&$+()%&$+()%&$+()%&$+()%&$+()%&$+()%&$+()%&$+()%&$+()%&$+()%&$+()%&$+()%&$+()%&$+()%&$¸»º$Á$´·¶$»%%%%(+%&)%&)%&)%&)87'%<?BA'%FIFE>',1'*/63-@'CD$/+452$I%%&'%%%%&'%*$/,-%&$+()%&$+()%&$+()%&$+()%&$+()%&$+()%&$+()%&$+()%&$+()%&$+()%&$+()%&$+()%&$+()%&$+()%&$+()%&$+()%&$+()%&$+()%&$+()%&$+()%&$+()%&$+()%&$+()%&$+()%&$+()%&$+()%&$+()%&$+()%&$+()%&$+()%&$+()%&$+()%&$+()%&$+()%&$+()%&$¸»º$Á$´·¶$»%%%%(+%&)%&)%&)%&)87'%<?BA'%FIFE>',1'*/63-@'CD$/+452$I%%&'%%%%&'%*$/,-%&$+()%&$+()%&$+()%&$+()%&$+()%&$+()%&$+()%&$+()%&$+()%&$+()%&$+()%&$+()%&$+()%&$+()%&$+()%&$+()%&$+()%&$+()%&$+()%&$+()%&$+()%&$+()%&$+()%&$+()%&$+()%&$+()%&$+()%&$+()%&$+()%&$+()%&$+()%&$+()%&$+()%&$+()%&$+()%&$¸»º$Á$´·¶$»%%%%(+%&)%&)%&)%&)87'%<?BA'%FIFE>',1'*/63-@'CD$/+452$",
"name":"Lib_Table1_MESH03",
"normals":"ࠕ#@$M#@#&/#è(1$Ŗ(-#Ʈ###Ƭ+,#Ō)0%Ú'.#|%.#6#,#K%.#'.#é)0%ŗ),#Ư###ƫ(-#ō(1$Û&/#}$/#Ђ###################З#@$M#@#&/#è(1$Ŗ(-#Ʈ###ƪ),#Ō)0%Ú'.#|%.#6#,#K%.#'.#é)0%ŗ),#Ư###ƫ(-#ō(1$Û&/#}$/#Ђ###################З#@$M#@#&/#è(1$Ŗ(-#Ʈ###ƪ),#Ō)0%Ú'.#|%.#6#,#K%.#'.#é)0%ŗ),#Ư###ƫ(-#ō(1$Û&/#}$/#Ђ###################З#@$M#@#&/#è(1$Ŗ(-#Ʈ###ƪ),#Ō)0%Ú'.#|%.#6#,#K%.#'.#é)0%ŗ),#Ư###ƫ(-#ō(1$Û&/#}$/#Ђ###################С#ė%Ę#ě#ĕ)%%ĉ)+#Ù%1#a#5#%1#ö)+#Ġ)%%Ģ%%#Ě###Ė$$#Ĕ($$Ĉ(*#Ø$0#`#4#$0#÷(*#ġ($$ģ$$#ě#####################ė%Ę#ě#ĕ)%%ĉ)+#Ù%1#a#5#%1#ö)+#Ġ)%%Ģ%%#Ě###Ė$$#Ĕ($$Ĉ(*#Ø$0#`#4#$0#÷(*#ġ($$ģ$$#ě#####################ė%Ę#ě#ĕ)%%ĉ)+#Ù%1#a#5#%1#ö)+#Ġ)%%Ģ%%#Ě###Ė$$#Ĕ($$Ĉ(*#Ø$0#`#4#$0#÷(*#ġ($$ģ$$#ě#####################ė%Ę#ě#ĕ)%%ĉ)+#Ù%1#a#5#%1#ö)+#Ġ)%%Ģ%%#Ě###Ė$$#Ĕ($$Ĉ(*#Ø$0#`#4#$0#÷(*#ġ($$ģ$$#ě###################΋#&####¤#£#®$­#¸#·#¼#»#´#·#¨$­##£#######¤#£#®$­#¸#·#¼#»#´#·#¨$­##£###Ͼ###################΋#&####¤#£#®$­#¸#·#¼#»#´#·#¨$­##£#######¤#£#®$­#¸#·#¼#»#´#·#¨$­##£###Ͼ###################΋#&####¤#£#®$­#¸#·#¼#»#´#·#¨$­##£#######¤#£#®$­#¸#·#¼#»#´#·#¨$­##£###Ͼ###################΋#&####¤#£#®$­#¸#·#¼#»#´#·#¨$­##£#######¤#£#®$­#¸#·#¼#»#´#·#¨$­##£###Ͼ###################",
"textureCoords":[
{
"UVOffsets":[
71878.391983467562,
3916.5635574478706
],
"UVScales":[
3.3564212986861642e-06,
4.0246288456454322e-06
],
"UVs":"耡ժ̂ԩɈـʶ׵ࡸѧग़ԗഠ̽ۖνႀǃΦȇቈ###ቈǂΧȆႀ̼ۗμഠѦज़ԖࡸԨૻ״̂ըஇـ̃Ԩૻ״ࡹѦज़Ԗഡ̼ۗμႁǂΧȆ቉###቉ǃΦȇႁ̽ۖνഡѧग़ԗࡹԩૺ׵㟺㈩搮曃ʶޚெ໊ၤၤ໊ெޚʶਯே໋₧໋ேᖕժ̂ԩɈـʶ׵ࡸѧग़ԗഠ̽ۖνႀǃΦȇቈ###ቈǂΧȆႀ̼ۗμഠѦज़ԖࡸԨૻ״̂ըஇـ̃Ԩૻ״ࡹѦज़Ԗഡ̼ۗμႁǂΧȆ቉###቉ǃΦȇႁ̽ۖνഡѧग़ԗࡹԩૺ׵㟺㈩搮曃ʶޚெ໊ၤၤ໊ெޚʶਯே໋₧໋ேᖕժ̂ԩɈـʶ׵ࡸѧग़ԗഠ̽ۖνႀǃΦȇቈ###ቈǂΧȆႀ̼ۗμഠѦज़ԖࡸԨૻ״̂ըஇـ̃Ԩૻ״ࡹѦज़Ԗഡ̼ۗμႁǂΧȆ቉###቉ǃΦȇႁ̽ۖνഡѧग़ԗࡹԩૺ׵㟺㈩搮曃ʶޚெ໊ၤၤ໊ெޚʶਯே໋₧໋ேᖕժ̂ԩɈـʶ׵ࡸѧग़ԗഠ̽ۖνႀǃΦȇቈ###ቈǂΧȆႀ̼ۗμഠѦज़ԖࡸԨૻ״̂ըஇـ̃Ԩૻ״ࡹѦज़Ԗഡ̼ۗμႁǂΧȆ቉###቉ǃΦȇႁ̽ۖνഡѧग़ԗࡹԩૺ׵㟺㈩搮曃ʶޚெ໊ၤၤ໊ெޚʶਯே໋₧໋ே耡ᒘ#ᒙᒘ殪#殫#ᒙ耠殫#ᒙ耠殫#ᒙ耠殫#ᒙ耠殫#ᒙ耠殫#ᒙ耠殫#ᒙ耠殫#ᒙ耠殫#ᒙ耠殫#ᒙ耠殫#ᒙ耠殫#ᒙ耠殫#ᒙ耠殫#ᒙ耠殫#ᒙ耠殫#ᒙ耠殫#ᒙ耠殫#ᒙ耠殫殪###################耡ᒘ#ᒙᒘ殪#殫#ᒙ耠殫#ᒙ耠殫#ᒙ耠殫#ᒙ耠殫#ᒙ耠殫#ᒙ耠殫#ᒙ耠殫#ᒙ耠殫#ᒙ耠殫#ᒙ耠殫#ᒙ耠殫#ᒙ耠殫#ᒙ耠殫#ᒙ耠殫#ᒙ耠殫#ᒙ耠殫#ᒙ耠殫#ᒙ耠殫殪###################耡ᒘ#ᒙᒘ殪#殫#ᒙ耠殫#ᒙ耠殫#ᒙ耠殫#ᒙ耠殫#ᒙ耠殫#ᒙ耠殫#ᒙ耠殫#ᒙ耠殫#ᒙ耠殫#ᒙ耠殫#ᒙ耠殫#ᒙ耠殫#ᒙ耠殫#ᒙ耠殫#ᒙ耠殫#ᒙ耠殫#ᒙ耠殫#ᒙ耠殫殪###################耡ᒘ#ᒙᒘ殪#殫#ᒙ耠殫#ᒙ耠殫#ᒙ耠殫#ᒙ耠殫#ᒙ耠殫#ᒙ耠殫#ᒙ耠殫#ᒙ耠殫#ᒙ耠殫#ᒙ耠殫#ᒙ耠殫#ᒙ耠殫#ᒙ耠殫#ᒙ耠殫#ᒙ耠殫#ᒙ耠殫#ᒙ耠殫#ᒙ耠殫殪###################"
}
],
"vertexCount":400,
"vertexOffsets":{
"xOffset":-4160.8862215849504,
"yOffset":-2732.2432918632139,
"zOffset":0.0
},
"vertexScale":0.010090588402749564,
"vertices":"ǧ4,5*8*7@3D5P/:/\\).)b###b(/(\\.;.P2E4@4I6,4K8-4I6A2E4Q.;.](/(c###c).)]/:/Q3D5A5H7èÕƆƏ*>JV\\\\VJ>*GKWWKo4,5*8*7@3D5P/:/\\).)b###b(/(\\.;.P2E4@4I6,4K8-4I6A2E4Q.;.](/(c###c).)]/:/Q3D5A5H7èÕƆƏ*>JV\\\\VJ>*GKWWK㺩4,3(8,9@1B5P-:1\\)0+b###d&/*\\,;0P0C4>4I6.4K8/4I6?0C4Q,;0]&/*e###c)0+]-:1Q1B5A3H9èÓƄƏ,<LVZ\\VL<,GMWWMo4,3(8,9@1B5P-:1\\)0+b###d&/*\\,;0P0C4>4I6.4K8/4I6?0C4Q,;0]&/*e###c)0+]-:1Q1B5A3H9èÓƄƏ,<LVZ\\VL<,GMWWM⥏#w+~#o+o3B3a7N;I;T=1;V?0;T=H7N;`3B3n+2+v###v*3*p0C4^6O:H:U<0:W>1:U<I6O:_0C4q*3*ŭÌ#nnfXF./GYgo³YG#FX⢴#w+~#o+o1@3a7N;I;V?1;XA0;V?H7N;`1@3n+2+v###x(3,n0C4^6O:H:U<0:W>1:U<I6O:_0C4o(3,ŭÊ#nnfXF./GYgo³YE#DX²#w+~#o+o1@3a7N;I;V?1;XA0;V?H7N;`1@3n+2+v###x(3,n0C4^6O:H:U<0:W>1:U<I6O:_0C4o(3,ŭÊ#nnfXF./GYgo³YE#DX➕#w+~#o+o3B3a7N;I;T=1;V?0;T=H7N;`3B3n+2+v###v*3*p0C4^6O:H:U<0:W>1:U<I6O:_0C4q*3*ŭÌ#nnfXF./GYgo³YG#FX̳ #¡ ʴ#ʵ#¡̲ʵ#¡̲ʵ#¡̲ʵ#¡̲ʵ#¡̲ʵ#¡̲ʵ#¡̲ʵ#¡̲ʵ#¡̲ʵ#¡̲ʵ#¡̲ʵ#¡̲ʵ#¡̲ʵ#¡̲ʵ#¡̲ʵ#¡̲ʵ#¡̲ʵ#¡̲ʵʴ###################̳ #¡ ʴ#ʵ#¡̲ʵ#¡̲ʵ#¡̲ʵ#¡̲ʵ#¡̲ʵ#¡̲ʵ#¡̲ʵ#¡̲ʵ#¡̲ʵ#¡̲ʵ#¡̲ʵ#¡̲ʵ#¡̲ʵ#¡̲ʵ#¡̲ʵ#¡̲ʵ#¡̲ʵ#¡̲ʵʴ###################̳ #¡ ʴ#ʵ#¡̲ʵ#¡̲ʵ#¡̲ʵ#¡̲ʵ#¡̲ʵ#¡̲ʵ#¡̲ʵ#¡̲ʵ#¡̲ʵ#¡̲ʵ#¡̲ʵ#¡̲ʵ#¡̲ʵ#¡̲ʵ#¡̲ʵ#¡̲ʵ#¡̲ʵ#¡̲ʵʴ###################̳ #¡ ʴ#ʵ#¡̲ʵ#¡̲ʵ#¡̲ʵ#¡̲ʵ#¡̲ʵ#¡̲ʵ#¡̲ʵ#¡̲ʵ#¡̲ʵ#¡̲ʵ#¡̲ʵ#¡̲ʵ#¡̲ʵ#¡̲ʵ#¡̲ʵ#¡̲ʵ#¡̲ʵ#¡̲ʵʴ###################"
}