{
"boundingBox":{
"max":[
56.000274658203125,
-18.629415512084961,
-95.406036376953125
],
"min":[
7.62939453125e-05,
-401.37063598632812,
-137.40604782104492
]
},
"colors":"",
"compression":{
"compressed":true,
"compressedColorsRange":255,
"compressedUnitVectorRange":1023,
"compressedVertsRange":16383
},
"indexLengths":[
24
],
"indexModes":[
"Triangles"
],
"indices":"#%%#$'%%%$$)%%%#$'%%%&'%",
"name":"Lib_StaircaseStairs_MESH01",
"normals":"С###У###Т###У###С###############ࠡ###Т###У###Т###",
"textureCoords":[
{
"UVOffsets":[
11312.071456250083,
0.0
],
"UVScales":[
2.5636329542023935e-05,
1.5221303769435113e-05
],
"UVs":"耡耠耡耠#耡#耠耡耠耡耠耡耠#耡䥅#⒴##⒲⒳⒲耡#⒴###ቬ#"
}
],
"vertexCount":16,
"vertexOffsets":{
"xOffset":0.001632857449356963,
"yOffset":-8590.2102747338231,
"zOffset":-2940.7902272230826
},
"vertexScale":0.046724192208294352,
"vertices":"ӑ#ӑ#####ॾ#ӑ#####䀡䀠䀡䀠#䀡#䀠䀡䀠䀡䀠䀡䀠#䀡ӑ####ӐӑӐܧ#####ɸ#"
}