{
"boundingBox":{
"max":[
8.0,
224.0,
384.00006103515625
],
"min":[
-3.814697265625e-06,
0.0,
-1.52587890625e-05
]
},
"colors":"",
"compression":{
"compressed":true,
"compressedColorsRange":255,
"compressedUnitVectorRange":1023,
"compressedVertsRange":16383
},
"indexLengths":[
36
],
"indexModes":[
"Triangles"
],
"indices":"#%%#%(+%%#%(+%%#%(+%%%%%%%%%%%%%%#%(",
"name":"Lib_Wall1_MESH056",
"normals":"ࠡ###########Ŏ###########۴###С###########################С###########˶#####׋#####˶###",
"textureCoords":[
{
"UVOffsets":[
10723.615693212099,
202.93656869671938
],
"UVScales":[
3.4723703964415948e-05,
5.9526350692770443e-05
],
"UVs":"耡耠#耡#耠#耡耠耡#耠#耡##耠#耡耠##耡##耠#耡狋#敶#狍#૎#畴#્#校#ˍ##ˌ敶#ˌ##ˍ㵷#†#"
}
],
"vertexCount":28,
"vertexOffsets":{
"xOffset":-8.1375225111797434e-05,
"yOffset":0.0,
"zOffset":-0.00032550090044718974
},
"vertexScale":0.046877870511377075,
"vertices":"####ŷ#######Ŷ#ŷ##Ŷ##ŷ##Ŷ####╷╶#╷#╶#╷╶╷#╶#╷##╶#╷╶##╷#╶╷#╶㥷#㋌#㥷#ո#㫊#շ#㐣#ŷ##Ŷ㋌#Ÿ##Ź㥷#䀠#"
}