{
"boundingBox":{
"max":[
115.16392517089844,
113.18966674804687,
404.85650634765625
],
"min":[
-115.16395568847656,
-113.18948364257812,
-372.0
]
},
"colors":"",
"compression":{
"compressed":true,
"compressedColorsRange":255,
"compressedUnitVectorRange":1023,
"compressedVertsRange":16383
},
"indexLengths":[
1128
],
"indexModes":[
"Triangles"
],
"indices":"#%%#%(+%%#%(+%*#$+'%&#$''%&#$''%%#%(+%%#%(+%*#$+'%&#$''%&#$''%&#$''%&#$''%%#%(+*)#'$'%%#%(+*)#'$'%%#%(+*)#'$'%%#%(+*)#'$'&%#'$'&%#'$'&%#'$'&%#'$'%%#%(%)%#($)'%#&$''%#&$''%#&$''%#&$''%#&$''%#&$''%#&$''%#&$''%#&$'N)#K$ÌÑ%#Ð$_%#'&%#¤'&¥%#ª'&«%#°'&±%#º+*»%#º$¿%%#%()$'#%&'$'#%&)%%#%()$'#%&)%%#%(+*)#'$'&%#'$'&%#'$'&%#'$'&%#'$'&%#'$'&%#'$'&%#'$'&%#'$'&%#'$LM%#L$Q%%#%(+%%#%(+*)#'$'&%#'$'&%#'$'%%#%(+%%#%(+*)#'$'&%#'$'&%#'$'&%#'$'&%#'$Ĭı%#İ$ĵ%%#%(Ĩı%#İ$ĵ%%#%(+%%#%(Ĩı%#ĺ+'ı%#İ$+ĭ&#İ+'ī$#Ĭ''ĩ$#Ī''ħ$#Ĩ''ĥ$#Ħ'ħ%%#%(+%%#%(+%%#%(+%%#%(+%%#%(+%%#%(+%%%%*-%%%%%%%%%%*-%%%%%%%%#%(+*)#'$'%%#%(+*)#'$'%%#%(+%%#%(+%%#%(+*)#'$'&%#'$'&%#'$'&%#'$'&%#'$'%%#%(+%*#$+'%%#%(+%*#$+'%%#%(+%*#$+'%%#%(+%*#$+'%&#$''%&#$''%&#$''%&#$''%%#%()$'#%&'$'#%&'$'#%&'$'#%&'$'#%&'$'#%&'$'#%&'$'#%&'$'#%&'$'#%&'$L#$Q%%%#%(&¡#%&&©#& &&¯#$¨&&µ#$®&&»#$´&$¿#$º¿%%#%(Î$Ù#%ØÛ%%#%(+%%#%(%N)#K$)%%#%(+%*#$+'%&#$''%&#$''%&#$''%&#$''%&#$''%&#$''%&#$''%&#$''%&#$'H$M#$HM%%#%(+%*#$+'%%#%(+%*#$+'%%#%(+%*#$+'%%#%(+%*#$+'%&#$''%&#$''%&#$''%&#$'İ)į#%ĶĹ%%#%(Ĭ)į#%ĶĹ%%#%(Ĭ)į#%ĶĹ%%#%(Ĭ)į#%Ķ+*ķ#%İ'&ı#%Į'&į#%Ĭ'&ĭ#%Ī'&ī#%Ĩī%%#%(+%%#%(+%%#%(+%%#%(+%%#%(+%%#%(+%%#%%%%%%%*-%%#%%%%%%%*",
"name":"Lib_Column_MESH01",
"normals":"ޗ^£iȢFƁ_Θ#ȢGƼ_æg£^#_¢fȡGǿ#ȣFƽ^éh£a¬ƶAȢȅAȢȄ@Ťƃ@Ƙn^ß¢^«Ʒ@ȣ#ȅAťWoaТ#ǟ^ƢƣƢāĀ##ĀāƢƣǞǟƢƣĀā##āÅ_#^ÄĀĀÄ^Ƞȡ_ǜɿĠǿ###āġ~ǝ˸1ƵhƦëĤ#\\êÁżůƴǃżƧêĥ#]ëÀŽǛ­#¬Ƙƙ#ƘȢ#Ȣ#Ƙ#ª«#ª«ª#«ƙ#ȣ#ȣ#ƙ#­#ɤiDĂßƧͤĥ̆ăĥ#ͤƧßĂDi#hĥĥĥßiȦ###########У###Т###Р###С####˷#####˶####˶#####٭­h¢ŜFǾȣFǾȢGƼƙGƀæ«_¢gªg£ŝGǿ#ȣFƽ^éhW­`ȂAȢ#ȣ@Ϧ@ŤVƙAȂ^ßVª_ȃ@ȣ#ȅAťWoaТƣ_ǞƣƢāĀ##ĀāƢƣǞǟƢƣĀā##āĀ͝£Ƞ^#_ĀĀĀÄ^Ƞ£ǝ^āÄ~ǿ#ĀāǿĠĀŽiƴZëĤ#\\êÁżůƴǃżƧêĥ#]ëÀŽǛ#­#Ȣ#Ȣ#ȣ#Т#Ƙ#ƙ#Ƞ#«#ª#ȡ#ȣ#ȣ#ƙ#­#ȞhGƃƦÞ#ĤȄȅ#Ĥ#ÞȦ£Ƨh#ißĥĥßiȦ###########У###Т###Р###С####˷####˶####˶####ءFǾ#Ι^ƀGȣhf^ŜFǾ#ǿGТGǿ#Θ_ægg_ŝGǿ#ȅȄ#ȣťWo¢W­àWƶƃWƘȢ#Ȅȅ#ȢŤVn^ßVƷ@ȣ####āĀĀāƢƣǞǟƢƣĀā##āĀƣƢǟǞƣÄĀ#ĀÄ^_Åā##āġ~ǝƠȡ#Ƞ^ǝɾġǄ\\#ĥÀŽŮƵǂŽƦëĤ#\\êÁżůƴǃżƧê̥Ȣ#ȣƙƘ#ƙ­#¬#Ƙ#Ȣȣ#ȢȢȣ#ȢƘ#ª#«#ƙ#ȣ#ĥĤͥƦÞăEhƧƦiǡȂĂßƧͤĥȦĥǠhißĥ########Р###С###У###Т###˶####˷#####˷####˶#####ȣȢ#ǿƽ^é¬^£f^Ŝƙ^ƀǾȣFǾȢȣ#ǾƼ_ægg_ŝGǿ#ȅAȢ#ͥWoa¬V#WƶAƙVͤ#Ȅ@ȣ#ͤVn^ßVƷ@ȣ##āĀ#ĀāƢƣǞǟƢƣĀā##āĀƣƢǟǞƣƢǿǾ#āǞāƢ^_Åā#ǿĠĀƣÄɿ£Ƞ^ɝ¢ǜ_ƤëĤ#ŽŮƵǂŽƦëĤ#\\êÁżůƴǃżƧê̥#Ȣ#Ι#­#¬###Ƙ#ƙ#Θ#Ȣ#ȣ#Θ#ª#«#ƙ#ȣ##ĥɣƂĂß#iš£Ǡh#ÞĤȅĂĤ#ĤÞhißĥ########Р###С###У###Т###˶####˷####˷####˶####Сƕ#Ɣ#ƕ#Ɣ#ƕƔƕƔƕƔƕ#Ɣ#ƕ#Ɣ#ƕƔƕƔƕƔƕƔƕ:#ż#ŽżŽ#ż#ŽżŽ#ż#ŽżŽ#ż#ŽżŽżŽżŽżŽżУ###########Ɋɋ#ɊɋɊɋɊ#ɋ#ɊɋɊʩ#¦#§¦§¦§¦§¦§¦§¦§¦§¦§¦§¦Ζ###############################Η#ȼȽ#ȼȽ#ȼȽ#ȼ#Ƚ#ȼȽ########ޔ###ࠡ###Т###############˷#####################˶#Ɣ#ƕƔƕ#Ɣ#ƕƔƕ#Ɣ#ƕ#Ɣ#ƕ#Ɣ#ƕƔƕƔƕƔƕƔƕƔ;Ž#ż#ŽżŽ#ż#ŽżŽ#ż#ŽżŽ#ż#ŽżŽżŽżŽżŽР#ʯ#Ɋ########ɋ#Ɋ###ɋ#Ɋ#ɋ#Ɋ#§#¦#§¦§¦§¦§¦§¦§¦§¦§¦§¦§Η###############################Ζ#Ƚ#ȼ###Ƚ#ȼ###Ƚ#ȼ########ޗ###ࠠ###С###############˶###################",
"textureCoords":[
{
"UVOffsets":[
-3927.2829863297761,
158.89259957949758
],
"UVScales":[
0.00025228899433187447,
6.2935591732699644e-05
],
"UVs":"ᆍû#ú౩ú#û#úûúûúᦺú#û䃙#պ#િ#Փ#Փ#է#չ#䩚Ɨ#ƖŢ#ׄ#z#{z|#|#}|㠋պ#ջէ#Փ#Փ#է#չ#䲂ţPƮ͏OĻgÇÄÉƀǜQǂNĺfÆÅÈȑ#䯳ոզՒՒզպ㣮L¿Q`QĆKፇQzR£N࠶¾Ùų:ů=ēiuĞiŴ=Ű<Đjr࣡ŗ#Ŗപû#úŌ#Ō#ü#өŗ#Ŗ㜙պ#ջէ#Փ#Փ#է#չ#䩔Ƌ˖G©@ذ#؛CDܦE#Dù#㞗պિՓՓէչ幖ߟ#ߞ࿽#ޤ#ᕑ#Ð#ǎ#Î#s#Î#ǎ#Ð#ࠒ?##>ફA##@#ሬ@##Aཹ?##>#ЮǱ#ǰŴ#ˀ#û#úû̷#ú#ᆘ#û#碡ջ#պզ#Ւ#Ւ#զ#ո#岰|#}#|႟#Ɨ#˖#ţ#Ɨ#˖#栍#ջ#ા#Ւ#Ւ#զ#ո#垪È'ÉeĹOǃPǟƁÈÅÆfĺNǂQǜ఻ÃM¾倃ոઽՓՓէջ捼×RÎ৺#૗ÔJÍێÞQÙᇨ&¸iŲ=Ű:Ėfzęhų<ű;ėiሣ#ō#Ȥ#Ԕ#ŗ#ɠ#Ы#ŗ#ɠ#栙#ջ#ા#Ւ#Ւ#զ#ո#岖#ᇝCƊə¨E¥ĎƊ˺#D#漙պզՒՒզո壎#ߞ#?ޥ#ޤ᮳Ñ#ÐŬÑ#ÐƎÑ#ÐɽÏ#Î᭖#>#?#ޥA#ߞ߁#A#@#ޤ>#ߟ⧯#ޝ#⽁#լ#ಥ#ݝ#խ#̠#ݚ#旞࡯#࡮#࡯࡮࡯࡮࡯࡮࡯࡮࡯ԉ#Ɖ#ƈƉᴉ׳#ײԪ#۟п#о־#᪰#Ύ#ΏΎΏΎΏΎΏΎΏΎޱ̓ʻψĻʽ֚ȍ܎ÙڨÐ҂ȄĲʸʯʺ֙Ȋ܏ØکÏᤝݗ⍼######樇ۨA۸DӚvщkܵ$ڽc冰эӼŨƢƫƠГĺիՙϡĽūƣƪơВĹը૧#ⱝ#♴#ⱝ#ⱜⱝⱜⱝⱜⱝⱜ#ⱝ#፹#沄#沅沄沅沄沅沄沅沄沅沄ǎ#愿@՛m䟖׃㎅Sϯ2㴨;׃;৚֑἞######ཷ#ᾯ#䃄ễ#Ễ㤽ᾯ#ᾮ#ἥ#ἤ㦰ᾭ#ᾬ#ἣ#ἢᾭ#ᬑἥ#Ḻᬐᾬ##ἣ#Ḻک#΅#΄΅旇ݜ#ݝݛ#䶎ޝ#ޜ䝹ݚ#ݛ氠#࡯#࡮࡯࡮࡯࡮࡯࡮࡯࡮࡯戹#־#৛#朂ƈ#Ɖ#ƈїƈ#Ɖ#ƈХΎ#Ώ#ΎΏΎΏΎΏΎΏΎ⌷ÑݖÛܐȍ֚ʽʮʹıȇ҃ÏګÚܑȌ֛ʼʯʸİȆ๰ܬ۩ᨔ######໢ܑKېミݖᰨՉpԖ⛭ԮDӽ㢩׃तĸžƠƙƢЅļե՟ϱĹŽơƘƣЂĽᄺⱜ#ⱝ#ⱜⱝⱜ#ⱝ#ⱜⱝⱜ#ⱝ#ⱜ䚓沆#沇#沆沇沆沇沆沇沆沇沆噳֑ļ֚iխ慎#橱ϼ6ϛ杬#ᮣױ:׀ᢆ######」ᾯ#ᾮ䋄#ễ#᪛#ᾯ#ƙ#ἣ#禲#ᾭ#ᾬ#ἣ#Ắễᾬễ###ỄᾭỄ###"
}
],
"vertexCount":478,
"vertexOffsets":{
"xOffset":-1214.3369274942829,
"yOffset":-1193.5172682241075,
"zOffset":-3922.5236257933975
},
"vertexScale":0.094836904882824424,
"vertices":"ᄥ#ō#Ѻ#͑#ި#Ѻ#͐#Ō#ō###Ō#ѻ#ѻ#ѻ#͑#ō#˺ċ#Ċʚ#΂΃#΂΂#ʜʝ#ʜĈ#ĉĈ#ĉʝ#΃#΃#ʛ#ċ#ĊċǁłƈƉЀñѐ#΂òǌƈ£ǀʧƈЃòѓ#΃ñ̳Ń#ł̲ѐђ̲ŀtuŁh͹Jѻ###ёM̉kˎãđĂ˾ͦ#˰Ƹð1ĐǑð˽ͧ#˯ƹñðã#âȰȱ#Ȱˮ#˰#Ȯ#âã#âãâ#ãȯ#˱#˯#ȱ#ã#1ă͊>ʇS׺ͧۆ?ͧ#׼Uʇ>͊ă#Ăͧͧͧʇăဦ#ጛ#ዔ኏#኎hጛ#ጚጛ####ጚ#ጛጚ###ihጛ#h#i##h##iጚ#i#h##i#ჟō#Ō͐#Ѻѻ#ѺѺ#͐͑#͐Ōō#ŌōŌ#ō͑#ѻ#ѻ#͑#ō#˺#ċ#΂#΂#΃#ۢ#ʜ#ʝ#΂#ĉ#Ĉ#΃#΃#΃#ʛ#ċ#ĊƉŃǀ¡ƈǌð΂#ђóЂƉʦǁ¢ƉǍó΃#ёðщōtł#Ńђѐђ̲ŀtōiŀё̲̋ѻ#ђѓѻLѐӽñăĐ˰ͦ#˰Ƹð1ĐǑð˽ͧ#˯ƹñð#ã#˰#ˮ#˯#ּ#Ȯ#ȯ#ˮ#ã#â#˯#˱#˯#ȱ#ã#đĂɪʛRʆ#ͦ΂΃#ͦ#ʆĺĉUĂ#ăʇͧͧʇăဦጛ#ጚi#኏#ዔ#ጛ#######ጚ#####i኏iጚi኏#i##h኎hጛh኎#h##෍#Ѻ#ީ#͐#ѻ#Ō#͐#Ѻ#ѻ#࣒#ѻ#ި#Ō#ō#͑#ѻ#΃΂#΃ʝ#ĉĈ#ĉĈ#ʜʝ#ʜ΂#΂΃#΂ʚ#Ċ#ċ#ʛ#΃#΃΂#ѓ޲òǊƊ£ǀʩƊЃòѓ#΃óǍƉ¢ǁʦƉ̲ђ#ђ̲ŀŁ̳ѓ##ѓK̋iûu#tŀi͸KƬ˰#ͧƹñ0đǐñ˼ͦ#ˮƸð1ĐǑð˿ص˰#˱ȯȮ#ȯã#â#Ȯ#˰˱#˰ˮ˯#ˮȰ#â#ã#ȱ#˯#ͧͦ׽Tʆ?͋ĂUTă[΂>ʇU׼ͧڪͧ׊Ăăʇͧॴዉ#ወi#ሻ#ኀ####ዉ#ወዉ####ወ#ዉኂh##i#hዉ#jሺሻk##j#kወ#iሻӖѺ#ѻ͑#ōŌ#ōŌ#͐͑#͐Ѻѻ#ѺѺѻ#Ѻ͐#Ō#ō#͑#ѻ#΃#΂#׽#ĉ#Ĉ###ʜ#ʝ#׼#΂#΃#׺#Ċ#ċ#ʛ#΃#΃óђ#ђóЂƋʨǁ¢Ƌǋó΃#ѓòЃƈʧǀ£ƈƤѺ#ѓࢂѓݢŀŁ̳ѓ#ѻJђݣ̲͹ōtŀƓŌhŁֲͦ#ӽñ0đǐñ˼ͦ#ˮƸð1ĐǑð˿ص#˰#ӽ#ã#â###Ȯ#ȯ#Ӽ#ˮ#˯#Ӽ#â#ã#ȱ#˯##ͧʹʜ>ʇ#ăÐĉZĂ#ʆͦ΃>ͦ#ͦʆĂăʇͧॴ#ዉ#ኂሻ#ሺh#####ዉ#######ወ#i#h#i#ሻk#ወኁ#k#j#ሺh#ዉǽȫ#Ȫ#ȫ#Ȫ#ȫȪȫȪȫȪȫ#Ȫ#ȫ#Ȫ#ȫȪȫȪȫȪȫȪȫō#ú#ûúû#ú#ûúû#ú#ûúû#ú#ûúûúûúûúûú#################################tu#tutut#u#tutƧ#>#?>?>?>?>?>?>?>?>?>?>᫗#᪺#᪻#᪺#᪺᪺᪺᪻᪻᪻᪻#᪺#᪻#᪺#᪺᪺᪺᪺᪺᪻᪻᪻᪻᪻>#`a#`a#`a#`#a#`a########լ###ȉ###Ȉ#ǃ#ǂ#ǃ#ǂ#ǃ#ǂ#ǃ#ih##i#h##i##h##i#h##i#㱡#Ȫ#ȫȪȫ#Ȫ#ȫȪȫ#Ȫ#ȫ#Ȫ#ȫ#Ȫ#ȫȪȫȪȫȪȫȪȫȪŌù#ø#ùøù#ø#ùøù#ø#ùøù#ø#ùøùøùøùøù########################w#v########w#v###w#v#w#v#Œ=#<#=<=<=<=<=<=<=<=<=<=᫖᪽#᪼#᪽᪽᪼#᪼#᪽᪽᪼#᪼#᪽᪽᪼#᪼#᪽᪽᪽᪽᪽᪼᪼᪼᪼=#c#b###c#b###c#b########կ###Ȋ###ȋǂ#ǃ#ǂ#ǃ#ǂ#ǃ#ǂ#ǃȊ#k#j##k##j#k#j##k##"
}