{
"boundingBox":{
"max":[
104.19618936036136,
185.12826894985082,
61.345180511474609
],
"min":[
-104.19610283155279,
-185.12831002069993,
1.090362548828125
]
},
"colors":"",
"compression":{
"compressed":true,
"compressedColorsRange":255,
"compressedUnitVectorRange":1023,
"compressedVertsRange":16383
},
"indexLengths":[
3168
],
"indexModes":[
"Triangles"
],
"indices":"#%%&'%%%%$$)%%%#$'69%:;8;*%+%%$$)%%%$$)%%%%&$+%%$$)%%%#$'%%%$$)%%%$$)%%%#%(+%%$$)%%%#%(+%%$$)%%%#%(+%%$$)%%%$'$'%%$$)%%%$$)%%%$$)%%%$'$'%%$$)%%%$'$'%%$$)%%%#$'%%%#$'%%%$$)%%%$$)%%%$$)%%%%$$)%%$$)%%%$$)%%%$$)%%%$$)%%%$$)%%%%&$+%%$'%()&)ł'&Ń%%%(#+&&)&ĂOßĎđüC0í%%ö@QNOPWD$4#5.Añôõðõä$.#/2A'U#TQ'S#RUI4'&5$j2'&3${'·#¶¹Ă$ć#Ćĉ°0'&1'l.$%/$\\<98=@Y&'X'('&)''4#50åļ(ŃłŅÌÏ%$Î'''&&$©'4#50Y8549:+,$%-%¥ '¤-'&,'āA@Ā'2čĐď%ČOã&'â'6óìñ&òđ%%&'%%%%$$)%%%&'%%%%%%%$$)%%%$$)%%%$$)%ƴ)ƯƮƱ%¨'¥¤§FI%JKHK@()A%8tľ(Ɲ()ƜƯ:Ɛ(Ʊj)edg%^)YX[%%%$$)HK%$J'59JC-%$,$3<%;:=%%~@%?>AǘƳƮǉÚ()Û$3.%-,/%*%)(+%%ǖ#ǗǔǗǐǓǒǑǎǓǎ'&Ǐ%ǆǉ%ǊǋǈǇǞǕǔǟǈ:Ǚ&'ǘ-Ǖ)ǖ#Ǘ´³ǐ+*Ǒ(-%%$'$'%%$'$'%%$$)%%%$$)#@=<'9:-(),);254'1.),-(%8$ƾ#ƿƼǇƺ)(ƻ$ƨ)ƫ#ƪƱ+(Ƣ#ƣƨƯǚƽƼǛƨVǇ()ǆ1ǁ3ǀ#ǁÚÓƲ-,Ƴ$4C%$B%)?%$>%)$=<?$2$98;$8//..8%);:A($-+*,0$-547$pº&}»´µº½$ĖFÝ%$Ü'KK&'p|ß%%$$)%%%$$)%%%#%(096987'($-%%$$)%%%$$)%%%$'$'%%$$)%%%$'$'%%$$)%%%#$'%%%$$)%%%#$'%%%#$'%%%$$)%%%#$'%%%#$'%%%#$'%%%$$)%%%#$'%%%$$)%%%#$'%%%$$)%%%$$)%%%&'%%%%%&$+%%%&$+%%%&$+%%%&$+%%&'%%%%&'%%%%$$)%%%&'%%%%$$)%%%$$)%%%$$)%%%#%(+%%#%%&$''ľ$ŁŀŃ%&)(''*%'ĊďÚR/āàãîñô÷Ĕ$W#%V3$.#%/7(õ#'ò/$.#$31SLM)Rj(W#%Rg1./07p0761.»´µ%¶n$ć#%Ćk30125n,/.-.R8()9$£TWVUR(/.)&.10%/Ŀ%ľĽľŃÎÑÐÏÌ+()*1.54%3K<$%=(0,/.-&­¡¢£ &-&',/}üěĚýĀā$ĎđĐ'ďÞÛÚßâã'öóò'č%%$$)%%%$$)%%%$$)%ɂɅɀɃɀɁɂɅ%ȾɁɀȿȼɁȺȽȼȻȸ'»()º%%ǅ()Ǆ%ȥ12543,12303,ƆĿmƎƍƌƏ-.ƌ)ƕN()O%%B()C%%%%$$)ɖə>?ɘMȝ,A%*-,+.38$%9%%be%<$%=%ǂ)ƙªÃÈÉÂÁ3,$%-%%($%)%%%ƾƽƼ'ƽ%ƺƹƸ')ƳƶƷƲƵƪƭư#Ʊ%#0ƸǇǆ7:ǁƴƵǀƿƬŁƺƻ(%ƺƷƶƻƬƳ%%#$'%%%#$'%%%$$)%%%$$)$$<#=:%)$%(%=%4#5.$-(),$4'ƪƧƦ'ƯƞƛƚƟƢƧƒ&Ɨ'Ɩ3&ƏƊƋ'#>ƢƿƾSVƯƚƛƮƫƊćÃƦƧ2+ƚƗƖƛƎŹE@ADG>A<=@C69<#=%258#9%:/FG.;NA<#=)*-89,5D?2#3%r¤'÷¨«#ª%©¨zaƌƓƒƍƊƩ?%#$Â'c%%$$)%%%$$)%%%&)&296987'*$/%%$$)%%%$$)%%%$$)%%%$$)%%%$'$'%%$$)%%%#$'%%%$$)%%%#$'%%%#$'%%%$$)%%%$$)%%%#$'%%%#$'%%%$$)%%%$$)%%%&'%%%%#$'%%%$$)%%%#$'%%%$$)%%%%&$+%%%&$+%%%&$+%%%&$+%%&'%%%%&'%%%%$$)%%%&'%%%%$$)%%%$$)%%%$$)%%%$$)%%%#%%&$''%ľ&'Ŀ%$'&)$&$+ČďÚR/āàãîñô÷Ĕ$W#%V3$.#%/7(õ#'ò/$.#$31WPQ$Nj(U#'Rg30125j41052»´µ%¶n$ć#%Ćk1./07l0-,12j;$:=:½XWVYV+$%*1.54%3Õł'&Ń%%ÎÑÐÏÌ$+*%(©.10%/I6=>?<&-&',/§$%%,/.-&üěĚýĀā$ĎđĐ'ďÞÛÚßâçòïîóöđъ$%ы%шыфхъэ%т$%у%%%%%%%$$)%%%$$)%%%$$)%Ƣ()ƣ%%()%%H'&I%>ADE@C6ƆĻsƒƏƎƓ58Ǝ+Ɵ\\$%]%%X$%Y%%тхфум%ЙЖЗИП54C%&)('(-2$%3%%nq%6$%7%ǆ'ƥ´ÇÌÍÆÅ3,$%-%%($%)%%ǂ'ƿ%Ǆ1ƹƼ#ƽ%%ƺƽƼƻƴƹ%ƶƵƴ'<9ƷǌǍ0'ǆǅǄǇƸǅ(ƼǃǂŅľƹưƱƸƵ-%%#$'%%%#$'%%%$$)%%%$$)$$<#=:%)$%(%=%4#5.$-(),$4ƪ'Ƨ'Ʈ1ƩƢƣƨƥ+'ƚƗƖ&ƣ'ƒƏƎ(LSƓǂǃ>+ƲƯƮƳƤƽ2ƚƫƪćĂƟƔƕƞƛ4E@ADG>A<=@C69<#=%258#9%:/FG.;NA<#=)*-89,5D?2#3%r¨'m'­°±%$¬xćӴßÞӵÊϼпBОϑf%o%%&'%%%%$$)%%%&)&29%:;8;,'+%%$$)%%%$$)%%%#$'%%%$$)%%%#$'%%%$$)%%%$$)%%%$$)%%%$$)%%%#%(+%%$$)%%%#%(+%%$$)%%%$'$'%%$$)%%%$'$'%%$$)%%%$'$'%%$$)%%%$$)%%%$$)%%%#$'%%%#$'%%%$$)%%%#$'%%%$$)%%%%$$)%%$$)%%%$$)%%%$$)%%%$$)%%%$$)%%%#$'%%%$'%()&)ľŁŀ$Ń%%&#'%()*ĀOßĎđüC0í%%ö>$Q#PWD$4#5.='ñ#ðõä$.#/2A'O#NU 'S#RUE0'&1'n0'&1'w'·#¶¹Ă$ć#Ćĉ¬4'&5$j.$%/$\\>';:7qU'&T'+'&*''4#50åľŁŀĿłÏ%$Î'$&'%''4#50U6%547:-%$,$³ -.'&/%¨āA@Ā'2čĐď%ČOã&'â'0ñ&'ð(đв$едз%в'&г%%Ъ$ЭЬЯ%%ȮȱȬ'&ȭ%Ȧȩ%$Ȩ''ȥ%$Ȥ''©)®¯¬%Ƶ'Ƹƹƶț0$#5$'0$%1%,bĺŽƂƍƌƃ$#ź(ƏH%GFI%D%CBEЦЩ%$Ш'%ȋȧȦȊȮإ1:9'%$&$-4%325%%Z]8%769ưƓƌƟ°()±$3.%-,/%*%)(+%ƬƯ$Ʀ(-Ƨ%ƨƩƦƩƠ%$ơ%%ƞơƠƟƜƑ1ƴ#ƵƠƙƲ/.Ƴ&1ƨƣƢƩľƣ&'Ƣ)ƣ%%$'$'%%$'$'%%$$)%%%$$)#@=<'9:-(),);254'1.),-(%ƪ$ƕ#ƔƗ+ƌ$%ƍ$1(ƀ#ƁƆƕ(Ÿ#ŹžŧAư#ƱžũƜ54Ɲ(AƖƇƆƗ°ĂƉ$%ƈ-ūC%$B%)?%$>%)$=<?$2$98;$8//..8%);:A($-+*,0$-547$p&m$£#¢¥$ìoƖːедˑиǅЧξЏ;P[X",
"name":"Lib_Table2_MESH02",
"normals":"ҟ#є###ϗ# ¡°#ı˄ư#Ʊťʋ̲ʋ˳ưƱưŤʊ̳ʊƠ###Ũe#d;FIHɳḐDʞ¯ʟȁe#d[9#8ɜE̦Eʕ¦ʦȲ#/##.#/Ɂ̦̏̏;̎:̏ɍ#.##/#.ɀ˶̧̦̏̎˷̎Ĝ<=<ϕPȬQΧ<#=Φȭɚȭφ###ɩ###ɨ###v*#+ʽ###ĭZ[^Ȱ#######Ǔ######ñŠ0ůMħ$:;D¢Ë(:pPҞ$#%П##%̺,#-̹################½#¼О#ę#<-#,̓##̨#Ě#С#̬#Ĕ#č#ē#ťǣť#̤ǣ#ф##ɻ˓̯̀ǟ#Ȍ̯̀̀˓QՊ#Ճ̞Ճ#Ɇ̞̟Ơ#### #ѕ###ϖ#¡ ±#İ˅ƱưƱ˲ʊËʋ՚ƱưƱťʋÊʊЉ###ũdedKIFGɐ̄D̅¯ʞ®ɂedeZ898ɑE̅Dʂ¦ʕ¹ȳ./.#/./Ɍ;̎:̧̎:̏Ԡ/./#./.ɍ̏:̧̦̎;˷ŏ<=<ΌȭPȬƜ=<=΍ȬQȭƽ###ɨ###ɩ###w+#*ʼ###ôZ#_ȱ#######ǒ######ðš1ŮLĦ%;:E£Ê);P¿ҟ%#$О#$%̹-#,̸#&#####¼#½П#Ę#3-,-͂#̩#ě#Р#̭#ĕ#Č#Ē#ŤǢŤ#ťǣǢхɺQ̀PǞɻ́P̀QPՋ#Ղ̟Ղ#ɇ̟̞ơ##¡#є###ϗ ¡#°#ıђƱưƱťʋÊʊ՛ư#Ʊ˲ʊËʋЈ###ŨedeJHGFɳ̦̅̅ɺ®ʟ¯Ƀded[989ɲ̧̄̄ʃ§ʔ¸Ȳ/./#./.ɍ̏:̧̦̎;˷ɍ./.#/./Ɍ;̎:̧̎:̏Т=<=΍ȬQȭƝ<=<ΌȭPȬƼ###ɩ###ɨ###v*#+ʽ###õ[#^Ȱ#######Ǔ#####šð#0ůMħ$:;D¢Ë(:pPҞ#П#̸#̹################½#¼О#ę#2#̨̹#Ě#С#̬#Ĕ#č#ē#ťǣť#ŤǢǣфɻṔQǟɺ̀Q́PQՊ#Ճ̞Ճ#Ɇ̞̟Ơ## #ѕ###ϖ¡ #±#İѓư#Ʊ˲ʊ̳ʊŤ#ư#˳ʋ̲ʋơ###ũd#e:GHIɐ̄ˣ̄­ʟ®ʞȀd#eZ8#9ɝḐDʔ§ʧȳ#.##/#.ɀ˶̧̦̏̎˷̎ȴ#/##.#/Ɂ̦̏̏;̎:̏ĵ=<=ϔQȭPΦ=#<ϕPȬQχ###ɨ###ɩ###w+#*ʼ###Ĭ[Z_ȱ#######ǒ#####Šñ#1ŮLĦ%;:E£Ê);qQҟ#О#̹#̸#&#####¼#½П#Ę#3#̸̩#ě#Р#̭#ĕ#Č#Ē#̤ǣ̤#ťǣǢх##ɺ˒̮́Ǟ#ȍ̮́́˒PՋ#Ղ̟Ղ#ɇ̟̞ơ#)(#)ʛ###ƣ#£¢И#ҙƆʓ̺ʓţƱ#ưºʒÊʓ̪ư#ƱĶ###Ǖ̏ˮ̏¤ʰ»ʟǽe#d[989ɮC̮Cʅʨ̷ʨʊd#eLFGFɧ˿̖̯̮̗˾̗ȳ,#-,-,-Ɋ˾̗̮̯̖˿̖Ȳ#-##,#-ӍPȰQΑ=<=ΪȱɞȱΪ=#<Ɨ###Ǣ###ǣ###ĹF#G˸###>010Û#######ɹ######îđŮҋ͕̾H-3dŢƱH-ĺ=ȺJz#{z$#%ed#gf##̰.#/̱######$О#ć#̽#̢#̡s#4&Ze%f##$a$n#3%0#X#5#ĹǪ̫#̪ǫ̪#ѫ΢˛̻̊Ǜ##ɸ̻̊̊Ȋ#ګɐ̪Ջ#ɂ̪ɂ#ݫφ#$%#К(#)ʛ###ƣ#£¢И#ҙƆʓÊʒϓƱưƱՠËʓÊ̪ưƱư###Ǖ̏C̎ºʱ©ȿded[989ɎB̎Cʅʨ±ʩՒedeLFGFɧ:̗;̮̗;̖ԧ,-,#-,-Ɋ;̖:̯̖:̗Ԧ-,-##,#ҩȰQȱƝ<=<ΐȱPȰƜ=<=Ž###Ǣ###ǣ###ĹF#G˸###L1#0Û#######ɹ######îđŮҋ͕̾H-3dŢƱH-Ġ<ȠJz#{z$%$gd#gf#̰#̱##$%#̢#̡s#4&-dgf#$a$n#3%0#X#5#Ôǫţ#̪ǫ̪#ѫ΢R̋SǛɸ̊S̋Ӳܙɐ̪Ջ#ɂ̪ɂ#ݫφ##Л)#(ʚ###Ƣ¢£#Й#ҘĮʓËʒŢưƱưɉʓǪʓ»ƱưƱ###ǔ̎B̏»ʰ¨Ǽd#eZ898ɏC̏Bʄʩ°ʨԑe#dMGFGɦ;̖:̯̖:̗Ԧ-,-##,#ɋ:̗;̮̗;̖ԧ,-,#-,-ҨȱPȰƜ=<=ΑȰQȱƝ<=<ż###ǣ###Ǣ###ĸG#F˹###M0#1Ú#######ɸ#####î#ĐůҊ͔̿I,2eţưI,Ļ<ȻK#}#f$g##̽./.̰######%С#Ĉ#̼#̣#̠r#5',$i`%o#2$1#Y#4#ÕǪŢ#̫Ǫ̫#ѪΣS̊Rǚɹ̋R̊ӳܘɑ̫Պ#Ƀ̫Ƀ#ݪχ#%Й)#(ʚ###Ƣ¢£#Й#ҘĮʓǪʓϒư#Ʊţǫʒ̻»Ʊ#ưķ###ǔ̎˯̎¥ʱºʞȾe#d-898ɯB̯Bʄʩ̶ʩʋe#dMGFGɦ˾̗̮̯̖˿̖Ȳ#-##,#-Ɂ˿̖̯̮̗˾̗ȳ,#-,-,-ӖQȱPΐ<=<ΫȰɟȰΑ=<=Ɩ###ǣ###Ǣ###ĸG#F˹###?101Ú#######ɸ#####î#ĐůҊ͔̿I,2eţưI,Ļ<ȻK#}#f$g#̱#̰##%$#̣#̠r#5',$i`%o#2$1#Y#4#ÕǪŢ#̫Ǫ̫#ѪΣ˚̺̋ǚ##ɹ̺̋̋ȋ#ڪɑ̫Պ#Ƀ̫Ƀ#ݪχ#С#######Р#10С#ВÑͥ#ͤ#ͥ#ͤͥͤͥͤ#ͥ#ͤͥ###Âɟ#ɞČƭƺƻƿɜ#ɝ̨ƍƌƍƿɞ#ɟ̪Ə#Ǝ̫ɜ#ɝ͐ƵƨƩĳ#%#Ɇ%#$Ʌ%#$Ʉ%$%Ƀ#%#Ɇ%#$Ʌ#%#Ɇ%#$Ǽ)()&'&'#(#)#&#'U###֑###(###հ1#.D###կ()(մ###֯###ŝ####ࠔ.##K>%=ʏʨГĴ%ɝԀͥĵ$М'ĬГ###С###ƚ*#+ڦ##ƕ+#*گ###ࠠ###С#ʧ#ڤ#Ə#ƎС#ʽ#Ժ*#+Ƣ##Ƈ#ʽ#С%Ɗ%ʼ#ʯ#Ù########Ƅ#Ȃ#ȃ#Ȃ#ȃȂ#ȃ#Ȃ#ȃ#ȂÐ########ӑ#$%ࠠС#######Р#10С#ВÑͥͤͥͤͥͤͥ#ͤͥͤ#ͥͤͥ####Âɟɞɟ͖ƻƬƭÀɝɜɝ̨ƍƌƍÂɟɞɟ̪ƏƎƏÀɝɜɝ̈́ƩƴƵĳ%$%Ɇ%$%Ƀ%$%Ɇ%$%Ƀ%$%Ɇ%$%Ƀ%$%Ɇ#%#Ǹ()()&'&'()()&'&Y###֑###(###հ1#.D###թ)#(մ###֯###ŝ####ࠔ.##K>%=ʏʨГĴ%ɝԀͥĵ$И&ĨГ###С###ƚ*#+ڦ#ƕ#گ#ࠠ###Ə#ƎС#ʽ#Ղ+*+Ƣ#Ƈ#ʽ#С%Ɗ%ʼ#ʯ#Ù########ƄȂȃȂȃȂȃȂȃȂȃȂȃȂȃȂȃȂÐ########ӑ#ࠠС#######Р10#С#ВГͤͥͤ#ͥͤͥ#ͤ#ͥͤͥͤͥ####Âɟɞɟ͖ƻƬƭƿɜ#ɝ̨ƍƌƍÂɟɞɟ̪ƏƎƏƿɜ#ɝ̈́ƩƴƵĳ%$%Ɇ%$%Ƀ%$%Ɇ#%#Ƀ%$%Ɇ%$%Ƀ%$%Ɇ%$%Ǹ()()&'&'()()&'&Y###֑###(###հ1#.D###թ)#(մ###֯###ŝ####ࠠ/?J#/%=ʏʨГĴ%ɝԀͥĵ$М'ĬГ#С#ƚ#ڦ##Ɲ*+*گ###ࠠ###С#ʧ#ڤ#Ə#ƎС#ʽ#Ղ#ƚƇ#ʽ#С%Ɗ%ʼ#ʯ#Ù########ƄȂȃȂȃȂȃȂȃȂȃȂȃȂȃȂȃȂÐ########ӑ#$Р#######Р10#С#ВГͤ#ͥͤͥ#ͤ##ͥ#ͤͥ#ͤͥ###Âɟ#ɞČƭƺƻÀɝ#ɜîƍƌƍƿɞ#ɟ̪Ə#Ǝ̫ɜ#ɝ͐ƵƨƩĳ#%#Ɇ%#$Ʌ#%#Ɇ%#$Ʌ#%#Ɇ%#$Ʌ%#$Ʉ%$%Ǿ)()&'&'#(#)&'&'U###֑###(###հ1#.D###կ()(մ###֯###ŝ####ࠠ/?J#/%=ʏʨГĴ%ɝԀͥĵ$М'ĬГ#С#ƚ#ڦ#ƕ#گ#ࠠ###Ə#ƎС#ʽ#Ղ#ƚƇ#ʽ#С%Ɗ%ʼ#ʯ#Ù########Ƅ#Ȃ#ȃ#Ȃ#ȃȂ#ȃ#Ȃ#ȃ#ȂÐ########ӑ#",
"textureCoords":[
{
"UVOffsets":[
69.68711073093661,
85.235377638563548
],
"UVScales":[
6.0481251082868282e-05,
6.0439994112443903e-05
],
"UVs":"縹#Ɵ#᳾ʣ#ʢڧRşiᎭƟᑂಒ̫͓͓ͥͤͥ͒ᙸͽ#ͼڳ͚͛͛≋ƟƞƟ₲ͥͤͥ#ͤ#̫ͥ#͓##͒#͓ᙸ#ͽ#ͼͽͼͽ͙#͛##͚#̷̫͓͓͛ͥͤͥͤͥͤͥ͒#͒#͓ᙸͽͼͽͼͽͼͽ͙͚͚͚͛͛͛͛ٹ#ͤ#ঝ#͒#࿮ͼͽͼ৫͚͚͛ਣʣ#ʢᮃ##ᬘʣʢʣ಼਽#਼✙#ƞ#ȋ#ɴ縸ء֒ԫͪ栓ÎƏöūจٟ೐ࠐƝƜ##########᫻⫞ಾ#ಿ½ླྀຎᷥ¼ಾ#ಿ⽗bΓฉ巾Ếῑ⁬歷Γ#ϼၧƟȈጺᑃᛸᶔ###᤬ಿ#ಾ㮓γ࠶Ḅ#ഉ#㝈࿊䛱#਽###ͤ٭͓ጞͼ৫͚ব࿹̫͓͓ͥͤͥ͒ᙸͽͼͽ͙͚͛͛೤#ጻͤঝ͒ፈͽ͙͛೤䥐௳ᆇ᳓⨋ᑯƟƞƟ紐ʢʣʢ穏RĮj۩ƞِ㎎ͥ#ͤ٭͕#͔࿬#;#ڵ͙#͘䀇#Ɵ#㬸ͥ#ͤ##ͥ#̫͕#͔##͕#ᙺ#Ϳ#;Ϳ#;ڵ#͙#͘#͙#̷#ͥ#ͤͥ#ͤ٭#͕#͔͕#͔ፈ#Ϳ#;Ϳ#;ڵ͙#͙͘͘#͙ٹͤ#͔ͥٝ#͕ጞ;#Ϳڏ͘#͙㻦ʢ#ʣ笫##縔ʣ#ʢಽ਼#਽狷ɴȋȈ##縸±֓ϒͫ玩ÏƐùŪ㔄١೒ࠐƝƜ##########᫽⦐ಽ#಼᧳ླྀཹᷤЕಽ#಼仯cગ巾὚牙ʃݛ׮悰###಑ಽ಼ಽ䊵ҧ恀#ഈ#ᓛ࿊Բ#਼###䇻̫͕ͥጞ;ڵ͙೤࿹#ͥ#̫#͕#ᙺͿ#;ڵ͙#͘ম#ጻͤট͔ፈͿ͙͙೤⋺௲玵ǋƝƜƝ稰ʢʣʢ椉şiŴ᎛Ɯ࿨㸄ͤ#̫͕ͥ#͔ፈͿ;Ϳ͙͙#͘块#Ɲ#劆ͥ#ͤ##ͥ#̫͕͔͕͔#͕#ᙺ#Ϳ#;Ϳ#;ڵ͙͙͘͘#͙#̷#ͥ#ͤͥ#ͤ٭͕#͔͕͔#͕ᙺ#Ϳ#;Ϳ#;ڵ#͙#͙͘#͘যͤ#͔ͥٝ#͕ጞ;#Ϳڏ͘#͙Ⓒʢ#ʣ硍##笶ʣ#ʢಽ਼#਽瀗ɲƝȈ#ү°֔ϕͬႼÏŗö䅴١೒ࠐƝƜ##########᫽ར#⥉ຍ㞲#䢍͓Β༅#ĂẾĲ⁫୐ΒΓϼඉƝȆ࿨ᇗᐘ侦###಑#䎩倖#ഈ#决࿋慚#਼###⟍̫͕ͥጞ;ڵ͙೤࿹#ͥ#̫#͕#ᙺͿ#;ڵ͙#͘ম#ጻͤট͔ፈͿ͙͙೤彯௰ᆆỉ#Ɲ#᨞ʣ#ʢួŞįŶʏƝӬ撨ͤͥͤ٭͕͔͕ᙺͿ;Ϳ͙͙͙͘湏ƝƜƝ沴ͥͤͥ#ͤ#̫͕͔͕ͥ#͔#͕ᙺ#Ϳ#;Ϳ;Ϳ͙#͙##͘#̷͙̫͕͔͕͔͕͔͕ͥͤͥͤͥͤͥᙺͿ;Ϳ;Ϳ;Ϳ͙͙͙͘#͘#͙ٹ#ͤ#ট#͔#࿬;Ϳ;৫#͘#夃ʣ#ʢᢥ##ᠺʣʢʣ಼਽#਼␹#Ɯ#Ɲ#Ɯ##ԙآ֕ԬͭϐÎŖù檨١೒ࠐƝƜ##########᫽⑇#ဓຍṼ#㖹c޷ᾞὛߞʃѻ̎⺞###ಐ#㪝⸮#ഉ#ו࿋ᕼ#਽###劸͔ͥٝ࿬;ڵ͙೤࿹̫͕͔͕ͥͤͥᙺͿ;Ϳ͙͙͙͘೤#ጻͤট͔ፈͿ͙͙೤禝௰ᅡఔ#కསƞƟƞ㑡̖ɋʄ⽎#ㆱॲΌ#΍#Ό#΍Ό΍Ό΍#Ό#΍⫂#ʅ#ẕᆘ#ᆙᓱݎݏݎἺᆙ#ᆘ♧ݎݏݎἺᆙ#ᆘ♧ݎ#ݏ♦ᆙ#ᆘ♧ݎݏݎજ#͊#ළϸ#Ϲજ͊#͋ઝϸϹϸۆ#͊#ළϸ#Ϲજ#͊#ළϸ#Ϲ☪ɐɑɐɑɐɑɐ#ɑ#ɐ#ɑ#ɐפɳ̍̌̍ʹ#ƞ՝̌̍̌̍కఔకᅠʅʄʅʄʅ#ʄ码©̓ЇƐ䣈±DøɁ##ƺƻࣦ#ϸ৮ᆘ᭥Όڄ͋᮰ɐㄝ㕘#ư#檟ዟᆨო窒##㍿Ƅş␞ଅ#଄嬍ဤ#ൡ㖈ڊ߇ބᇚ###ᨗĚ⿲#⣙ⰪƞȉƦ⛅#ϗ⩮Ɵƞ缧綼#ƞȉ∥########ᝄ#ɘ#ə#ɘ#əɘ#ə#ɘ#ə#ɘɘ########瀙޽⏺#㖞}క#ఔ≄ƞ#Ɵⴉ̗îʄѵ#ȒॲΌ΍Ό΍Ό΍Ό#΍Ό΍#Ό΍Όᄯʄʅʄᔮᆘᆙᆘ♧ݎݏݎහᆘᆙᆘ♧ݎݏݎහᆘᆙᆘ♧ݎݏݎහᆘᆙᆘ♧ݎݏݎજ͊͋͊ළϸϹϸۆ͊͋͊ළϸϹϸۆ͊͋͊ළϸϹϸۆ͊͋͊ළ#ϸ#⒂ɑɐɑɐɑɐɑɐɑɐɑɐɑɐɑԪ##㌉̌#̍ザƞ##〟̍#̌ఔక#ఔᅡʄ#ʅ#ʄ#ʅࡏΘ̓ֈƐВ±DøɁ##ƺƻࣦ#ϸ৮ᆘ᭥Όڄ͋ᷞɑ⻯㉰ưƱư䨟ዞïო䛬゗Ƅജ#╃˧ᬌوݧě̀#Ԗ⥂ƞȉȔ#⏝ϗ➆Ɵƞ㖇㌦#ƞȉἽ########ᝄɘəɘəɘəɘəɘəɘəɘəɘəɘɘ########々޻ᥠ}క#ఔ┬ƞ#ƟᦵɊʅ͎ᵩ#Პ෵΍Ό΍#Ό΍Ό#΍#Ό΍Ό΍Όᄯʄʅʄᔮᆘᆙᆘ♧ݎݏݎἺᆙ#ᆘ♧ݎݏݎහᆘᆙᆘ♧ݎݏݎἺᆙ#ᆘ♧ݎݏݎજ͊͋͊ළϸϹϸۆ͊͋͊ළ#ϸ#ۆ͊͋͊ළϸϹϸۆ͊͋͊ළϸϹϸ⒂ɑɐɑɐɑɐɑɐɑɐɑɐɑɐɑࠒ##㗱̌#̍㎞ƞ##㌇̍#̌ఔక#ఔ໿ʅ#ʄ#ʅʄʅ㾿Ι̒։Ƒ枌+ĚEΏ##ƺƻࣦ#ϸ৮ᆘ᭥Όڄ͋᮰ɐㄝ㕘ư絛ᆨ様ᘓIş˭ଇଆଇ㕅ဥဤൡ䧈ڊŞޅ;###ЊĚᯙ#ᏆᵺƞȉȔ⊣⌆Ɵƞ缧綼#ƞȉ∥########ᝄɘəɘəɘəɘəɘəɘəɘəɘəɘɘ########瀙޽⏺䬊ఔ#క౾ƞƟƞᡉɊì͏ᦆ#ᜥ෵΍#Ό΍Ό#΍##Ό#΍Ό#΍⫂#ʅ#ẕᆘ#ᆙᓱݎݏݎහᆘ#ᆙᓱݎݏݎἺᆙ#ᆘ♧ݎ#ݏ♦ᆙ#ᆘ♧ݎݏݎજ#͊#ළϸ#Ϲજ#͊#ළϸ#Ϲજ#͊#ළϸ#Ϲજ͊#͋ઝϸϹϸ≔ɐɑɐɑɐɑɐ#ɑ#ɐɑɐɑɐ˼º̍̌̍#ƞɵ̌̍̌̍కఔక໾ʄʅʄ#ʅʄʅ㸯¨̒ІƑ⋖+ĚEΏ##ƺƻࣦ#ϸ৮ᆘ᭥Όڄ͋᮰ɐㄝ㉰ư㝣ᆩ䛬ጫƅ࠺#㬉˧㖴ىݦĚሖ#ᨩ᪒ƞȉȔΆ„Ɵƞ㖇㌦#ƞȉἽ########ᝄ#ɘ#ə#ɘ#əɘ#ə#ɘ#ə#ɘɘ########㞝޺"
}
],
"vertexCount":1046,
"vertexOffsets":{
"xOffset":-2305.2186640890227,
"yOffset":-4095.7504543225959,
"zOffset":24.123014487842468
},
"vertexScale":0.045200095094982698,
"vertices":"ஓݜ#ݝବÑ#ÐEʱµĀ#˙ȸ}#|©µµO}|}¨´´ʜ#ŷ#¥#¤####ïZčZ[Č#č5¥#¤¥###î[Č[Zč#Č#J##K#JÑóČó=ò<ó©#K##J#KÐØóČčòÙòkjkđR°Sák#jà±à±ϔûL®ȃǱǠǝϮûØ¯Ķ«DbгǠǝǬǱݕݘݡ੔ōŶƇŜō3Ɔ́dƚȒÙƇƆ̗ǜˉʞ5ʍâãâ#<=ZAFa<'RĩИ#ঝॸࣟࡸF੣¤ܿڴڵ#ڼƂࠝ#ڼ¤ܿ#ࠜࠝ###ෲďĊ&ϰH#IHųdF­ओރიĊH`#`#H#ED˅#©Ù©#ŞÙ#Ŕ#6#¯áêõ7#6êõêá-Ţ#řàř#àázϬᇿ#ၲᜃݟ#ݞଭÎÏÎďɌ´ā#˚ȹ|}|N²F³Þ|}|©³G²̯ŶŷŶ¤¥¤¥###¶Ô\\Õ]#Ď#¶¥¤¥¤###·]Õ\\Ô#ď#MLM#LML¨?ò>ďò>óŜLML#MLM©ó>òďĎ?×YihiĨ³R²Rjkjī²S³ͅÎNÙȒǚ&ǱŋûD¬ķDаǟ5Ǭݚݗ'ݢ੕Ŋ4ƉNŜ5ŷ̀ǛƘ˓ÙȼƇ̔Ǜˈʟ2ʎãâã#?>]@Gb?MRøЛ#ঞॹࡶࣝdF¯੤§®+ƅƄ§āԋđ&'ϱI#HIĲd®ऒॹčIa#_#K#DE˄#¨Ö¨#©×Öœ767¬+ê*454­ë*ê+*š#ŘãŚ#ãâхϪɟᜂݜ#ݝବÑÐÑĐʱµˠȃ#˙Ǟ|}|©µG´á}#|N´Fµ̮ŷŶŷ¥¤¥¤###ïÕČÕÔ#č#·¤¥¤¥###îÔčÔÕ#Č#JKJ#KJK©ó<òčČ=Ù©KJK#JKJ¨=ò<čò<óČjkjĩ°S±SkjkĨ±R°͆ÑMØȓǝ'ǰŌúE¯ĶEгǠ2ǭݙݔ&ݡपŌLƇ2ŌŝƆ́ǜƛ˔ØÙƇʟĎǜM5ʍâãâ#<=ZAFa<'RĩИ#GࣟࣞF੣ڽܾܿڴڵڼڽࠜࠝڼڽܾܿࠜࠝ###ആĎ'&ϰH#IHıFGĊH`#`#H#ED˅#©Ù©#¨ØÙŔ676¯,ë-767®ê-ë,-Ţ#řàř#àázϬᇿڳݟ#ݞଭÎ#Ïcʮɍ˞ā#˚ǟ}#|N²²¨#}#O³³ʟ#Ŷ#¤#¥####¶ÔÔ#ď#Ď4¤#¥¤###ñ\\ď\\]Ď#ď#M##L#MÒÖóĎďò×ò#L##M#LÓóĎó?ò>óhihĒS³Râj#kēR²SϕúO­ȀǰǟǚϭúÙ¬ķ¬EcаǟǚǭǰݖݛݢभŋŜƉ#ŶŋŜǚeƙȓØ#ƆʞđǛL2ʎãâã#?>]@Gb?(SĨЛ#HࣜࣝI੤§®+ƅƄ§āԋđ&'ϱI#HIĲIHčIa#_#K#DE˄#Ŝ×Ŝ#©×Öœ#7#¬âëò4#5ëòëâ*š#ŘãŚ#ãâ}ϫƗƖ#ƗƓǌ#Ǎ-ػҘԑॠ#ѳƴ·µ§|#}Ê¶IµŞ}#|Ţ#Ĝ#˅Ù×#Ē#ē3¥#¤¥###î]Ē_×ĒēĒ2¤#¥¤###ÑÛöēĒ÷Ú÷M#LMLML¦Ú÷ĒēöÛö#L##M#LƍR²Sījkjâ³â³âh#i=Ƽ2ǗːbjˣƼǇǖ߯غ,مनj?bƻƖųLĬĝðāĬOñĸ̡˘ʥǆíìňkǛ2ʟʎɣON#LM¤{|§L*jÉᏫ߉#߈߉߈ݒ໹߈߉#߈ᛢ˿ʰFLླཤ࿯ြ˿ൡ࿮ཥྈ#GFǀȣɆGდ####ཌྷ߈#߉##߈ަ#߰#߱߰##ل#-,õÚş#ŞÛŞ#ǣŢãì÷#5#¬ì÷ì6#7Ǒ5¬âś#â#ǑĲ؇࣏๯#ẬƖ#ƗƓǌǍǌ߯غǅԑॠ#ѳƴ·G´Ĺ|}|ÞH·GŞ}|}ƼĜĝĜ˅Ù]Ö^#ē#µ¤¥¤¥###´\\Ø_×Ē#ēƤ¥¤¥¤###Ñ>÷?Ē÷?öşMLM#LML¦?ö>ēö>÷ŞLML##M#ĳ²S³SkjkĪ³R²Rhihǌ3ǇʤjFcĭƽ-ǖ߯ل-ػनN>ƗƺGųLĬOñ3ĀNĝĸk˙ǺǇüìňkǛ2ʟʎɣON#LM¤{|§LrkᏫ߉#߈߉߈߉໸ݓ߉#߈ᛢ˿̢Gླྲ˿೗༦ȢFGდ####ާ߉߈߉#߈ަ#߰#߱߰##ل#-,=Û§#ŞÛŞ#ǣŢ,í-545¬ì-íŢ676ǥ5¬âś#â#Ǒӷ؆᳿ậƙ#ƘƐǍǌǍ߮ҙԒڳ˓#ѲġµF´¨}|}sµØµÍ|}|ƽĝĜĝˆÖ\\×]#Đ#2¤#¥¤###µ]×\\Öđ#Đġ¥#¤¥###Ð?ô>đô>õŞJKJ##K#©>õ?Đõ?ôşKJK#JKJĴµR´Pjkjī´SµQkjkǍ4ǆʧiIbĮƺ.Ǚ߮م.ظऩO=ƖƽHŲřĮ5ñOĮăðķh˚ǻǆǇì2ȣhǌʜʍɠNO#KJ¥|}¤K-kÈᏬ##ݓݒ#ᛣpʮʯpMpཤªျ်ൡʯཤྉ#FGȣIHა####ި##ީ#߱#߰߱##م#./>Ø¨#şØş#Ǥť+ì*676­í*ìţ767Ǥ6­åŚ#å#ǐı؄࣎ၟƙ#ƘƐǍ#ǌلҙǃڲॣ#ѲġµØµĺ}#|©Ù´Í|#}ţ#ĝ#ˆÖÖ#đ#Đ´¥#¤####ï\\đ\\ÖđĐđ3¥#¤¥###ÐØõĐđôÙô#J##K#JÑÙôđĐõØõK#JKJKJŤSµRĪkjkã´å´ījkj:ƻ5ǘ˓ciˠƻǆǙ߮ع/لऩi<cƼƗŲřĮăð#ĝĮăi̠˛ʦǇ#ì2ȣhǌʜʍɠNO#KJ¥|}¤K-kÈᏬ##ݓݒ#ᛣ˼̡Fྲླ˼೘༧ȣIHა####ި##ީ#߱#߰߱##م#./>Ø¨#şØş#Ǥťäíô#6#­íôí7#6ǐ6­åŚ#å#ǐı؄ਖ਼#Ĉ#ĉĈĉĈN###ĵĈN˸f#g#f#gfgfg#f#gЋĈĉĈўΪ#ΫϛǰǱǰ֔Ϋ#ΪݣǰǱǰ֔Ϋ#Ϊݣǰ#ǱݢΫ#ΪݣǰǱǰŜ#Ò#ȍÒ#ÓŜÒ#ÓŝÒÓÒ¬#Ò#ȍÒ#ÓŜ#Ò#ȍÒ#Óےpqpqpqp#q#p#q#pॳNONĵ#O#NO#NĈNONON#OĉO#NĴO#NšNONO####Š#######z{Ɉ#ÒŜΪӥfĘÓ֘pेĻ#Ē#Ł#*+##P#ĺ##ONONš###Š$%$ķĈĵNĴ#ON#ĵĈĵNČPQP###)OĉĈĵ##N#ĈĵNҔ########Ң################਷##+ŮĻĈĉĈĉĈ#ĉĴ###OĉĴ˸fgfgfgf#gfg#fgfя#Ĉ#ўΪΫΪݣǰǱǰȌΪΫΪݣǰǱǰȌΪΫΪݣǰǱǰȌΪΫΪݣǰǱǰŜÒÓÒȍÒÓÒ¬ÒÓÒȍÒÓÒ¬ÒÓÒȍÒÓÒ¬ÒÓÒȍ#Ò#ٰqpqpqpqpqpqpqpqथ#N#š#N#ONONĈ#N#ONONšNONĴONOĵ#N#O####Š#######z{Ɉ#ÒŜΪӥfĘÓצqࣹĻĒēĒŁ##*+PQPĺ#ONš#Š$%#ON#ĵĈĵNĺQ#P##)OĉĈĵ##N#ĈĵNҔ########Ң########਷#ŦĻĈĉĈĉĈ#ĉĴ###OĉĴ̼gfg#fgf#g#fgfgfя#Ĉ#ўΪΫΪݣǰǱǰ֔Ϋ#ΪݣǰǱǰȌΪΫΪݣǰǱǰ֔Ϋ#ΪݣǰǱǰŜÒÓÒȍÒÓÒ¬ÒÓÒȍ#Ò#¬ÒÓÒȍÒÓÒ¬ÒÓÒȍÒÓÒٰqpqpqpqpqpqpqpqथ#N#š#N#ONONĈ#N#ONONšNONĈNONĵO#NO####Š#######z{Ɉ#ÒŜΪӥfĘÓ֘pेĻĒŁ*+Pĺ###O#Nš###Ţ%#$ķĈĵNĴ#ON#ĵĈĵNĺQP)OĉĈĵ##N#ĈĵNҔ########Ң########਷##N#Ĉ#ĉĈĉĈN###ĵĈN̼g#fgf#g##f#gf#gЋĈĉĈўΪ#ΫϛǰǱǰȌΪ#ΫϛǰǱǰ֔Ϋ#Ϊݣǰ#ǱݢΫ#ΪݣǰǱǰŜ#Ò#ȍÒ#ÓŜ#Ò#ȍÒ#ÓŜ#Ò#ȍÒ#ÓŜÒ#ÓŝÒÓÒآpqpqpqp#q#pqpqpॳNONĵ#O#NO#NĈNONON#OĉO#NĈN#Oĉ#O######Š#######z{Ɉ#ÒŜΪӥfĘÓ֘pेĻĒŁ*+Pĺ#ONš#Š$%#ON#ĵĈĵNĺQP)OĉĈĵ##N#ĈĵNҔ########Ң################਷#"
}