{
"boundingBox":{
"max":[
224.0,
224.0,
0.0
],
"min":[
0.0,
0.0,
0.0
]
},
"colors":"",
"compression":{
"compressed":true,
"compressedColorsRange":255,
"compressedUnitVectorRange":1023,
"compressedVertsRange":16383
},
"indexLengths":[
6
],
"indexModes":[
"Triangles"
],
"indices":"#%%#%(",
"name":"Lib_Floor1_Mesh074",
"normals":"С###С###ࠡ###",
"textureCoords":[
{
"UVOffsets":[
0.0,
0.0
],
"UVScales":[
6.1038881767686015e-05,
6.1038881767686015e-05
],
"UVs":"#耡#耠##耡#"
}
],
"vertexCount":4,
"vertexOffsets":{
"xOffset":0.0,
"yOffset":0.0,
"zOffset":0.0
},
"vertexScale":0.027345419031923335,
"vertices":"#䀡#䀠##䀡#####"
}