{
"boundingBox":{
"max":[
56.000251770019531,
22.19996452331543,
-7.62939453125e-06
],
"min":[
0.00029754638671875,
-22.199953079223633,
-130.40604400634766
]
},
"colors":"",
"compression":{
"compressed":true,
"compressedColorsRange":255,
"compressedUnitVectorRange":1023,
"compressedVertsRange":16383
},
"indexLengths":[
1692
],
"indexModes":[
"Triangles"
],
"indices":"#%%#%(+%%#%(+%%#%(+%%#%(+%%#%(+%%#%(+%%#%(+%%#%(>G%#F$&A$#<$O%%#%(+%%#%(+%%#%(+%%#%(+%%#%(+%%#%(+%p#)i'%%#%(+%~#$'%%#%(+%%#%(%)&)%%#%(%)%#($+$'#%&)%%#%(+%%#%()$'#%&'$'#%&%'%#&$+%%#%(+%%#%(+%%#%(+%%#%(+%%#%(+%%#%(+%%#%(+%%#%(+%%#%(+%%#%(+%%#%(+%%#%(+%%#%(+%%#%(+%%#%()#%%%#%(2;%#:$&+)#.$C6$#;$'%#)'%%#%(+#%&)#%¢5$#%%%#%(+%%#%(+%%#%(+%%#%(+%%#%(+%%#%(%)%%%%#%()$'#%&%'%#&$+%%#%(+%%#%(#+%#*$+'%#&$+%&#$''%%#%(+%%#%(+%%#%(%)%#($-Ā$#ą$'&%#'$*/%#.$3%%#%(Ĉđ%#Đ$ĕ%%#%(+%%#%(§%#¦$2»%#º$¿%%#%(+%%#%(+%%#%(İĹ%#ĸ$Ľ%%#%(6?%#>$-9%#8$=%ɚ#$ɛ'%Ȭ#$ȭȶȻ%#Ⱥ$ȿ%Ȫ#ȭ&)Ȣ)#$ȟȐ),#$)ȓ%Ȉ#$ȉ'%Ŗ#$ŗŀ)$#$$A$(#$-'ģ%#Ģ$'ģ%#Ģ$'ģ%#Ģ$ħ%ʊ#$ʋĆ$Ƃ#$Ƈ2$Ũ#$ŭě%ɀ#$Ɂ,$Ț#$ȟ1%ǆ#$Ǉɚ)»#$¾ɟɒ»#ƽ$Ⱥ)§#$ªȿɀ·#$ƯƤ¬)#©$oħ$#Ģ$ś%Ŋ#$ŋF$Ċ#$ďǴ)Ƨ#$ƪ.)Ʒ#$ƺȩȎ$#ȓ$'%(#%%'%#$'%&#$')#ĖFȬ#$ɓ?<Ƽ#$Ǚ%$ǘ#ť%%Ţ#$ţ'ɲ$#ȫm$&Ť#)ţɮ·$#º)ɳ(Ţ#ŋAȮȟȘș&Ȕġ$+#ĥ%%#%(+%%%%%%%%%%%%%%#%(Ɉ)K#$NKȩ%#Ȩ$įN$#S$(ħ%#Ħ$ī%%#%(+%%#%(+%%#%(+%%#%(+%%#%(+%%#%(+%%#%(+%%#%(>G%#F$&A$#<$O%%#%(+%%#%(+%%#%(+%%#%(+%%#%(+%%#%(+%p#)i'%%#%(+%~#$'%%#%(+%%#%(%)&)%%#%(%)%#($+$'#%&)%%#%(+%%#%()$'#%&'$'#%&%'%#&$+%%#%(+%%#%(+%%#%(+%%#%(+%%#%(+%%#%(+%%#%(+%%#%(+%%#%(+%%#%(+%%#%(+%%#%(+%%#%(+%%#%(+%%#%()#%%%#%(2;%#:$&+)#.$C6$#;$'%#)'%%#%(+#%&)#%¢5$#%%%#%(+%%#%(+%%#%(+%%#%(+%%#%(+%%#%(%)%%%%#%()$'#%&%'%#&$+%%#%(+%%#%(#+%#*$+'%#&$+%&#$'Ϭϱ%#ϰ$ϵ%%#%(+%%#%(%)%#($-ü$#ā$'&%#'$*/%#.$3%%#%(Ąč%#Č$đ%%#%(+%%#%(£%#¢$2·%#¶$»%%#%(+%%#%(+%%#%(Ĭĵ%#Ĵ$Ĺ%%#%(6?%#>$-9%#8$=%ɖ#$ɗ'%Ȩ#$ȩȲȷ%#ȶ$Ȼ%Ȧ#ȩ&)Ȟ)#$țȌ),#$)ȏ%Ȅ#$ȅ'%Œ#$œļ)$#$$A$(#$-'ğ%#Ğ$'ğ%#Ğ$'ğ%#Ğ$ģ%ʆ#$ʇĂ$Ƃ#$Ƈ2$Ũ#$ŭė%ȼ#$Ƚ,$Ȗ#$ț1%ǂ#$ǃɖ)»#$¾ɛɎ»#ƹ$ȶ)§#$ªȻȼ·#$ƫƠ¬)#©$oģ$#Ğ$ŗ%ņ#$ŇF$Ć#$ċǰ)ƣ#$Ʀ.)Ƴ#$ƶȥȊ$#ȏ$'%(#%%'%#$'%&#$')#ĒFȨ#$ɏ?<Ƹ#$Ǖ%$ǔ#š%%Ş#$ş'ɮ$#ȧm$&Š#)şɪ·$#º)ɯ(Ş#ŇAȪțȔȕ&Ȑġ$+#ġ%%#%(+%%%%%%%%%%%%%%#%(Ʉ)K#$NKȥ%#Ȥ$ĭL$#Q$&Ǭ˭#Ġ$",
"name":"Lib_StaircaseRail1_MESH02",
"normals":"җĐιcÅ#ĄcΈ###ɷ#Ʉ#kĎͿcŜʮ¤ˇʏ#~#ǆS#b͜#ҟă8Ü¸̬Â̻µó%Ɔ[k#~7Ĕ9ëěā#ÆÚ.ÐÑ/ņɕ$®¯%ðÆƉО#######ƛ###ƚ#############̾εĐ̈у¿)¤д̽?͖ͻŃ9ĚΠ˅ÂȪ;p̛ĉȖ###G§AÄǹ<###=ù###ӨÂ#ąP#ā#ŸP#Qѫ#_C¥(͠#Ⱦ#12Ч>̼%;¼%Γ%Ϥ#ĝγĈ̚%?>C¤¯eìíd®'ÏÆŐyω#######̤###̥#############Ƌ###ˎÅ@¦ȋ>?>###ʆ###Ƌ#*###Ĭ###ƥĎJ¤ǾΙČɺͻAÒ##Ó@´+#Ƌ######ɽbŖ2Ƀ#ö,ăƈ­]ۚe#)Ρ`͐pYdk(ڝb+Β̃¹2δčΘWثÆĵڦ.Ðϕ̦ڝ(њ###x###########˳###Ɗ###ĐιcÅ#ĄcΈ###ɷ#Ʉ#kĎͿcŜʮ¤ˇʏ#~#ǆS#b˖#Йă8Ü¸̬Â̻µó%Ɔ[k#~7Ĕ9ëěā#ÆÚ.ÐÑ/ņɕ$®¯%ðÆƉО#######ƛ###ƚ#############̾εĐ̈у¿)¤д̽?͖ͻŃ9ĚΠ˅ÂȪ;p̛ĉȖ###GC¦ǟ:¥###¤;ē###ӨÂ#ąP#ā#ŸP#Qѫ#_C¥(ˠ#ʾ#12Ч>̼%;¼%Γ%Ϥ#ĝγĈ̚%?>C¤¯eìíd®'ÏÆŐyω#######̤###̥###########Ƌ###ˎ§Bǯ<=<±###ʆ###Ƌ#*###Ĭ###ƥĎJ¤ǾΙČɺ͟?´##µ>+#Ƌ######ɽbŖ2Ƀ#ö,ăƈ­]ۚe#)Ρ`͐pYdk(ڝb+Β̃¹2δčΘWثÆĵڦ.Ðϕ̦ڝ(њ###x###########˳###Ɗ##࠙#Ƙ|Ɋ#ʤ}ى###Р###Л#Ŗj4£8xʠ###~##ʟʞ#ɓZš>ÀҖț#ʞ́Ä#Ùź'͓ʜ#ɋx©Ӥ5©ÎЩ+Ьč+ŞԷÒÛ×̮У#######Т###Р#########ࠡ###ڤƘ#ǵʫY#BȑƹPƶƨ&X˄Ɣ?ƃѷǥ(Д###ǘǌTǿȔ>Í#ٗ#Í>ϊ###Ɉɉ#ʤʥ#########8B#»#####ϰPƹOǧ#####ʼź(ǥΧ¡aRІa¡®΅đoŔѴođ*ѓĢÓ«˺ǂ׃#######Т###Р#########ࠡ###Т###ǙǿTǌǻGݢFý#ד#˺###Р#####Ƌ###Ƅ#ı9Wź#ŃúI#ࠟIq%#Т###ˢ#֣#º}̀2#ʎ2ʟțҔuѱê-˄MȈӛ~,Є|ԑƫ؎Znڗ#ź[ՒÖƑÔ#ҧɖЖǣ'^ԥ###ʸ###############Р###࠙#Ƙ|Ɋ#ʤ}ى###Р###Л#Ŗj4£8xʠ###~##ʟʞ#ɓZš>ÀҖț#ʞ́Ä#Ùź'͓ʜ#ɋx©Ӥ5©ÎЩ+Ьč+ŞԷÒÛ×̮У#######Т###Р#########ࠡ###ڤƘ#ǵʫY#BȑƹPƶƨ&X˄Ɣ?ƃѷǥ(Д###ǘƊdǍȰ8ã#ٗ#ã8Ϧ###Ɉɉ#ʤʥ#########8B#»#####ϰPƹOǧ#####ʼź(ǥΧ¡aRІa¡®΅đoŔѴođ*ѓĢÓ«˺ǂ׃#######Т###Р#########ࠡ#Т###ǙǍdƊȟ?ޢ>ę#ד#˺###Р#####Ƌ###Ƅ#ı9Wź#ŃĘAp#ࠟpAS%#Т###ˢ#֣#º}̀2#ʎ2ʟțҔuѱê-˄MȈӛ~,Є|ԑƫ؎Znڗ#ź[ՒÖƑÔ#ҧɖЖǣ'^ԥ###ʸ###############Р##П##%####8###͒#Ú#Б#)'ʨ>7Lȕ#Ī#յ:#Aݦ#Ϳ;´PŪ#1@3['nׇF$S,(p̦.#+ˈ¼½|˝'()&&+:Ng|}#######Ϛ###ϛ#############$##%ЋV$OаHĂgԃr(mז¤1Ƚ$-$Ю###ƅuǖԇdĿ###ľeɟ###Ϡ##$ɤ#Č#ǳÕ#Ôշ#0,N%ݞ#͑#µĬăIäĂi$֯#Ϥ%-)%,ȸl5£¢4mkƧ&$-,%''R=9#xc9#######˂###˃#############ϡ###݂ǗtƄԹjkjř###ڂ###ϡ#8###˦###˫'ʼ7ʇQ#%ƓqǴ##ǵpƦ7#ϡ###Ī###˘$Σ)І#ëîÛˊʽ&d$ǲ#ח/ψ$j%Ǵ#ǵ#;˶ūË#PSfg:;#6K6ƚƗͤ###Ć###########ޟ###Ϡ###$##%####8###͒#Ú#Б#)'ʨ>7Lȕ#Ī#յ:#Aގ#Χ;´PŪ#1@3['nׇF$S,(p̦.#+ˈ¼½|˝'()&&+:Ng|}#######Ϛ###ϛ#############$##%ЋV$OаHĂgԃr(mז¤1Ƚ$-$Ю###įyƄӅbſ###žcʡ###Ϡ##$ɤ#Č#ǳÕ#Ôշ#0,N%ޖ#Ή#µĬăIäĂi$֯#Ϥ%-)%,ȸl5£¢4mkƧ&$-,%''R=9#xc9#######˂###˃###########ϡ###݂ƅxĮӱhihƟ###ڂ###ϡ#8###˦###˫'ʼ7ʇQ#%ŉmƦ##ƧlŜ7#ϡ###Ī###˘$Σ)І#ëîÛˊʽ&d$ǲ#ח/ψ$j%Ǵ#ǵ#;˶ūË#PSfg:;#6K6ƚƗͤ###Ć###########ޟ###Ϡ##",
"textureCoords":[
{
"UVOffsets":[
101.96059215811425,
140.03923112415751
],
"UVScales":[
6.0236796870648492e-05,
6.0064637177281416e-05
],
"UVs":"慡#ʋ#ه#ω&徨Ƀ#ɂڝ#̣#㞛ߨ#ߩἒ˂мЋ⊆#֛#⺕ȵǁ˺┾#㻫#ѓ#ٹʊ#Εࣣψ#ԻㄬŻœȈÏǰ}ʽ⹝Ӑ#ӑ㷖µٜƦvϧ᨟ߩ⚬ϡ#Ђ㹃#ƾ$Կ⾲ʲ΄#ǧϜ̟̞⾘#˾#⨻̝ãϜչ΄ؗؖष̠ଢ଼̠ع#㑫ʊ#ʋ㲴˹¦Њ⊯#ѓ#⎼ǳ~ʼ㱏ʊ#Ε©#ь#墄ড়#ঢ়䲅ʔ#ʕᩔ#ư#ᓲ#ư#ᚁݾ#ݿ⳹ϋ#φ拾#̣#ݘ֚#֛♭ǁȵúԛ¦⎊#ឞ#媗ђѓђ#ѓᨋϋ#䊆ŕ䅱#ᴪν#μ㍚ȚсÝɛЍĬ͚ឹ#ߩ#〲BϠ#支Ƽ#ǅՀΠヘؗ#΄չϜϝ̞䮺˿#˾䙻Ϝã̝Ȗ΄΅ؖD̠Շع̸̢᳜㢑#㢐ਜʗ#ʖࣝ#㬓#Ť#㢐#䊋ঢ়#ড়᧯#ဴɃ#ɂɃŵ#Ŵ互DଧΗ䐇Δ#Γ其#З#⡰Е#Д2#㴋#ݾ#዆#ᶆ#悿&▮ƹ㽲#䲿ো৊ᛍĜ#ᦁ&Ɨƒ䑄Å䓇#⃶##Īቃ#ₘ#ₙዀђࡁ#Β#ᄷ'ǂ#ਿ⠌###෻෺䆴#Ŵ#曝#ಡ##ಠ曜#ಠ##ಡܬᶇ#ᶆ㋑###⤩#ʋ#ه#ω&徨Ƀ#ɂڝ#̣#㞛ߨ#ߩἒ˂мЋ⊆#֛#⺕ȵǁ˺┾#㻫#ѓ#ٹʊ#Εࣣψ#ԻㄬŻœȈÏǰ}ʽ⹝Ӑ#ӑ㷖µٜƦvϧ᨟ߩ⚬ϡ#Ђ㹃#ƾ$Կ⾲ʲ΄#ǧϜ̟̞⾘#˾#⨻̝ãϜչ΄ؗؖष̠ଢ଼̠ع#㑫ʊ#ʋ㲴˹¦Њ⊯#ѓ#⎼ǳ~ʼ㱏ʊ#Ε©#ь#墄ড়#ঢ়䲅ʔ#ʕᩔ#ư#ᓲ#ư#ᚁݾ#ݿ⳹ϋ#φ拾#̣#ݘ֚#֛♭ǁȵúԛ¦⎊#ឞ#媗ђѓђ#ѓᨋϋ#䊆ŕ䅱#ᴪν#μ㍚ȚсÝɛЍĬ͚ឹ#ߩ#〲BϠ#支Ƽ#ǅՀΠヘؗ#΄չϜϝ̞䮺˿#˾䙻Ϝã̝Ȗ΄΅ؖD̠ଢ଼̢ῲ㢑#㢐ਜʗ#ʖࣝ#㬓#Ť#㢐#䊋ঢ়#ড়᧯#ဴɃ#ɂɃŵ#Ŵ互DଧΗ䐇Δ#Γ其#З#⡰Е#Д2#㴋#ݾ#዆#ᶆ#悿&▮ƹ㽲#䲿ো৊ᛍĜ#ᦁ&Ɨƒ䑄Å䓇#⃶##Īቃ#ₘ#ₙዀђࡁ#Β#ᄷ'ǂ#ਿ⠌###෻෺䆴#Ŵ#曝#ಡ##ಠ曜#ಠ##ಡܬᶇ#ᶆ㋑##⛏༱#༰#༱#༰⛎#╉#ⶍڐ#ڑķ#ς#ᯆ˦ȉЅ᭏ڐ#ڑ෬Ҥ{ٕշڑỚڦ#ڧȅ#˧#˦#˧#ઇ̞cыߐǊǘɵᶣ#Ξ#ᶾͬ୶;ʹ➇#ȝ#੥#ҲᙚشᱭᱬѦ҉ࢊ੦ᢇ૪ጙɱͱڑ#ڐᖰɱࡓ૫Բ࡯Ј๋న఩❢ె#௉ଐ#༱#ීʩʛΚЈۜ#۝ĝǋǙɴ൸#˧#ᴽΟ#Ξゔ#╈#╉#╈#嫹╉#╈#╉#╈╉#╈#┾#༰#㍛ڐ#ڑ##ڐ#ᕺ{ҤȨƾʛ᫏ڑڐڑኤ#౹#ي#៸˧˦ࣧc᛽ΟΞ#Ο#⹲͡TźʑŬωĂ⧭̊#̋ସ੥#੤ᚺصᙛ#ᱬص੸๨੧ࢋԲ૫ટɰഓ#ڑ#ฬ૪ࡒɰᣁࢊ኱๊๋న➀#ే ㆼ#╉#╈#╉#╈╉╈╉╈╉╈╉╈#╉#㗓╋耠#╉#╈#╉#⨓੥⸤့̎#ᱭ#চ╊#╋╊#╋#㓏╈#╋$╈ྨ╊#╋Ⓠ༱ֹƨᣩڐ╮#ڡࢉ⍽Ξ ༰ᇵ˦Ӂƍ᧹Ο㊊༱#˧ᇴ༱ȄڛҸ␣#Ԕᱬ#ᱭᱬᱭᙚᙛ#Ꮰٻ౹ي⛜㌇姜╉#╈╉╈##╉#╈╉##╈#♋#╋#ʡ஭#஬❄༱#༰#༱#༰⛎#╉#ⶍڐ#ڑķ#ς#ᯆ˦ȉЅ᭏ڐ#ڑ෬Ҥ{ٕշڑỚڦ#ڧȅ#˧#˦#˧#ઇ̞cыߐǊǘɵᶣ#Ξ#ᶾͬ୶;ʹ➇#ȝ#੥#ҲᙚشᱭᱬѦ҉ࢊ੦ᢇ૪ጙɱͱڑ#ڐᖰɱࡓ૫Բ࡯Ј๋న఩❢ె#௉ଐ#༱#ීʩʛΚЈۜ#۝ĝǋǙɴ൸#˧#ᴽΟ#Ξゔ#╈#╉#╈#嫹╉#╈#╉#╈╉#╈#┾#༰#㍛ڐ#ڑ##ڐ#ᕺ{ҤȨƾʛ᫏ڑڐڑኤ#౹#ي#៸˧˦ࣧc᛽ΟΞ#Ο#⹲͡TźʑŬωĂ⧭̊#̋ସ੥#੤ᚺصᙛ#ᱬص੸๨੧ࢋԲ૫ટɰഓ#ڑ#ฬ૪ࡒɰᣁࢊ኱๊๋న➀ే㈺#╉#╈#╉#╈╉╈╉╈╉╈╉╈#╉#㗓╋耠#╉#╈#╉#⨓੥⸤့̎#ᱭ#চ╊#╋╊#╋#㓏╈#╋$╈ྨ╊#╋Ⓠ༱ֹƨᣩڐ╮#ڡࢉ⍽Ξ ༰ᇵ˦Ӂƍ᧹Ο㊊༱#˧ᇴ༱ȄڛҸ␣#Ԕᱬ#ᱭᱬᱭᙚᙛ#Ꮰٻ౹ي⛜㌇姜╉#╈╉╈##╉#╈╉##╈#♋#╋#ʡ஭஬"
}
],
"vertexCount":713,
"vertexOffsets":{
"xOffset":0.018690478558532415,
"yOffset":-1394.4976835489435,
"zOffset":-8191.50047924304
},
"vertexScale":0.015919677272410806,
"vertices":"܁#ý#m#l#ߚ#ෟ#ɰ#ō#ל#ǧ#®Ś#ǧţ#»#ʆ¿²Փ#֞Xü#śm¡m¡ü#ś³Aº»ÜÝº»#º»#ºD##̑ĖŢ#ËƄĽļĽ#ļ##ĽkƄȝŢɗɖ΁ŀŁŀɥ#ߚý#üś#ǐoƅ#Śý#Śý#Ś®9Ǒ#܁#ෞ#ෟ#ෞ##ෟ#ෞ#ෟ#ෞෟ#ෞ#اl#mϘ#Ō#Ɂ»#ºƁ¿Ǒ#܀#х#ĽZǽ#ƄMê¡ ¡ŚAǧ#ǐÐ»¯®ºÝÜ»#º»#º#Ň##̐ɗ#ŢȝƄƅļĽļ#Ľ#ƄkĽÜŢţɖ0ľņɣľņ##ෟ#ෞ#ෟ#ෞෟෞෟෞෟෞෟෞ#ෟ#ෞෟෞ#ෟ#ෞ#ෟ#܀###Śś#Ś࠹ෞ#ෟෞ#ෟ##ෞ#ෟ#ෞෟෞ#ෟئ#ı#ƦMcê÷9ˀ#Č9÷##ȵ#ŚýMƄ#Ś#ʓ##ͦǅŚʓ#࠸ෟ#ෞෟෞ##ෟ#ෞෟ##ෞ###ෟ###ෞ#ᒿ#ý#m#l#ߜ#෡#ɰ#ŋ#ך#ǧ#®Ś#ǧš#½#ʆÁ²Փ#֞Zü#śmmü#ś³?¸¹ÜÝ¸¹#¸¹#¸F##̓ĖŤ#ËƄĿľĿ#ľ##ĿiƄȟŤəɘ΁ľĿľɥ#ߚý#üŝ#ǐoƅ#Ŝý#Ŝý#Ŝ¬9Ǒ#܁#෠#෡#෠##෡#෠#෡#෠෡#෠#ةl#mϘ#Ō#Ɂ»#ºſÁǑ#܂#х#ĿZǽ#ƄKê¡ ¡Ś?ǧ#ǐÐ»­¬ºÝÜ»#º»#º#Ņ##̐ɗ#ŢȝƄƅľĿľ#Ŀ#ƄiĿÜŢţɖ0ľĿľň#෡#෠#෡#෠෡෠෡෠෡෠෡෠#෡#෠෡෠#෡#෠#෡#܀###Ŝŝ#Ŝ࠻෠#෡෠#෡##෠#෡#෠෡෠#෡ئ#ı#ƦMaè÷9ˀ#Č9÷##ȷ#ŚýMƄ#Ŝ#ʕ##ͤǅŜʕ#࠺෡#෠෡෠##෡#෠෡##෠###෡###෠೓%¤$Ŭ#Ů%߉)#(޼ʟ#ʞԉ3Ĭ0òÙŅĪЀʟ#ʞ̫Ǭ#ʙŚʞͩȪ#ǭ ¥×Ö̼ů#ǰ̻Ŭ#ǯ̸¤Ö×ѥʘ#ʳŴ#̰µ#ƄЁ#Ѐƅ#ƒЏ#³%ǲš########ʞ#ʟʞ#########ʟ###ʪ¤$¥̹ÕđĖíxÔ¢¥×Ö̺¤Ö×ҁ<ėIڏμ#νᐚĊ#ċû##ᆋ##ᇺ˝#˜ދů#Ŭʫʞ#ʟ##ʞ#š#ǬÎĖđšʟʞʟŠ#ʞxía¡ů#####ʲĢIėϗƅò´̰òƅ#ʟƓ0ƄЀ0Ɠ#̯²#µǲŠʟ#######ʞ#ʟ#ʞ#########ʟ###ज़ᔎ#ᔏċ#Ċċ#ᗪ##ᔏ#ᒔν#μû#˥)#()#˗2ŕńǽÖ&Ùђ#)#గ)#(͍#͌#˝#๊#ଋ#ь%̸Îśʟ̬^ȫůϤ<Ͽ$§¤̺¥Ũ=ϣ%#¥̺$̻×Ϯ `ұ&Ö%π$µ##̭Ǯʢ×%$ࡋ##௢#Ӆ##ӄ௣#ӄ##Ӆଊ#ଋ۔###̭%¤$Ŭ#Ů%߉)#(޼ʟ#ʞԉ3Ĭ0òÙŅĪЀʟ#ʞ̫Ǭ#ʙŚʞͩȪ#ǭ ¥×Ö̼ů#ǰ̻Ŭ#ǯ̸¤Ö×ѥʘ#ʳŴ#̰µ#ƄЁ#Ѐƅ#ƒЏ#³%ǲš########ʞ#ʟʞ#########ʟ###ʪ¤$¥̹ÕđĖíxÔ¢¥×Ö̺¤Ö×ҁ<ėIڏμ#νᐚĊ#ċû##ᆋ##ᇺ˝#˜ދů#Ŭʫʞ#ʟ##ʞ#š#ǬÎĖđšʟʞʟŠ#ʞxía¡ů#####ʲĢIėϗƅò´̰òƅ#ʟƓ0ƄЀ0Ɠ#̯²#µǲŠʟ#######ʞ#ʟ#ʞ#########ʟ#ज़ᔎ#ᔏċ#Ċċ#ᗪ##ᔏ#ᒔν#μû#˥)#()#˗2ŕńǽÖ&Ùђ#)#గ)#(͍#͌#˝#๊#ଋ#ь%̸Îśʟ̬^ȫůϤ<Ͽ$§¤̺¥Ũ=ϣ%#¥̺$̻×Ϯ `ұ&Ö%π$µ##̭Ǯʢ×%$ࡋ##௢#Ӆ##ӄ௣#ӄ##Ӆଊ#ଋ۔##⎷շtն>չ=նᣕíՊìӼ#}#˻ϭÊϮĪšÌה#ȇ#ᆈHYጻ#ᇨNĜIॳuĝú<íKَ>K}uXЖXȔ[᝟ĘKJę]εϮ]\\ϯ]ԞࠀȠਧ੎࣏Ũηϯ०ҥސ###̏ҥˀηɰؽעԋԊԋúѲ่tշuपHÅĻ¦ĲϗtX֋tĝతȅÄȊᨋ#Ջ#ՊՋὊՊ·Ջ#Պ¶ՋҶ#Ջ#ଳ?ն>ᆛ#ŝ#͘ɸ#ɹ጖8H)ÄIល#६#පŇǢĳ§ŀफũŌվ+֔ȁȺÊȋÅᗱ\\ƒKJƓ]ƤկZϮ]\\ϯ[ϬௐɱࠁJ৾ɉࣛҕϬˆŅΚ҈ŧŦŧ#ŦࠁΚ̈́ŦঃˆڑҔկдԍúд¿࣭#Պ#ȋՊࠓՈՉՈׁՊՋՊȋ#Պ#⵪Պ㞻ìՊíҁՈǊϭԪš૮ਧᨆՋƘՊՋƙՊƘ᏾Ջ᏿Պ#Ջ̈́Ջ#Պ࡝շॲtഋ#ख˄ʝ׹ৄȒౙնڕŀ֊7ֲȅϑշ#Łܸշא՛ॲģᏃਦਧଐਧࠨࠁŝეK¾Үυ᤯ՊՉՈՉ##Ո#ՉՈ##Չ#᭴#Պ#ᜧѳՉѰᣪչtո<շ?ոᣕíՈìӾ##˹ϯÌϮĪşÌג#ȇ#ᆈJYጻ#ᇨNĞKॳuĝø>ïIَ<K{uXЖXȖ[ᝡĚKJě[ηϮ[Zϯ[Ԟ߾Ȣਧੌ࣍Ŧηϯ०ңގ###̏ңʾηɲؿעԉԈԉúѰ๊tչuबHÅĽ¨ĲϗtX֋tĝఢȃÄȊᨍ#Չ#ՈՉὊՈµՋ#Պ´ՉҶ#Ջ#ଵ=ն>ᆛ#ŝ#͘ɸ#ɹ጖6J)ÄIល#६#඲ŇǤĳ©łभŧŌվ+֔ȁȸÌȋÅᗱZƔKJƕ[Ƥձ\\Ϭ[Zϭ]ϮௐɱࠁJ৾ɉࣛҗϮˆŅΚ҈ŧŦŧ#ŦࠁΚ̈́ŦঃˆړҖկдедউ#Ո#ȉՈࠓՊՋՊׁՈՉՈȉ#Ո#⵬Ո㞹ìՈíѿՊǌϯԪş૮ਧᨄՉƘՊՋƙՈƚᏼՉ᏿Պ#Ջ͂Չ#Ո࡛չॲtഋ#ख˄ʝ׹ৄȔ౛ոڕľ֊5ְȃϑչ#Ŀܸչא՝ॲģᏃਦਧଐਧࠦ߿ŝგI¾Үυ᤭ՈՋՊՋ##Պ#ՋՊ##Ջ#᭶#Ո#ᜧѱû"
}