{
"boundingBox":{
"max":[
56.000236511230469,
22.199968338012695,
0.0
],
"min":[
0.0002899169921875,
-22.199953079223633,
-109.40604209899902
]
},
"colors":"",
"compression":{
"compressed":true,
"compressedColorsRange":255,
"compressedUnitVectorRange":1023,
"compressedVertsRange":16383
},
"indexLengths":[
1692
],
"indexModes":[
"Triangles"
],
"indices":"#%%#$'%%%#$'%%%&'%%%%#$'%%%#$'%%%&'%%%%$'$'%%#%(>%E#DGJ$;:=$7%%$$)%%%&'%%%%&'%%%%#%(+%%$$)%%%#$'h$m#%lo%%$$)~$#%%%$$)%%%%$$#)$'%%$$)%&)('*-%&'$'%%%#$'%%%#$'(''*+%%%&#$'#'$%&)%%%$$)%%%#%(+%%%&$+%%$$)%%%%&$+%%$$)%%%$$)%%%$$)%%%&'%%%%&'%%%%&'%%%%&'%%%%$$)%%%#$'%%%#$'#%%%%$$)%<$%=%:%&#''$9458;%$%%%&'%%#$'#%%'%%%$'$'%%#$'%%%$$)%%%#$'%%%$$)%%%&)&#)%%%%$$)$'%$&$-$$%%%%%%$$)%%%&'%%%*%$+%%(%$)%$$%%%%%%#$'%%%$'$'%%%$$)*-,+(ø$ą%$Ąą%%%$$),/.-.3%%$$)Ĉ$čČď$'%%%$$)%%%$$)%¤#$¥'¸»º¹¶»%%#$'%%%$$)%%%$$)ĶĹĶķĸĻ%%%&'%%:=<;>C:=<;4ɀɗ%$ɖ%Mȯ%$Ȯ),ȷ%$ȶ%ȹȪȭȬȫ'ȞȡȦȧȠ)%/$%.)ȕȈ$%ȉ%%%Ś#śŔ5)',-*5+$%*%įĤħĦĥĠ%ģ%ĤĥĢĥĢ%ġĠģʄ%ʅ#ʄʇɨ%Ž#żſżŭ$%Ŭ)AɃ%$ɂ);(ȟȞȡ$ƶ$ǉ#ǈǋɚ»¸$Á(ǅƼƿƾƽɎ9§¤$­(+ƱɄɅư' §'&¦%ïī$%Ī'3ŋ%$Ŋ)ğĎ'ċĊčjƪ'&ƫ$'Ƹ'&ƹ%Ƥȑ%$Ȑ%ȓ&)('$%$%%%&$'Ē$ýɒ'&ɓHeǘ'&Ǚ<=ŤŧŦťǔǙŤŧŦťŢŧɶȯȮɷɰɭŨ)(ũ$ǚ¶½¼·´ɵŪōŌū&ȪȟȘș&Ȕġ'%#¡ĥ%%%$$)%%$$)%%%&'%%%%$$)ɄQ$%P'E%ȟ#Ȟȡľ(O#NQęĜ$%ĝ%%%%#$'%%%#$'%%%&'%%%%#$'%%%#$'%%%&'%%%%$'$'%%#%(>%E#DGJ$;:=$7%%$$)%%%&'%%%%&'%%%%#%(+%%$$)%%%#$'h$m#%lo%%$$)~$#%%%$$)%%%%$$#)$'%%$$)%&)('*-%&'$'%%%#$'%%%#$'(''*+%%%&#$'#'$%&)%%%$$)%%%#%(+%%%&$+%%$$)%%%%&$+%%$$)%%%$$)%%%$$)%%%&'%%%%&'%%%%&'%%%%&'%%%%$$)%%%#$'%%%#$'#%%%%$$)%<$%=%:%&#''$9458;%$%%%&'%%#$'#%%'%%%$'$'%%#$'%%%$$)%%%#$'%%%$$)%%%&)&#)%%%%$$)$'%$&$-$$%%%%%%$$)%%%&'%%%*%$+%%(%$)%$$%%%%%Ϯ#ϯϨϫ%%$'$'%%%$$)*-,+(ô$ā%$Āā%%%$$),/.-.3%%$$)Ą$ĉĈċ$'%%%$$)%%%$$)% #$¡'´·¶µ²·%%#$'%%%$$)%%%$$)ĲĵĲĳĴķ%%%&'%%:=<;>C:=<;4ȼɓ%$ɒ%Mȫ%$Ȫ),ȳ%$Ȳ%ȵȦȩȨȧ'ȚȝȢȣȜ)%/$%.)ȑȄ$%ȅ%%%Ŗ#ŗŐ5)',-*5+$%*%īĠģĢġĜ%ğ%ĠġĞġĞ%ĝĜğʀ%ʁ#ʀʃɤ%Ž#żſżŭ$%Ŭ)Aȿ%$Ⱦ);(țȚȝ$Ʋ$ǅ#ǄǇɖ»¸$Á(ǁƸƻƺƹɊ9§¤$­(+ƭɀɁƬ' §'&¦%ïħ$%Ħ'3Ň%$ņ)ěĊ'ćĆĉjƦ'&Ƨ$'ƴ'&Ƶ%Ơȍ%$Ȍ%ȏ&)('$%$%%%&$'Ď$ùɎ'&ɏHeǔ'&Ǖ<=ŠţŢšǐǕŠţŢšŞţɲȫȪɳɬɩŤ)(ť$ǖ¶½¼·´ɱŦŉňŧ&ȦțȔȕ&Ȑġ'%#ġ%%%$$)%%$$)%%%&'%%%%$$)ɀQ$%P'E%ț#Țȝĺ(O#NQǴǱ$%ǰ˧",
"name":"Lib_StaircaseRail2_MESH04",
"normals":"ݝ#͞#͟#å#Р###̏#Ɩ#ƫ'̦##ɯCʎϑ#c#̞EaĔ#Сö#ãЌˏÙηĊUÙȜ¶SƼĩSŘС#ê(F##ÂÃâƇ##ÎÏÒcĚāО#######ʓ###ʒ###############͞#͟´D×#͌#͍#ĨRř#̀́ˎ¬͙͓͒####################Рå#äʩ#Ɩ#äbcb̟#ĕ´µÖ9#;#&7Ѝ͌#͍ζÙØȝ#ʆ#С͙͒͘ćBÂ##ÃCâ/&Î##Ï'ÒģĚEĀwϋ#######ʒ###ʓ###############################################˒́###################͟#ʪD΋#äçôn{(ڎ#UǉRȢ).#U؋#&͚́o#͌#˒ٟěڢ+æç͍͛1͚###################͟#͞#͟#å#Р###̏#Ɩ#ƫ'̦##ɯCʎϑ#c#̞Eav#΃ö#ãЌˏÙηĊUÙȜ¶SƼĩSŘС#ê(F##ÂÃâƇ##ÎÏÒcĚāО#######ʓ###ʒ###############͞#͟´D×#͌#͍#ĨRř#̀́ˎ¬͙͓͒####################Рå#äʩ#Ɩ#äbcb̟#ĕ´µÖ×#М#&7Ѝ͌#͍ζÙØȝ#ʆ#С͙͒͘ćBÂ##ÃCâ/&Î##Ï'ÒģĚEĀwϋ#######ʒ###ʓ#############################################˒́###################͟#ʪD΋#äçôn{(ڎ#UǉRȢ).#U؋#&͚́o#͌#˒ٟěڢ+æç͍͛1͚##################ٹ#ǉ#ٸ#ɻ#С###Р###˅$Ɓ#ĬÔ:í̖####:###ɝUʎ͝ŀ^Ž͜Ⱦ_ȃ#ûHÔňqIŉ#ʁ+ü#̺ÀÁØϯ#̶ĸĹĺԗØŽʠУ$##%$%#Т###Р#########ࠡ###ࠠ#ǉ#̝H:aͽǤUƇˌpH҂ŽżŁҝǁƸƹО###Ί#ƽ#Ƃ#¾#ܛ#¿#Ϭ####ɺ#ɻ##########ÄIHa#####ОƳUƸϳȂȃ####ОǁǀƹӋ:À#̺À:Ùё$ĸ#̶ĸ$ĻңżÙOʠƾֿ#$#%#$%Т###Р#########ࠡ#$%Т###΋#Ƽ#ȍ#ޒ#í#׿#̐###Р#####ų###Ų#ĭ#$Ƣ#kjkjߗk#jk%Т###˺#ד#¢#˞:#ɸɹʎѯѠ*ӡ#_̖Iǎ*ӡ#_Җ#ӑǃ׸|Tڍ#ĪԞŽØ#Ӌɸɸǂǟ>ԧ###ː###########Р###ٹ#ǉ#ٸ#ɻ#С###Р###˅$Ɓ#ĬÔ:í̖####:###ɝUʎ͝ŀ^Ž͜Ⱦ_ȃ#ûHÔňqIŉ#ʁ+ü#̺ÀÁØϯ#̶ĸĹĺԗØŽʠУ$##%$%#Т###Р#########ࠟ%##ࠠ#ǉ#̝H:aͽǤUƇˌpH҂ŽżŁҝǁƸƹО###Ί#ƽ#Ƃ#¾#ܛ#¿#Ϭ####ɺ#ɻ##########ÄIHa#####ОƳUƸϳȂȃ####ОǁǀƹӋ:À#̺À:Ùё$ĸ#̶ĸ$ĻңżÙOʠƾֽ%$%##$%Т###Р#########ࠡ#Т###΋#Ƽ#ȍ#ޒ#í#׿#̐###Р#####ų###Ų#ĭ#$Ƣ#kjkjߗk#jm#Т###˺#ד#¢#˞:#ɸɹʎѯѠ*ӡ#_̖Iǎ*ӡ#_Җ#ӑǃ׸|Tڍ#ĪԞŽØ#Ӌɸɸǂǟ>ԧ###ː###########Р##С#$#%###8###ˆ#Ġ#ϓ#*#˄w-Ń#û#ҿ-$*ࠂ#ϥä×¦ưe/p·t/i֕=(6M2(9μ#/#ɺ##denɿ##()(+:;\\@{#######͌###͍#############$#%#Е($+ѪÊ×Ďԭ2(9ْqpeʃ-,-Ѱ###ȉ#ƚ#؟#ņ#Ň#ņ#˛###Т###Ϛ#ġ#ŋûúûҿ#3()*߾#ι#C´/ÖZ´hi֕#Β#9,-,ˆ-e##d,oȭ#)##(#)%:;\\@c;#######͌###͍#############У###غ#ƚ#ԩ###ţ###ۖ###С#8###̂###̉#˄#˕\\[#ƟưƱưƱư#ƱƜ#У###Ŕ###˰#Ѝ%Ѫ#é6ÂǦɷ#h#Ȱ.؁(Κ#h#Ȱ.Ƚ#9ʰĳ×k#%\\#]:;#679ƠƋ΂###Ī#######ࠡ###Т#####$#%###8###ˆ#Ġ#ϓ#*#˄w-Ń#û#ҿ-$*߶#ϙä×¦ưe/p·t/i֕=(6M2(9μ#/#ɺ##denɿ##()(+:;\\@{#######͌###͍#############$#%#Е($+ѪÊ×Ďԭ2(9ْqpeʃ-,-Ѱ###ȉ#ƚ#؟#ņ#Ň#ņ#˛###Т###Ϛ#ġ#ŋûúûҿ#3()*ࠊ#υ#C´/ÖZ´hi֕#Β#9,-,ˆ-e##d,oȭ#)##(#)%:;\\@c;#######͌###͍###########У###غ#ƚ#ԩ###ţ###ۖ###С#8###̂###̉#˄#˕\\[#ƟưƱưƱư#ƱƜ#У###Ŕ###˰#Ѝ%Ѫ#é6ÂǦɷ#h#Ȱ.؁(Κ#h#Ȱ.Ƚ#9ʰĳ×k#%\\#]:;#679ƠƋ΂###Ī#######ࠡ$%#Т##",
"textureCoords":[
{
"UVOffsets":[
101.96059215811425,
140.03923112415751
],
"UVScales":[
6.0236796870648492e-05,
6.0064637177281416e-05
],
"UVs":"揉#ʊ#ౕ&τ#姦#ɂ#ڝ#̣#⿕ߩߨߩ◌Ћ˵˂ᵀ#֚#㞽˺úȵ♸#㻫ѓђѓБΕĬʊࢯԻƔψ⦌ȈÄŻǺ̗ňƖⱉ#ӑ#㷖µ࠴ǻƦΓ᨟ߩ⋮ϠϡЂ㹃#ǀ%Խ㖤ؕʲ΄ȘϝϜ̟㕰#˿#❟#ϝâɿ΄ؗؖع̡୷̺̠ع㈃#ʋ#㧞Ҏƹɵệѓђѓ⇬̘ŉƗ㝍ʋʊΕ©ьэь戾ঢ়ড়ঢ়䨓#ʕ#ᯢ#Ʊ# #ư#༥#ݿ#ァφ&ϋ探#̢#ј֛֚֚⯥ǁבҖԛт΅#ឞ#噧ѓђ#ѓ#ᶳϊϋ䊆ŕ䅱#ᦐμνμ㕒сɈ̃Ի̂ЍѤឹߩߨߩ㐐ЁBϠ攷Ǆ#ƽԸΠヘؗ΄΅ȗϜϝ̞䣞˾#˿䎟#Ϝãĩ΄΅ؖD̠ଢ̸଼̢#᳜#㢑#䀖#ʖ#ࣝ#㬓#Ť#㢐#䱅ড়#ঢ়ဵ#ด#ɂ#Ε#Ŵ#互DປΖ䝹%Δ#丆ЗЖЗ⑾Д#ЕФ#㖯#ݿ#ᨢ#ᶆ#悿&▮ƹ㽲#䲿#োഥĜ#ᦁ&'Ɠ䖴Å䓇#⃶##Īቃ#ₘ#ₙዀђࡁ#Β#ᄷ'ǂ#ਿ⠌###෻෺䆴#Ŵ#曝ಡಠಡ翘#ಡ#ܬᶇᶆᶇᕭ###⮑#ʊ#ౕ&τ#姦#ɂ#ڝ#̣#⿕ߩߨߩ◌Ћ˵˂ᵀ#֚#㞽˺úȵ♸#㻫ѓђѓБΕĬʊࢯԻƔψ⦌ȈÄŻǺ̗ňƖⱉ#ӑ#㷖µ࠴ǻƦΓ᨟ߩ⋮ϠϡЂ㹃#ǀ%Խ㖤ؕʲ΄ȘϝϜ̟㕰#˿#❟#ϝâɿ΄ؗؖع̡୷̺̠ع㈃#ʋ#㧞Ҏƹɵệѓђѓ⇬̘ŉƗ㝍ʋʊΕ©ьэь戾ঢ়ড়ঢ়䨓#ʕ#ᯢ#Ʊ# #ư#༥#ݿ#ァφ&ϋ探#̢#ј֛֚֚⯥ǁבҖԛт΅#ឞ#噧ѓђ#ѓ#ᶳϊϋ䊆ŕ䅱#ᦐμνμ㕒сɈ̃Ի̂ЍѤឹߩߨߩ㐐ЁBϠ攷Ǆ#ƽԸΠヘؗ΄΅ȗϜϝ̞䣞˾#˿䎟#Ϝãĩ΄΅ؖD̠ଢ଼̢ῲ#㢑#䀖#ʖ#ࣝ#㬓#Ť#㢐#䱅ড়#ঢ়ဵ#ด#ɂ#Ε#Ŵ#互DປΖ䝹%Δ#丆ЗЖЗ⑾Д#ЕФ#㖯#ݿ#ᨢ#ᶆ#悿&▮ƹ㽲#䲿#োഥĜ#ᦁ&'Ɠ䖴Å䓇#⃶##Īቃ#ₘ#ₙዀђࡁ#Β#ᄷ'ǂ#ਿ⠌###෻෺䆴#Ŵ#曝ಡಠಡ翘#ಡ#ܬᶇᶆᶇᕭ##㗝༰༱༰༱༰༱༰⛎╉#╈劳ڐڑڐЅ#σ#⁄Ѕ̦˦᪩ڑڐڑሖٕȪҤቯڐỰڧ#ڦ୍#˦#˧#˦#એыƎ̞Ԑ¿į΀῵ΞΟΞᶾͬະ͝;Ϡ➇#౟੤#੥Ҳᙚᙛᱬ#ࡨХ҉ዎ඿૫ટɰభڐڑڐjᕨડࡒซ࡯Ј๋#న➀ేె௉ଐ༱#༰ὧĢƨԡฺ۝#ۜॿ¾Į΁ആ˦#˧₹Ξ#Ο夶╉#╈╉╈#╉嫹╈#╉╈╉#╈╉╈#╉䩤༰༱༰Ⳮڑڐڑ##ڐ#ᕺ{׎þƾυᦥڑڐڑኤ#౹ي#ً᭜˦#ࣧc᩹ΞΟ#Ξ#➸T̮ǗӭɾŬ˩✅#̋#ö੤੥੤וᙚᙛᱬ#ص੸Фࢋዎ඿૫ટɰഓڑڐڑ⍲ᕩ૪ࡒᙳࢊ኱๊๋న➀ేె௉ಖ╈╉╈#╉╈╉#╈#╉╈╉#╈#╉╈╉嫻╊嫸╉╈╉╈╉╈╉⨓੥ㄐ̏⦕ᱬᱭᱬቸ╋#╊#╋╊╋ྩ╉#╈#╋姸╋#╊§༱ֹƨᣩڐ╮ڡڠ༇⍽Ξ ༰༱˧ǽƍᵵΞ ༰༱˧˦༰൏ڛҸ␣#⅞ᱭ#ᱬ#ᱭᙚᙛ#Ꮰٻًّⴄ㌇姜╉╈╉╈╉#╈╉╈#╉ĥ╋#╊㍓஬஭஬ᠶ༰༱༰༱༰༱༰⛎╉#╈劳ڐڑڐЅ#σ#⁄Ѕ̦˦᪩ڑڐڑሖٕȪҤቯڐỰڧ#ڦ୍#˦#˧#˦#એыƎ̞Ԑ¿į΀῵ΞΟΞᶾͬະ͝;Ϡ➇#౟੤#੥Ҳᙚᙛᱬ#ࡨХ҉ዎ඿૫ટɰభڐڑڐjᕨડࡒซ࡯Ј๋#న➀ేె௉ଐ༱#༰ὧĢƨԡฺ۝#ۜॿ¾Į΁ആ˦#˧₹Ξ#Ο夶╉#╈╉╈#╉嫹╈#╉╈╉#╈╉╈#╉䩤༰༱༰Ⳮڑڐڑ##ڐ#ᕺ{׎þƾυᦥڑڐڑኤ#౹ي#ً᭜˦#ࣧc᩹ΞΟ#Ξ#➸T̮ǗӭɾŬ˩✅#̋#ö੤੥੤וᙚᙛᱬ#ص੸Фࢋዎ඿૫ટɰഓڑڐڑ⍲ᕩ૪ࡒᙳࢊ኱๊๋న➀ేഔ╈╉╈#╉╈╉#╈#╉╈╉#╈#╉╈╉嫻╊嫸╉╈╉╈╉╈╉⨓੥ㄐ̏⦕ᱬᱭᱬቸ╋#╊#╋╊╋ྩ╉#╈#╋姸╋#╊§༱ֹƨᣩڐ╮ڡڠ༇⍽Ξ ༰༱˧ǽƍᵵΞ ༰༱˧˦༰൏ڛҸ␣#⅞ᱭ#ᱬ#ᱭᙚᙛ#Ꮰٻًّⴄ㌇姜╉╈╉╈╉#╈╉╈#╉ĥ╋#╊㍓஬#"
}
],
"vertexCount":705,
"vertexOffsets":{
"xOffset":0.021706799697177183,
"yOffset":-1662.1651981881189,
"zOffset":-8191.5
},
"vertexScale":0.01335604493670256,
"vertices":"ॗ#Ħ#ħ#y#বႃ#ႂස#ƅ#Ӛ#ȼ##ȽÈƖѱ#Ú#ČÎ®¡١#؞âUoȔƗĦȕ y» yżƗĦˏEð=×þÿż¡K×##Ö×ÖJ# #¡ÿ˅ńƢþǇǆųŲ#ų#Ų#ǇvįƢ˅˄˕ŵƁƀŴ˓ࡒ#Ħ#ħȤ¯ƙ#ƘRǉ#Ƙħ#ĦħƘ®ȥȾȿࡒႃ#ႂႃႂ#ႃ#ႂ#ႃႂႃ#ႂႃႂ#ႃম{#z֚#ƅ#ŇÙØÙčßȕȤȥƘۜ#ԏ#ĳeȕǈSƙȔđz¸¹ŴD˳ȤȥȾ#ÉżāĀŽÈML#Ö##×#ÖŽ##΢˅ƠơāǈǉŴ#ŵ#Ŵŵ#ǈwƠơ˄0ŶŷŶž#ႃႂႃႂ#ႃႂႃ#ႂ#ႃႂႃ#ႂ#ႃႂႃ#ႂ#ႃႂႃႂႃႂႃࡒ###Ƙ#ƙ#ࡒႃ#ႂ#ႃႂႃႂႃ#ႂ#ႃႂႃ#ႂॗ#¯ť#ǰ¡nÄğ=̀###Ġ<Ļ##ʝ#ƖħUǈ#Ƙ#̍#¡#ІƙƗ#৆ႃႂႃႂႃ#ႂႃႂ#ႃႂႃ#ႂႃ#ႂ#ᦷ#Ħ#ħ#{#মႃ#ႂස#ƅ#Ӛ#ȼ##ȽÈƖѱ#Ø#ČÎ°¡١#؞âUoȔƗĦȕ {¹ {žƗĦˑEð;ÙĀāž¡KÙ##ØÙØJ# #¡ā˃ńƠĀǉǈŵŴ#ŵ#Ŵ#ǉvĭƠ˃˂˓ŵƁƀŴ˓ࡒ#Ħ#ħȢ¯Ɨ#ƖTǉ#Ɩħ#ĦħƖ®ȣȼȽࡒႃ#ႂႃႂ#ႃ#ႂ#ႃႂႃ#ႂႃႂ#ႃম{#z֘#ƅ#ŅÛÚÛčÝȕȢȣƖ۞#ԑ#ıeȕǈUƗȔđz¸¹ŲD˱Ȣȣȼ#ÉżÿþŽÈKJ#Ö##×#ÖŽ #¡ #Π˅ƢƣÿǆǇŲ#ų#Ųų#ǆwƢƣ˄2ŴŵŴ༥ႂႃႂ#ႃႂႃ#ႂ#ႃႂႃ#ႂ#ႃႂႃ#ႂ#ႃႂႃႂႃႂႃࡒ###Ɩ#Ɨ#ࡒႃ#ႂ#ႃႂႃႂႃ#ႂ#ႃႂႃ#ႂॗ#±ť#ǲ¡nÄġ;̀###Ğ<Ĺ##ʛ#ƖħUǈ#Ɩ#̋#¡#І¡ ¡ƗƗ#৆ႃႂႃႂႃ#ႂႃႂ#ႃႂႃ#ႂႃ#ႂຩ#¿&ϐ%ƭ#޽#(#र̗̖̗Ǚ0ů6#ŚĚûƪ̖̗̖Ɲ̑ðɂƜ̗ƜɃmʌ̡ú¾¿ɈɊ¿Ư#ɇ¼ƬɆ$¿ƒ̝#̑Cƶ#̖ÒÓǊҿ#̖Ǌǋǚӏ#Ó&ɈƝ#######̖̗̖̗̖#########̗###π$½%ң*ðȕØŞm¯ö%¼Ɠؚƕ¼$ԹųŒħΫѯѮѯᤄ#ķ#ƫ#¨#ᕧ#©#ሦ#͢#ઃƬ$ƯƜ̗̖̗##̖#Ɲ#̘+ňȕË̗̖̗Ɯ#΀ĕmö̙ƮƯ####жŉŴŕٓĚÒ#̖ÒĚǋӍ0Ǌ#̖Ǌ2ǛχÒ#ÏɈƜ̗#######̖̗̖̗̖#########̗###ଡ#ᤔ#ᦙ#ĸ#Ĺ#ᨚ#¥#ᤕ#ᐶѮ#ѯͬ#ͳ#(#¿#¸#͝67Żý%þ)ь+*+๩*#+ϡ#¨#͢#ව#ഡ#Ԗ#ώîƗ̗ςɉʎЙҚBһ##¿Ѯ¿ƆBһ##¿ϔ%ϑùҨ¸l֍'ú&Ѱ$Ó##ρɆɈöû&ঢ়#¶#ย̗֩֨֩#֩#¤ഠഡഠԩ###̧#¿&ϐ%ƭ#޽#(#र̗̖̗Ǚ0ů6#ŚĚûƪ̖̗̖Ɲ̑ðɂƜ̗ƜɃmʌ̡ú¾¿ɈɊ¿Ư#ɇ¼ƬɆ$¿ƒ̝#̑Cƶ#̖ÒÓǊҿ#̖Ǌǋǚӏ#Ó&ɈƝ#######̖̗̖̗̖#########̗###π$½%ң*ðȕØŞm¯ö%¼Ɠؚƕ¼$ԹųŒħΫѯѮѯᤄ#ķ#ƫ#¨#ᕧ#©#ሦ#͢#ઃƬ$ƯƜ̗̖̗##̖#Ɲ#̘+ňȕË̗̖̗Ɯ#΀ĕmö̙ƮƯ####жŉŴŕٓĚÒ#̖ÒĚǋӍ0Ǌ#̖Ǌ2ǛχÒ#ÏɈƜ̗#######̖̗̖̗̖#########̗#ଡ#ᤔ#ᦙ#ĸ#Ĺ#ᨚ#¥#ᤕ#ᐶѮ#ѯͬ#ͳ#(#¿#¸#͝67Żý%þ)ь+*+๩*#+ϡ#¨#͢#ව#ഡ#Ԗ#ώîƗ̗ςɉʎЙҚBһ##¿Ѯ¿ƆBһ##¿ϔ%ϑùҨ¸l֍'ú&Ѱ$Ó##ρɆɈöû&ঢ়#¶#ย̗֩֨֩#֩#¤ഠഡഠԩ##➯ټٽټٽټٽټᬏ#Ē#۴#ē#սҨҩҨ##Ɯ#ɜ#ʨ#᎘#O#ᤋ#ំŦŧŦఽ#Ō#ō#Ō#ھ#e##dedҢɨɩɨᰙƜƝƜ#ƝҩҨҩҨ#ҩآংঃఒ#ඍǦȒ࡝آӢӂħĦ#ħ#ࡿংӃξمϗǦ٭#ռսռսՄᑴٽ#ټҸNONƓŦŧŦҹdedߩŌ#ō౨ɨ#ɩῑ###¯#®#⒖#Ò#Ó#Ò#Ó###စټٽټᐽ#Ē#Ȓʨʩʨ᎘O#N#Oᤋ#ड़#ຌŦŧ#Ŧ#ఽŌ#ھeӤɨɩ#ɨ#ᰙƜƝƜƝƜƝƜأҨҩҨҩҨҩҨƜংঃఒ#ʳहǧϖ࡝آӢӂħ#Ħ#ħĦঃӢξ৹ϖ࡝٬٭ռսռսՄઝ###Ͷ#®#͵###±###Ђ###㱀#㭑#ē#ƚ#«#԰ҩҨƜ#ఒఓఒ཮ǢǣǢǣǢ#ǣᦌ#៍###ʍ###݁ٽ଒N࿽#୼#̲৏ାɨඅټٽōߨeӤɨඅټٽōŌټd#ڿ଒ŧૹఓ#ఒ#ఓংঃ#Ꮨ###Ѷѷᩡ#ª#########₴###₵ՄՅՄบټٽټٽټٽټᬏ#Ē#۴#ē#սҨҩҨ##Ɯ#ɜ#ʨ#᎘#O#ᤋ#ំŦŧŦఽ#Ō#ō#Ō#ھ#e##dedҢɨɩɨᰙƜƝƜ#ƝҩҨҩҨ#ҩآংঃఒ#ඍǦȒ࡝آӢӂħĦ#ħ#ࡿংӃξمϗǦ٭#ռսռսՄᑴٽ#ټҸNONƓŦŧŦҹdedߩŌ#ō౨ɨ#ɩῑ###¯#®#⒖#Ò#Ó#Ò#Ó###စټٽټᐽ#Ē#Ȓʨʩʨ᎘O#N#Oᤋ#ड़#ຌŦŧ#Ŧ#ఽŌ#ھeӤɨɩ#ɨ#ᰙƜƝƜƝƜƝƜأҨҩҨҩҨҩҨƜংঃఒ#ʳहǧϖ࡝آӢӂħ#Ħ#ħĦঃӢξ৹ϖ࡝٬٭ռսռ૕###Ͷ#®#͵###±###Ђ###㱀#㭑#ē#ƚ#«#԰ҩҨƜ#ఒఓఒ཮ǢǣǢǣǢ#ǣᦌ#៍###ʍ###݁ٽ଒N࿽#୼#̲৏ାɨඅټٽōߨeӤɨඅټٽōŌټd#ڿ଒ŧૹఓ#ఒ#ఓংঃ#Ꮨ###Ѷѷᩡ#ª#########₴###₵Մ#"
}