{
"boundingBox":{
"max":[
1287.9312744140625,
1298.422119140625,
0.00019323627930134535
],
"min":[
-2043.51171875,
-1261.06982421875,
-0.00019323626474943012
]
},
"colors":"",
"compression":{
"compressed":true,
"compressedColorsRange":255,
"compressedUnitVectorRange":1023,
"compressedVertsRange":16383
},
"indexLengths":[
12
],
"indexModes":[
"Triangles"
],
"indices":"#%%#%(+%%#%(",
"name":"Lib_Ceiling1_MESH",
"normals":"С#######С###########ࠡ###",
"textureCoords":[
{
"UVOffsets":[
0.0,
0.0
],
"UVScales":[
6.1038881767686015e-05,
6.1038881767686015e-05
],
"UVs":"##耡#耠#耡##耡#耠#耡#耠"
}
],
"vertexCount":8,
"vertexOffsets":{
"xOffset":-5024.6773780878157,
"yOffset":-3100.7744951015493,
"zOffset":-0.00047513791049193092
},
"vertexScale":0.40669510995105446,
"vertices":"##䀡#䀠#䀡##ㅍ#ㅌㅍㅌ#ㅍ########"
}