{
"boundingBox":{
"max":[
22.642400741577141,
23.514186859130859,
107.66374969482422
],
"min":[
-24.729475975036625,
-23.514211654663086,
-0.180908203125
]
},
"colors":"",
"compression":{
"compressed":true,
"compressedColorsRange":255,
"compressedUnitVectorRange":1023,
"compressedVertsRange":16383
},
"indexLengths":[
6084
],
"indexModes":[
"Triangles"
],
"indices":"#%%%%%$$)%%%$$)%%%%%%$$)%%%$$)8;>?:=%%%%%%%$$PW%$V$]%%%$$)%%$$)%%%#%(+%%#%(+%%#%(+%%#%(+%%#%(+%%#%(+%%#%(+%%#%(+%%#%(+%%%%%&'%%&)('$)%%#$'$'*+&)%%%$$)%%%$$)%%%$$)%%%#$'(''%%%&'%%%%$$)%%%$$)%%%&'%%%%%$$)%%$$)%%%&'%%%%$$)tw%$v.&)#%&~%F©'¬¡#1$'%%$$)%%%$$¼_ml#%%$$)%%%#$'$'*+&)%%%&'%%&)('$)%%#%(+%%$$)%%%#%(+%%$$)%%%#%(+%%$$)%%%#%(+%%$$)%%%#%(+%%$$)%%%#%(+%%$$)%%%#%(+%%$$)%%%#%(+%%$$)%%¢£ $+'#%%$/%%$+'#%%$/%%$/y|}x{%%z{x$+'q#ps%%rsp$+'i#hk%%jkh$/ade`c%%%#$'%%%&)&)%%$$)%%%$$)%%%$$)%%%$$)%%%$$)%%%$$)%%%$$)%%%$$)%%%$$)%%%&'%%%%$$)%%%$$)%%%#%(ư9ƣƢƥ$'%%$$Ƹ-Ƶ%$ƴ(ƿ%%&'%%%%$$ƾǅ%%$$)ȠȣȤȥ%Ȧȩ%Ȏ#ȏȌw$ƽ#Ƽƿ%ƨ'&Ʃ%ƚƝƞƟ%Ơƣ%%$$)H.WJK%%%%&'%ɞɡ%$ɠ)ɟ%%&'%%25430%ɘɩɨəɚɭ%%$'$'%%&'%%ɴ$%ɵ%%%%$$)%69874ɰ+ɯɮɿ25%%$$)%%%&'%%Ȁ$%ȁ%%%%&'%%69874Ǽ+ǻǺȋ25%%$$)%%%&'%Ȗș%$Ș)ȗ%%&'%%25430%ȐȡȠȑȒȥ%%$'$'%%#$'%Ú'&Û%%+%ɺˡˠȧ}RYXSPoghi%jȆɑhiɐơ70169S%%#$'%Ú'&Û%%~|Âƴ'#Ƴ$=ƴ'#ƫ)ƾ&$%')ĤΟ%$Ξ'ΟΊ'ΉΌ΋'%βε%%$$)%%%$$)%%%$$)ΠΣΤΥ%ΦΩ΂΅΄΃';΁ͣ͢΀΃Ͳ͵Ͷͷʹͷ͕͖͔ͣͣ͒͗͗͢͞͡͠%̨-(),$5%@#A:)'̥̆-(),$*9)>?<:y|#} #­°#±1*z}-{/'@#A>[÷ÀÁöóǅʌɩɨʍɸ'çðñæãƷɮɱɰɯɚ7ÏØÙÎËƣɂɅɄɃ'Ȯ¿ÈÉ¾»ƙȨȫȪȩɔq< #U¢ #¡(')#05/.(/)x#0ȃɆɉɈɇǶ')h#0q}H#I='ǧ%$ǦǫǤǧ%$Ǧ'3$,#-&9$,#-&Ǎ%Ƽ#ƽƶ,$9#8?;,$%-(+4(;:AŉΒΕΔΓΐ]Η͸͹ΖΙΈ΋%$ΊΏɾ× ¡ÖÓǑɸɻɺɹɤ'ÇǁǀÆÃǇɞɡɠɟɊa<#Ui0/.(ȥȚp#ɫ$ɐep#q(șȆȉȂ(ȇǒ$,#-&9$,#-&Ǎ%%$$)%ȒǩǨȓ%%Ʀ%$Ƨ%%Ƣ$%ƣ%%%%$$)̶̸̹̻̼̼͂̓̿#̽$'%͂̿̾̓,/23.1,/0321,-./,1,/2103%%%%%%%%,-$',/(#)$(+./*-%%%#$'%%%%%%%('#'$()'#&)$'23&%%6'&7%%%%$'$'%%$$)%*-,')#%&'$'>A%$@(+$EDC%#@$%A%%%%$$)%>$#C$#8()9'%:&#=%69%$8$=8$%9%#8$%9%PKDEJMLO$%N+#I$%H'«%%%%$$)%%%(+.1%%$$)%%%&'%%%%$$)%03%4$ɚɱɮɯɰɳЂЃɲɳЂЅìï%$îƤ#ƠϯϮơƤϱЂƹƸЃЄ̻óðñòõ%ð$%ñ%%VYXWT/5$ɜ$YXɹɂHKɃɂJ$ǂǃǀǁǂƷƸƷƺ'Бɼɿ%%$$)#%()$'òñ'ôõÔ×%%%%,-$'ÞÝ'#%âå25$%%%%.#/%%$%%%%$&Ѡѧ%$Ѧ*'ѭ%$Ѭ'1џќѝўѡѦѣ)(Ѣ.(ѷ)(Ѷ=Г&yx'ôŉ$-H'&I8.$±°³$pZ­¬[X,/§¦Uu(23,(,)%$(%='DA@¯2Ҕ'&ҕ$%ҌҏҎҍҐҕѼ&'ѽ%Zknojm%BEDC ƈƏ(Ҏ̩Ƒ҆>?҇(7DCBE¦S'yx&ɸƲ̓̀́͂ƿɃaG#Fk#j',%-./*'$3*%/#,&Ƥǧ%$Ǧ$Ƴ$_%%%#$'&)$#%%%dg%%432'3%%Քϱ'&ϰ&ñҍҐґҌ̓#ů$%Ů3--0#1ō%Ĝ'&ĝ%ĐDĵĴEFĵ'Ģ#ģĂ)û'&ú:ėĠEDġ*-ö$%÷%¨«`aªĀŁ/a`.Ûöýü÷ðkú()û$­ƈ±°'­{-Þ#ßÜF%CDE'áÞ&Éê01ë)7$1./feèédaÞ~8ïìíîñæ'éìíüý&úÿþùˮȸȻȺȹȶȳ$Ȥ'&ȥáº½¼»¸½˴ɣɢ˵Üa&.%$/'%$˖˛Ö×˚ɷ%5$%4'˶$ս#ռտȆȉȌȏȎȍՠեȂȃդ)ա%՚՛$'ՊՍՎՏՌՏԄ-(),$K*)%$+/ӏӌ$ӑ$Ҫ>$%?(v#(#3012'ҩΐøùΑΔΗ%%$$т'ßèéÞÛƋɦэ#ьOmϳ%#Ѳ¡zϥ#ϤϧϨ)#0ªh#i=ϟκ$%λǲǈ$Ν#ΜΟά$9#8?S,$#))/͙%#͘$+$9#8;ǄƵ)ƺ&ƹƺƵƖ#Ɨ7ɰ·ȫ#֌$ǭχςσφωǊƪƩƨƫƤɱ'òïî$͜ѱѮѯѰѽ#ҞғҒҟҢΧřŖ),/ŏŞ+).%ƭҶ|#&ԕȞ̜.ȯ$ƪ'&ƫ(ƚƝƜƛƘɍ'%$ɜɡÖ×ɠȃ525430oZ]\\[X]ɌțȚɍÒ·&.%$/ʑҨ(#.һՌ«¨ϟĽĺ)47ĳŌ5)6%ó$i^Õ׎בא׏'׎׍אב׌ב%ָֺֹֺֻֽǨǫǪǩֺֿ$Ǫ#$ǯ%%%#%(+%%#%%$$$+%%#%%$$$)%%$$$)%%$$$+B$G%%&'%>ADE@C<';>?%$6;:7:?6987:?4$%5%ǆŹÒëɪ'&ɫ$S$/#*-,+.'%+%($%)%69:;8;,%-*+()*'#%%׺R4#58كؼ[Zؽ%ؔJMLKDعغ$%ػ%تحئ&حت'ءؼ'E*5/d$ٍؖ'؇؄'JIՉë%ؠͷ¡ ͶLف˄ΚΛ˅/,ʺΎ#Ώ*ˏ%ð#ñˎˑشΧΦص%ج;B#C΃΂0Αΐ1$·Δأآا&ɖūŤťŪ ˏĊǨǩċ/2ìǲǵ$í֪23֫؞؟ؘ(6'&7'؇3ئ4ط8ÂeKJĉ٨Q'Pe&`aZ١%%ٔS'VWPBٱˠˣ%%$$)ٸٻ,ِQؙنه=%'&$$%)AFG&'-0#1-ؤ<98=K^ىٌٍوؿ(,/لγΰƁɫ$%ɪ'ԙԈɹɸԉԌ3чǸǹц'ɫɞ'&ɟǥАəEDɘ'/ɩFGɨ'/ҿʀʁҾ'3ȧȪȫȦɋʾ5./47/5./47?ɏɈɉɎɇȦPWVQN&5./47/5./47ϵцяючф/PWVQN.ÿ./þ)-÷ΛΚö)-ï./î)-Ç76Æ)-ß./Þ)-ɣƺƻɢ)-Ï./Î)-§76¦)WTUVY8.10/,].10/,M.10/,HWTUVY8ɭɪɫɬɥǋѨѳѲѩѦM.10/,ňաȀȁՠ)%ͽˇˆͼ)%ՕȀȁՔ)%ͩȉȈͨ)%ͩSRͨ)%؃˂˃؂)%͝UT͜)%ͿJK;)`?<=>A0&)('$=&)('$5&)('$8?<=>A0׽׺׻׼΍ǅ՚ثت՛՘5&)('$х>%#C(BÉÆȗ%ڊڍ%%&'%%%%$$)%%%%%%$$)%%%$$):=%$<$Cڄڇ%%%&'%TW%XYVY%%&'%%%%$$)%%%$'$'%%#$'%%%#$'%%%#$'%%%#$'%%%#$'%%%#$'%%%#$'%%%#$'%%%%%%$$)&)%$(')%%$'$'($%)%%%%$$)%%%$$)%%%$$)%%%&)&%'*-%%$$)%%%$$)%%%$$)%%%$$)%%%#%(+%%$$)%%%$$)%%%$$)vyx{$'%#$'%%#¬#¯.#/%%%%#$'%%¾¿$'l#m=#%%$$)%%%$'$'($%)%%%%$$)&)%$(')%%#$'%%%#$'%%%#$'%%%#$'%%%#$'%%%#$'%%%#$'%%%#$'%%%#$'%%%#$'%%%#$'%%%#$'%%%#$'%%%#$'%%%#$'%%%#$'%¢¥#¤'-&%%#'-&%%#'-&%%#'-&%%#'-&}xy%%z}#|'-&u#%ruru#t'-&mhi%%jm#l'-&e`a%%%%&)&)%%#$'%%%$$)%%%$$)%%%$$)%%%$$)%%%$$)%%%$$)%%%$$)%%%$$)%%%$$)%%%%$$)%%$$)%%%$$)پځچ#ڇ%ƴƷƜƟƞƝ'%%$$ƴƻưƳƲƱƸƽپځڂڃڀڃ%ƶƷ$'%%%#$'Țȝ%ȞȟȜAȁ%Ȃ$ȃƮ$ƵƲƳ%%ƠƣƢơƞ/Ɨ%ƘƙƖƙ%%#$'%R+KJM%%%$$)ɖəɒɓɘɛ%%%%$$.5%$4'%ɐ$%ɑ3%%%&'%%%%%$$)ɪɭɬɫɮɳ%%$$)%2%$3%03ɶɧɦ*ʁ%%#$'%%%%$$)ǶǹǸǷǺǿ%%$$)%2%$3%03Ȃǳǲ*ȍ%%#$'%%%$$)ȎȑȊȋȐȓ%%%%$$.5%$4'%Ȉ$%ȉ3%%%&'%%%%#$'ÖÙÔÕØÛ%$%%%˘ɷɶ˙ÞSQ$%P%ii%jkhkɈȃȂɉÔ©8$%9%O%%#$'ÖÙÔÕØÛ%'&%ĘƮƱ#ư$9ƭƦ#Ƨ%ƶ*''&-ĢΕ%ΖΗΐΓ;$#΃$'ΦΩ%%%$$)%%%$$)%%%$$)Ζ$Λ#ΚΝʹͷ%$Ͷͻʹͷ%$Ͷ?.ͫ%$ͪ&?͗%$͖&7͋%$͊&͓ʾ'),-(%2A()@'-̟̜C),-(%.=()<$cz$#H£¤±®¯°¿*$x#.0C()B%]õ$%ôWɗʀ/.ʁFɆç()æ.ɹɢ/.ɣ%ȾÍ$%Ì.ɍȶȹȸȷ'Ȥ¿()¾.ȳȜVWȝ%Ȁ¼£¢½<.¡ )$I.))t{zuəȾɁɀsǱǬdkjep<WIHc<ǽǠǣǢǡ'ǚǝ%$ǜǡǐ'.#''3'0#')ǃ%ƴ#'Ưƺ'5#'<W.+*/**589'<ŝΈ$%Ή%͎Ώ%$Ύ?.΃%$΂·ɶ×()ÖWɅɮ/.ɯ%ɚÇ()Æɝ%ɔ/.ɕ%Ȉh<.{)șɤsrɥ%Ɍ.qpk)ȍǾ$%ǿ%ǒ'.#''5'0#')Ӟٿ%$پ'қȇHIȆȉƞơƞƟƠƣ%ƜƟƞƝƠƥٺٽټٻٸ͵̫%$̪,)'̯̮̭%%%̶#̳%*٬ٹٸ٭ټځ$/.1$*+'&*$3.$#/%%%%%%%%%%$$,3.)#'%,-%$,$3ٲٵٴ%ٳ%%%%%%%&$%'%*-&'%(''$%&0$74569%%ٲ#ٳٮٱ%%$$)%%,#-&)$$%%%:=BC<?<?@#A$%<?>=>C٬'&٭%69<#=%658949%:'&;$056#7%434527#476563BEDCFKJGFKB#E@ADCۮ۳٪٭%%$$)٦٩٦٣$+%%%$$)%%٤٥$'%%%$$)٠٣ٰٳ2٢щڀɯед١Ϛϛ%$ϚƯƥÑ%ÒÓɎɏψƝƜ$ƟƲϛɆɇϚ$ϣÔ%ÕÖÕ'ÒÕÔÓÔÙP%$Q%چٱ%ȾUȣȢT%-KLMJɋɔƲƻ#ƺ'.ƹƲƳəϨϫ%%$$)$'%$&$ÒÝ&'ÜCׂٟ%%%%$$(ºÇ&'Æֶ'4٫٘ٙ%%(+*-$puxytw%twڸڷ'о)лрс%онклмсЬЯв#г%кзрсжнюыЮЯъёl(ÐÑ)o%%+B/.C< '&¡%l،¬ڗږ٧*+nL3'&2'*&)('٨ٻ6=<74ѢѥѤѣѠѥўћ#њ(ѧюёѐяіѧ`()a%%@vwA%4Ũţ#Ţ̞ѧќїіѝѴҁBvwC$h&ut'ɘƬ$̷#Ƣƴˌڻټ#ٽE#bٞٙ-*+,''-٪٥-*+,'ƈҶ$ҹҸһƋWڎeُ%$َ%#ّ&'ِ'ُ%Z]ٌم#ل.ٛن$ԟϪϭϬϫϰóэĺĻь$̷ĽĮįļĻĘ.$#īĜMõòóô÷è@$%Aëøû&'ú?+ÕêëÔÙ#úóòûØ֎֕ÕÔ֔øܟcbŐœN,- Ó)(Ò'eâßÞãäőŐ۲݁¼ÅÄ%ÃܺڙBCژIáַٲ܁ÒÙØÓÞԒׯ٤ٛٚ٥GÇRS&܀٥u٤í֛֚هÆÍÆÇÌ.ÓÔÛ#Ú×ʴ$ȰȳȲ'ȩȜ%$ȝ%ß$º½¼'»ˬȱȰ˭´72$%3$+$%ˎˑːȟ65470ɩ%Ը#چ஛ǌǑ%ǒǓǌǏԜ͹͸ԝԠԣ%%$$Ԕ7ԇ%$Ԇ&q),-(%E$()%'3҉%Ҋ$ҋѦ@=<A>G$#)(3./2%ѧ͊()͋ТХ%ЄЅ$'ϼß()Þ.@ɥǍ#ϚVί%$ή IЋΠΡ%΢$<Wih<_͹Ͳͳ͸ǥǂ'͕#%͚4'7#'>k*'&+'1̕%$̔'9ڂ:#ډ5ǀƱƶ)Ƶ&ƘƩ4#Ʋ?҅Ն%$ՇǮƶ΅%$΄'ƥ$%Ƥ'ơÑÒ%Õ&Єч-,ц'Jѵ,#Ѥ(Η'ĥĞ$,īĤ,3.$ŻӌyxӍӐ̠̑-%ơƢƣ%*$ƒƕƔ'ǥ$%ɔɗɖƥ%654'o$Z]\\'[ɄƓƒɅT'$523$ɕѪ'&ѫѶ²$­̓'čĆ$0ėČ292$×[\\·۲ڏԢ։%$ֈ֍֊։'&ֈ$֑մ$%յ%Ƭƭ%$ƬϬʶځҴҵƯـ'ؿ%%$$)%%%&)('$)%%%&)('$'%&'$'#ؼػغؽغ%Dف?ش$%ص%47%$6(3(769$,-'&,&ضىزسوػؠرلطضمƄ׌۳ȘȭȦȧȬȫI)*+&&''خثت*/حشرذص.1%$0$/ؤ,-اجحئة#بث׌Qd#$92ן֦֧מסֶ$HKJ'%כמןךם׌'׋׌'׋׈>ןל?+)VebWְֹ$֧֨$@ľíةׄϱ¤#ΔIͱɯלםɮɹɬΈͿ;Ήɥ-۴ҡҠ۵ب{דɘəגוֲ:*#Ι͸45͹͸41Ϳə׀#ׁ'ȀٺťԹԸҷҸܑɸɹܐėձو۳ÌÍɨͪէնշզֽ#ּ'85234;ָׅ֩ז׃5ۜإXYؤá٨UڅF[`_^a׃%%־R'&S$ېਏʅ%%%$$)౸౱ؘؑפ֍֌ץָչ$'&%&?<98=8?,32-(ז?()>_X׫,-ת$ןتإెڋΧ=ɠɝɜɡɤʅɴҧ#Ҧ'ЏϾɥɤϿЂɧɒϛϚɓɖɡɌɱɰɍɐɳɞȻȺɟɢѩєɗɖѕјəɈȣȢ'ȟʎ1$%0%A1$%0%QɁ*+ɀ%AT$%U%T1$%0%A1$%0%οЂ$%Ѓ+ϸT$%U%^ÿúûþóâ÷òóöЩИïêëîáÐÅÀÁÄÙÈÝØÙÜÑÀɝɘəɜËºÏÊËÎÁ°§¢£¦¹öT$%U%D1$%0%Q1$%0%A1$%0%1T$%U%ɑɤ$%ɥ*ʺХ+*Ф%A1$%0%ņԛԖԗԚ͹ͰͳͮͯͲְֹԏԊԋԎ͚ͭͤ͛͟͞ԉԀ͚͛͟͞ΑΈ֛֖͙͓͎֚֗͐͏͒΅ͼͷͲͳͶ͍ͪ<$%=%4)$%(%9)$%(%1)$%(%)<$%=%։֔$%֕ȰδԗÑÐԖ%1)$%(%Эڈٯٮډ٨ٍٰÇƪǽ'&Ǽ$+ࣲ࣭ࣳ࣬ʻ3)894;=)#F'E/6#<EJکںڻڨɦʧ&*#.;ØǾ+#'ǳǼ˃جح˂ˏչǊ%#ҠهǀʗTUʖ'ȧ4'&5&+;$%:$;'<=&1gʒȧ#0f)23('ɖǁƾƿǀ,%΂׏ɮɯ+",
"name":"Lib_Chair1_MESH035",
"normals":"С##*9sμCBMΓ###?T7ϻlmlܬEͿ##ǌnƣNČ.ɍÄ¿À^^ĂšnȪ»ȵϷ<Ă7̺#ˮ<ĺAÛ:ͣ#ͷ9Ύ'ɕ=Ǔ:ł3˼-ͦ4Ð9Ņ>\\ #%ƅ)ʷ#ʩƛƒƑО#̏̎#̏֎Ơ#ơ̃#̬ڝ>É'.Д˹9̎ʌƶ_ť=ʉ#ˌڋĎùyР#˺+ŐÓ;êС͵:͜˵Ń%ļ˼ʢ̯ʃ#ج5ĔǇɽΓ<͸#ʜʥЛĄÛĔƥƚƙО#Р%ơ-ʗ#СbŌMšŀEåϤ#ʖNˁʽC˚РgġVİƫ0Ŝϡ#˽U̲˞8˹=ˁa̾ȪFʍѿvĴaŉǮOŵЦ5˖Nʻ͋aͬΰaŃHŔęj݅ö]½΀ɾԉʬͮÓcĒͯ˧ւʿhȉОȹ͙ø¬ƃ͌ʖӷɴ͎ğvÊͻ#######Ͻþ2åϒ˭,ˢϸş#Ĭχˮ$˱ɪ*ʇзƶSęπ˕o̖τĭZÊ׿ɌKˑբźťµ)ȋMʲهƺÏ¼ɚ#̈2̷̙܊åò£΅̋3ģ$+ÒÓРʽ(ʶʰ+ʩ####+ʰ-ʟʡ,ʖ#̷ڼ#ŕ9ƂƷÄÔ-λ%;#ʔʕ̮աµ¹#îƑdÁƘʸ%9#ʗăͶʋ±»#ĪƙN'ņáΪ%;#˟×Βό#Ƈl5Ơţ\\ϣ#7#˒˓̾؉̆ɽɺ˗ʾ##ɨA?oաˮɹɸʵʠ##Ϡ#ލ?Ϫ#ƹƜǵǬF###̏čüýڶ:ԣ1Ȳ͏³ےĶطǕ݆ÌOڑ׮Ŷ۽ĹĺֺŊدʾ####˝nՖ˫˧3˲Ȼ˸α٠̇ˁ¡ʺ#Șŵ&Ůȗ#͉͈͎Ö=X#SÛ̱͗ó#ࠞOϧܑ̾]߸4Õܡ[#т͐͑Ћ[߶'N#1#Ëܣi#ĨĩЬ+̆Ķ߹&#%Ϻ΋Β͇ڈF®#۹˸̚ĦࠍB#CϾ͡ۊÂڡʶ̔Č<-aJt6K-M*Y^ܱ-%(ݤ/2Rޗ$&߸%1߱$Кϋ۶ÈT]ݵࠖÑ8)=LUVޏ##ݖd_nx߿%$ݶ@*=3ݳ##РʢƠࠛ#݊ؽı$ܪ(¨uLޗ(ࠐࠕߢ#ߣࠌ2+*-#Ïfl#ݫO-߈11ߙA$@)߶+Kߧ߲yΣ#µ(ƽɈ̧̦͊͋###ʚʙ+(######MLȐȑ#ЗFEάnOhÊN#)ŷ.6ȐǸǔ1ĔǈƋȲąĶěĞĕ̋ɛ'ĝ:͌Ì2ǉ-ĞD$D6$BA̦%ӷĩ̪˧#׈ן=ՆàȽȨ˵͕̚########)˹˾˩#˨##(n8μC-Lν###?@4Ѝl#mݶEͿ#ȘoŗNĘ/Ȼ¾%ÃĂ^ŠƷȴƓȪڇ=Ĝ7̺#ˮ<Ĝ@ù:ͣ#ͷ9Ί&ə=ƻ;Ś3˲,͜4º8ś>\\ĄƇƄƋʷ#ʩ+Ɠ$О#̏̎̏̎ʢƠơƠŁ̬̭̃НÈ?±.Д̏8˸ʌƶơŤſʉˌˍϡ8øŏР#˺+ ÒëêС͝;ʹЕłŅļ˼ʢ̯ʃ#ؚ4ĂǇד=Β##ʜʥЛĄsż-ƛ$О#РƣƠƫʗ#ϡcƌMeDŁ\\Ϥ#ʖNջBʼ%ϜfťV1ƪcϡ#˽U؄9˟'~<˛aժGȫaЫwƈaNǯpД4˄Nء`͊?Ͳ`ƁH¦kĘW݅ö]½΀ɾԉʬͮÓcĒͯ˧ւʿhȉОȹ͙ø¬ƃ͌ʖӷɴ͎ğvÊͻ#######̡ÿĎåϒ˭ˬˣڸşĬĭʽˮ˯˰ʑɪɿʆԇƷƆęπ˕ˊ̗ڸĭĂḘ̈ɍȤˑӦ´9źϥȊȵʲهƺ5½ך̉#̷وä0£΅ЙİĹÒÓР#ʽ(Լ*ʱ####+ʦ,ʩ#ʡ,ʖ̷ڼŕŔ÷9Ƃm,ŷÄ̓%;#̮½ʕͽ#ŊµXƑdúƙЮ%9##ʗă]#ň±ƙNłŇΪ%;##˟×ܼƇƆĽ5ƠK]ā̭#7#̾˓:$ɽ­Pʾ##ˎjf6ʕ#ɹ\\ʠ##Ϡ#ލ?Ϫ#?Ɲ{ǬF###̏č#üל:ԣ1Ȳ͏³ےĶطǕ݆ÌOڑ׮Ŷ۽$ĻےŊڥɈ#####ʑo֢˫˧ˢ˳Ú˸α٠̇ˁ¡ʺ#ȘűË#͉͈͎Ö=(Û̱͗ó#߲ϧܑ̾]߸ÃÔߓ[#т͐͑Ћ[߶'@ËÊߋi#ĨĩЬ+̆Ķࠑ8ЈΕX͜Ͱ:°%ܓ̘̚ĨࠕBϞ͡ۊÂϿͳڤÒ']¡ }ZO(uIލ/(ݔ$2Jދ&߶1߯%Мϋ۶ÈX[ݵࠖÑ8C<2UVޏ#ݖd_nީ#ݶ@*Y+ݟ##ڠʣРࠛ#݊ؽı$ܞ(^Pޗ(ࠐࠕ#ࠜ3(Ïflݫޒ11ߟ;-LAࠆIߩ߸Ͽ#¯)ƷɈ̧̦͊͋###ʚʙ+(#######MȺȑ#ЗFQθlMjÈN#ŽBȐƒŲ/Ĕ^ƊÊąĶěԹĉ͌ÌƹĔoF6@=̦%ӷĩ̬˩׈׹ՆàȽï]#######)˹˾˩#˨C#С##ϡ+,1ʾyxƮ##ǭƈɗȤ')#«-ǈ##ąh^Pͳ>±LMNΎƧ°þ%ȾFɡ'ʈFƘAŝ<˟+ə;ǑVǼEȍ4Ò+͢*ˤ.ŎCǙ6ɡ&˝/ՊËǟ%w[®#ýü#±\\vûȃŧ%Ũ̘J́؆Ś#ǫ[eȭ:гŰ_ũİ̈́7͝لĚIÿ˹ʔƍĳ˱wľ]ɆǽɲͷƠƽǦǌ0ơȻĄùŜ#ԼOɧ͏ݜȿKɦ#ÿþСʢέ̐ȉ#§RvçæwU¨#åè%ˊb̛ɹaˆРiē^Ĝŵbòϝ'ʧS˚ˬp̽СpŮUƋƖićgXøUùŞGċϦ#˄P̹˙a̦єkƍPƠūBČГ.ʭMʎ˘&ʕNȮЅǸͨģ]ŜͩȵѺɩ͗ƀ_ŅQÞRď΄ɴԟ˘͆ŗ~øͳɷ҄ȱD#######+ȏʦϰƋ^ĶϻˤJˡЇưùŲeïάʥ̮Ϡţ4ĤЋ˒1ʓŏʽƬ_̰?ȹєǜƹæ̃ĴƂʹ#ƣŀʕĘÂÅĒ©»²ľ#WZģĈ6¯®ýn°Т#####ҧ¦#©¨åZ&ſ#L'ɪYĚČí:ͽ#ː¦10úѕA3#˚[łhŁÐ̣#ʮ+͙+<#ɸSþ-`¢ρ#ʞüWi͓%b-ȆSĶĚÇ¹ʇ#ȠìIHüҩnYXʂp¦#̯+ɦɇ&Ⱥɕ{zǤ^ì#ȧ#Tx1#148=####˝ǈƷǀƣ5ƌŔɥrȒˊˍ͛͢ɆɉƌøZ֑̔ˤֿ̯̼ɐ̚xˑ####ː5շŗ۔.Įݗ±ۖçȈǃr˅#cb76##ĕp~Ŝ#ŝűƙƶʐ$)ō˷ǀĬžıZƙĘž)ЧǪǫˎźŇ#ŀ#½3ƛØƚ)ʝʜЕ`ŀɨ8VIH͏ĸǳɊ6ȆFǇġĒǎ(###СȠOɎſùĆľT±ån°Ď#·Õ×o ßȼ#aȑ¾iJǐWg¡¾&ïɔɯ:sæG¬Oǵ04gdopȮ(#ʉÒǆ()(ɃªËnƬ=<ЧĄ͘¤ɞՇ̊ƗcȐǝLƲQÂ)#(70####ïŒ9va#e[êH32WV»Šŭľ##З#Ռ˪ƽƞؽƵߪIJăĂ)Õ&ͩІ;ƯƸ؏ȸ#¾¶ţ7É`jF:0103ŕǁĶƯČïĴ;ŔZ8h##23#0ÇYªÆ>##QP'&K%L͗'Ȱ^gʕ͜#5ɥļȡ͚×Ö#########КśłĽ#ļЃ#Ϡ%,&ʿx*ő##ǬƉTȤƱ&(#ª,ǉ#¾h¥Q͖>O$LλƤƋþεFȼ$$'ʅGŻCż=˦+ɠ:ƜTȯDǺ4å*ͫ*˭/įCǸ7ɜ&˘.ՋʆǟǠ®[w#üý°±vwúȂŦŧŦắ̙̘˩ŝǬǭѰȭeɖвĵ_ƢįͅͰ̋͝ěĤÿϔīƍʜ̈́wë\\mǽɲɳͶīȲΑǌǛƠȸăøŝ#ԑOʒ͎ԙKɁ##ĀÿРʣ¾̐ī¦§vwæç¨Uw#äç%ˉc֮aɹ3ϛiŘ_:bŵdϠ'ʪR׳pˬ$ϒpƽT\\iƖm0XįTeGŞSϧ#˅Qجa˙3ЍkǔQyBū`І.ʠLՉ&˘kOȯЄǹͩĢ\\ŝͨȴѻɨ͖Ɓ^ńPßSĎ΅ɵԞ˙͇ŖùͲɶ҅ȰE#######ȖȏʈʧϱƊųĶ˦˥ʸˡۄƱŔùŤųİï_ʥ̯̈ϡŢķĤ̈˓ʠʓ٘ʽĲ^ȹ̱̔ϝǜGç̂ĵŘʹϖĔę$Åq¨ºƛĊŃĢĉèý®¯#°ҳ####$Т¦`å¨©¬'žMLIɫXœ:BčЮ#ˑ§ûĈ1Ϊ#Q@ˋZŃiÐɴ#ʯ#*ΰ#4*ʓRÿW`áπ#ʟý#VΘabYȇRõ¹věπ#ȡíýĢI΂#X8ˏq§#̶+ɟɂ&ȿǤ#z:ɕ_í#Ȧ#Uy0#'4K<####˜ǉ-ǀA4ƍŕɤsȓˋˌ͚ͣɇɈƍù[֐̕˥1̼ʤɑͱxɺ#####ʿ5ֈŖەĻĮي°ۗæȉǂs˄#bO7#Ĕq#ŰƘƷʓ$Ő˶ǁĭſİŠƙ¢Ź)ЬǫǪˏŻņ#§ƪƛäƕ)ʢʝДaŁɩ¡6͞ĩÙʨʑ²ɝTǨČĉǭ##РȡNɏɐŭPŵðÔ¬ă®ăÖÖ\\ýƉ`źÆMƝf? Ã&êɕɮ;víH­NǴ1Tg$nqȵ#ʈÓǍ#ɂ«êƵ<=̈́Ăй¥ɟՆ̋ƠbcUƩPÃ#(01îĽw¢ZıB'&WîśŘī#Ж#Ս˭ƾƟؼƴ߫HKĂă(bͨЇ:-ƸѸȹ#¿·ŎJÆ_kGI#2Ŕªĸčîĝ;Ľ[9y$ÄZ«Å?NKF&̪&ȱ_fʔ͝wɤĽȠʧ×#######ЛŚŃļ#Ľϼ.###ևˈ˅ˈʭʮ#ʻղ##޳ĒčΨȒŗǯʸʡֆ##ާ:©&ԴʣƈŜƥī˓##üpͮčKĴ#ĝ5Į#ĝ/Ĩ#ţVĮ#í%î#ă>æ#ġ:Ĉ#ý;Ĕêë#%&̚6Ē;ܣ̨̺̥У8Њ##########ŽǪǭƮS¸Ƿ5Ų#řŞƅžĵŶƃŘƝ\\.Ĭ̅z²PȀŦÝ­ɘėÝz˟ƒ.ǏȮ#cb#ëɄŽ##ïɊſ#####ŜБ̱̰̈́С4Ў#̶6ø5ЛŻ?ƖrňśŊƉƍ)ƒ@ƄťŞƝƉ#ƈhŚűŦƙơ:ƊJŮťżƭũ[Ơ+ŸƉƌŵƯ4Ɯ%ƲƯƶƹƑ:Ÿ<żƑƊƑŷ2Ŧ'ƊŭŦΝMҬ7ҕ$Ҽ'ұ.Ң+ӇJҒNҡҾ&ӵ\\ԨLԽTӂ%һ8Ѹ3ǲ#######̑Þ¹vÅ¤^GbÈm½Ąģ¨·ÜĀÿĂŏðÍ©¸ӍȈȱȞ<Iǥp#ǔɑɜsǥȞɍÑnŔQĺŮűŰʾǬمOɒ&Ȫǿ϶ħ6ú܍9̼#####̱7݂č6æ,ƛʝ'ˢ¾̝̏Ʋż#ή#~IăĂʋЫØȞ'̩̪%žſ˺ڗ#oDĆƨʍŖÔȺ9͓̰##ʾǳ҉#ufļǤ˿ЌK̊gx̷ʱǨê#Ϯ#B_ķĶ̋łǆėĖ³ĎI#ڷ½nÙ֘ƆċĊÛú_#ʁˇ]˺˔#ߍu ¡ࠞ###СpqğʚѕQ(ѺED5Q6(/ý#[ELo7®ãH̬ĥʶ####˻ÌāK)çĠƷ%°.ɅĚ֤#ޙ#ޜ#٥ƝƴƦņY,+/#=G$H+9»²#|i¸¿1#J¡ =1&tuTDoâ£q$Ĳķîê·ĩĺ4)%ŸʓĄĒiŷLã˄âċƵĿ³#²ßSΊ´ħƏÍ(ēù(~?$.źÖtõw#{īn¨&0.8/ΛˢįƺĿ+ϨǟÊµ7+$)##,f1Æ@ĥ##Î¨ǅNO$#77Y`B)Ʊn3͎Sũx0ż˗ŸèĭĂču#ˬÙk#͉pͨơ]UƐǑŜǭɔƓ>ĖįªǨȰ#Йk̇͆Ĵ;.\\ġƃĴs­Ƿø̆Āǔ̹zүɐǕ۰#С#ÈӃ(+2&##%/%%'Ƕ{ÍĈēĖ#ąĘğĸĻĶıõĠ$źQɃ&)&%$($=#####%چ)+>؛ٜ}֍#ֶ;Ó-+ڥٶƺ########ҙ'ƘYƫYԚ#և&˄&ʭʮʻʺ˚##޳(ČʾṚ̑Ǯìʡֆ#ޏ;&ʴʢƅīʬŝУTŋüɖČĵĴĝĜįĮĝĜĩĨţŢįĮíìïîăĂçæġĠĉĈýüĕĔêë#%̛̞̮Ē;ܣ8̤&У8Њ#########ŽżRƯǬ¸ǷŠųŲřŞ)ſlŶMřgh/ĸʭ{ĊP̈́ŧ¬­ɘǑÜůƓƞǏȮ#cb#żɅê#žɋî######îŝ˗6̰#С4Ў̶̷͊ø5ճźƗƖ`Śŉĸ˳ƌƓƒ`Ťƅž̃ƈƉƈRŰśŐ̗ƠƉƊTŤůƆ˳ŨơƠ;ƈŹż́ƮƝƜ$ƮƳƺ̧ƐŹŸ(ƐŽŶ˥ŶŧŦ<ŬƋƄΝMҬ7ҕ$Ҽ'ұ.Ң+ӇJҒNҡҾ&ӵ\\ԨLԽTӂ%һ8Ѹ3ǲ#######ɕßHvÅ¤M_:bhÉ~jąA¨HÝłā$ĂŏðkGF¹ɑȉKȞƣqȊI`ǕɜsǥQɌŽŕ¬ĺ%Ű#ʾǬнȫʢȪǿϞ:ħ6ً8̦#####ͅ6ܜ4č6ðƛʝ˞ˣʂ¾̝%#̍ƲԈ#~IʋƪĂϥ&˕Øı̪%žƞ˻ο#oD#ĆƨƠ8˭Ôő̰#ʾʿî҉#uf#ļǤİˢ̋ˆx̷##ʱǨҶ#B_̋ǶĶG#ėÓĶĎI#ّWÐwۼ#ċÎú_#ԥˆ́˺˔#ࠟtN¡ࠞ###СpßpŭʚѕQ(ѺED5Q6(/ý#[ELo¯WHȪĤƴ#####ɑÍWK)\\ġ¹%°.ɅĚ֤#ޙࠒ#٥ƝƴƦņW/#=E%B9»²#|r¹)1#J¡ =1&t$ãbo%Ĵķîê·ĩÂƢʩȜĻæƑ6ÍʆĒęȡ·³ĘßSОōMǉ?ěó7*ŪúÃĒŗ{ƍĚ­VÈ08.ΧˢįƺŅ)ϬǟÊ;´É+$)#,f1Æć#Î}¨ǣNO$#77Y`B)ƹl͖Wųx0'gĬƉˬÙk͉ȸ]Uźƻ°ŁǜÿĘıª϶#ѡj͏͆Ĵ;.\\ġƃĴs­ġùϜĀǔ̹zʁɑ۰#С#)З(+2&##1''ǶĥÌ^ēĖąĄ6ğĸĻTŎɃ&)&%*;###ڄ)+>؛ٜ}֍ֶÓ-+سࠎ#######ҙ'ƘYƫY̧#",
"textureCoords":[
{
"UVOffsets":[
110.64877907776648,
187.52641919074665
],
"UVScales":[
6.0451346606621918e-05,
5.9855223017640293e-05
],
"UVs":"漟۪݇⢬ʸơzങࠢޯݢ⍃#«◢ÛǞˑĔȅȄȅɠµ▩Qܙ⯀ࡵޤࠛපŹ˞<Ɖ;еɦœ¯ԣƄóĝጽΧ#Φ#Χ#Φ#Χ#Φ#Χ#Φ五м#н#м#н#м#н#м#н䝹Ő#⣖#œ?ĳ#גŨōŎɱ#ᇡ࿥࿤࿥࿤࿥࿤࿥༴വ౦൛ศษ໘࿥႔ᙤ#ʹ#ʸʹʸʹʸǙǘʹʸ#ʹ#䁋שזٕ攰̌͝Јěn͝/擓֖חڒኼ#ፓፒፅᑲݬᩡKᦄ٩ݬٽщ࿡#ᇨሑŗሖᾷŨŋŌʃ#ʃ#ŉ=į#⨠ܕ#ܔ៍ܻܺܺႴܕ#ܔ៍ܻܺܺႴܕ#ܔ៍ܻܺܺႴܕ#ܔ៍ܻܺܺ䞊ո#չᡲ۱۰۱ᆥո#չᡲ۱۰۱ᆥո#չᡲ۱۰۱ᆥո#չᡲ۱۰۱傹#ܫ#ܪ#ܫ#ܪ#ܫ#ܪ#ܫ#䷊#ࢊ#ࢋ#ࢊ#ࢋ#ࢊ#ࢋ#ࢊ#㰽#ŃOӖĹ±ǆحʔʕʔʕʔʕʔʕʔʕʔʕʔʕʔ☨̍̌̍̌̍̌̍̌̍̌̍̌̍̌̍₉ȷ0Ƥ͏ȁAƮ͕ǃ+ƾࢦǚFƱᣕُ¡یᘹОС焐I悧ۊ#ݡ巈μ⑙ŏ>Ĳׯ>቙౧бչщ࿡ᅭ>צŉ<Į璸6⻯(œ`aŒŎuÿ$ɿ###ŎŏƞѲî)ŏŎ#ĀÿŐΡ###ńtƗ䯉rú$ōŌ%$ņ_ͫ###ŘZƑʁ%ŉRSňŌ[ĕ#ɯ###ňŉƄ卤ưŏŎŏŎ##ׯed䴓ON҈Ɯŉňŉň##᰺*ٞǝᮑʪ᫂࡭ăॎ᫕ŞÁߥʗŴ#ŵツĖࣉ#Ğྐྵ###䛂###㡻႔㚏##疾#کڨ#༅ư㲩ŅƬêĸ⊐̍შ##Ѱѱᝬ#ỹỸ#᝭əⴡᐷڅ٦٧ᨺ㍓¡ę櫄ѯ#Ͳǳnoֲֽƙ͆םş#/ωɨƅ#ƔɹZߝźŻùጢ:͟#኷ȂƳ#ƶȇҭ©Ӻѫ-oәֹΐΑ(ЋЂ#ѩњԅ୆]\\Ì֝ǫǪǫࠓ·RÍಠĊᵰ̜ࠞŻɜӗ݇#ц˺ࢬ҂ѽѼ⧑఑๔¤❪˫˪ӯㅓ҈і㋉ݣ֭੃ϋ¦ś%ǿ熒їขNϕ̗ՉĈϸӟҼҽ⡯ୢ#⇈ӝҠԧؓᛕଧ૜⇈ĵԍཚϝ┉͢ғԉ######丷壞Ử˧ఁഌγ᜻#‰⣅㙵#㓸঵ԅ̮ЉλÙヮː⥿РⰅΗ#丼շడᆧԅரၓ൮ᶺոüᐑ᠚੝幫δࡩŧ⤄ቁΦ###㍨ǘⳡ–ࡨࡩ។ŮৃŮᬺϧʔݪ*ডŠłӉথ⯴ỉƚq·߫܁ىੲੳΖौࠢƚՏѬӗָŭ͹ҕȅԟïս##࢙࢘#ੲ̂'̫оধӟںڻ߮߯΀΁۞`ܝṘŗדߏل#࢖ᱡȡڔڕଆၨɻϊᲝᘸ㚰妝#Á׍٪şÖ߻#R疾帍䛂ࢊ嘳ᠡȂĹơňഘࠣnݢັª«՘ÚĔˑǞȂ#ȃ´ԉPฺࡵðࠜ౟Ż;:ơ<֖ɥǞ¯⪘ĜµƄᢋΦΧΦΧΦΧΦΧΦΧΦΧΦΧΦ勀попопопопопопопṭŐ#œŒůĳ#ג>Ō$ɱ#ក࿥#࿤#࿥#࿤Óവę൜Ơ໛ส༵႔ᙢʷʶʷʶʷ#ʶ#Ǘăʶ#ʷʶʷ䮱׫6ْ䎤̍sЈě̑ͩ͜䗓֔bړ⏆#ፓፒፅᮺݫጙK᪈ݫ٨չы࿡#ᇪሓფሗ㛟@Ŋ$ʃ#ʃŉňţį#⌮ܔܕܔ៍ܻܺܺূܔܕܔ៍ܻܺܺূܔܕܔ៍ܻܺܺূܔܕܔ៍ܻܺܺ䳲չոչᡲ۱۰۱౏չոչᡲ۱۰۱౏չոչᡲ۱۰۱౏չոչᡲ۱۰۱僋#ܫ#ܪ#ܫ#ܪ#ܫ#ܪ#ܫ#䷜#ࢊ#ࢋ#ࢊ#ࢋ#ࢊ#ࢋ#ࢊ#㱏ŃOŮΊ#Ĺ±ȗʕ#ʔʕʔ#ʕ#ʔ#ʕ#ʔ#ʕ⢪̋#̊̋̊#̋̊̋#̊#̋#̊◿ȷȨƥπƮȡȀΈǅǌǁࢧǛƎƳधည$СҔ䌸I勃¹俤μ⑙#ŏ>Ӄ?ૠ౦ၵչы࿡㩫?؂#ŉ<痄6⻯ōŒĕaŒ#%Őu͙###ƞsŏܚ(ŕŎ#Ātőɳ####ńt䰓%ŋrsŌ%ňŇĊͫ####ŘZϯŋňęSň##Ō[͡###Ƅ_ŉ噔#ŏŎ##رd#䴿N#؂#ŉwvň##ྀ*٩ǜ༡ʩᠸ࡯ौ्ᄛŞÁߤʗŴŵŴˁę⭔#Ğྐྵ###䛔###ཱ႔徫##痎ڧڦ##൵Ʊ㬭ŅƬê±ǆᾸ̊฀###Ѯጞ#ỷỶ#ᝫəⴳ⃹@⁼(ĘⴈĜӲno-ּ੗°ş#/ωĆƄƅćɸɁߝźŻù೚;ཻrƲƳsȆڑ©Ӻѫ-o࿳Ɍ΂ЋѨЃЂѩњԅ୆]\\Ìि#ع·RÍస#Ċ᩸ࠟŸʞәߘ˻ࢯ҃#Ѿḩɧ¥Ỽ˭#Ӱᚳљᩧ֪෪ω̈́Ś$Ǿ☺іᚬNϕ᪍ՆӟϺĆһҺ♯#⇖ӜҡԦ⛛l⇖ĲԎཝϞẗͣҒ㯜######㴑ұ⒰˨ıδⱥ#䠌㽹ƞժԄॷ╴ˏᕣ㋭冰շడᆧԅரၓ൮ᡦý⾏⮄字εӠŦ⟀ቁΦ###岄ǖ嗻–ࡨࡩᤠůࡷŮᬺϧʔڗ*ѠŠł⒘থฅ㝫ƛn¸ߪ܀эۼ्ࠡϖՏĄӖֹӂ͹ߪȄԞî̿ǽ̃&̪пদǿŗҐ΁a᝟Ŗגߎه#࢕ᱠҗҗၧɺύڈޥÀÁ٪٫Ş݆߻ࠪ痎帝䛔ࢊ噅ᥪ⧹᪫֚٭♏ᐂᎭᰠɛ΀ӝະټس✇ጕÿᐂᠷȝ¼êㅬŏᯬ´ÄḓВԟφ΃ó⨡ĦġĤ⣂ûǬʥྴ#ðÞ䙩<ǒ-ඁ+Ɇ>ǆAǒ8ʀ2ʂGㅦ(Ƴ;Ʃ4ǡ;ୠ1ȥ@Ƒ?ŭ.ᦘ#Ȅᤍȍ#Ȍ#ȍȌ#ȍ#Ȍȍ‴ǃ#ǂͯȕ#ȔϷǉ#ǈ૮#ȓ#ǘԵǂ#ǃǏȕ#ȔϷǉ#ƈाȒ\\ɍ৺$ƵDñǌ#ǍϤȺ#ȻFΘ(΁༟Ǐǎǂ#݃#ȄȔࣂǋ#Ǌ฽ǈǉતȒȓȒ悯#ǵ#ǴǵǴǵ#Ǵ#ǵಪ4Ȱ'Ƚǃ7Ǧண+Ȟ4ඨȡ'Ȟய5Ȓ*ȉȩ2ȆЎ,Ȕ9ȉȟ*Ƞ㎢%Ǐ+ǘǂ.Ǒ͕,ǟ1ȦŤ+ūঊ%ȝ2Ƽʬ1ɷ͉3ƍ.ƎŸ0ƕ㋛ǒ̹ƈ௣Ɇ୮Ⱦ௩ǒ͵Ǆіʂԇʦ㎨Ƴ̸Ʃ̿ǡͬƯॼȥҔʓΑŭ˘Ə፲ũîï>ěĚƷ䍵·ĿʊͰȇ7ȒஹȽHŜӒ͋ńɄ㎄ȄcƩͧƜ$ǉ৞Ȗhɽ͡ƨEő຤ĸƹƸ##Ĺ##ĸƹƸ#ĹĸĹᰨ$Ƴ'ƾǪ؉ʰʫΤȺ`'Ͳ*¸ȳȲ⾍ȍȌȍ#Ȍ⎞#฽#฼#搩Ǵ#ǵǴǵ毮ǆ⢷ʁ#ʂʃ#Ё̉#̈ւƥ#Ё#ȍğۦʂ.ʏ##Ё̉k͐֞ǁ#׫Ȍ̉̈㬓˒T̅##ٻˊ#ˋࡂǫ#֋ǚˋˊڰ́#̶̷#ϓˋ#ˊٚʫ#ϓ#Ǜē䞨āƥ###׫ȌЀʂʃ㻱˒˓̶¯ʫ###֋ǚ䴂ř㛍ƅ㽠Ŏ㵟ˎȍĖ䦴ٽز܃偋ǺǓǤ㢤ĒઢðƷ䒗ƈিǄ㙌ƯݺƏᡞ'䤍ߙȓ㊪ȸȽۄǲ࡫Aᤪçưĸ´ᮝgۤƩ࣐;ɻߟİऔѣǘ˘AஐĚ܏ĉǢޚĝ᪶ǫƳʩ卙ձڎ܍岢ȺȺȲ#椻C攲ǙϰȲࠍȲ'ϰ#ȲыǙǘȺȲ溷ӓҔѿ武ȸ-ϰ#ȲȳȲы#ȻǍ㋫ÀɊU㐘ȺȻȺѓ#Ǎ#׼ȻȻǍⰓќ#ѝ⿔ȺѓǍ׼ȻȻǍ亡wࠒढϳƼɒ߄ťɟ൝ܿ÷߀⟗ጬփ੗⣤̢µ̥㑯ü̠爄*(८&ՍƜ˝Ǳ㓷̤㒤بࠍ塣γլۑҟyЗ⁾Ťͷᷓٻŕȗ§㊨ɰ.㓩ЕŚ Ƴ̉ׄ䚒Ǐȕܜǘવ݂ც煋⯨Μࣖ⏝͌෧ࢼ垜䲛㈄Ź᩵㙤#ЏǺȶȫ瓕Ɗ灲Ԥ剭#ƅ収##ࠌ()()䷗ąইᤷὼ⦅溄+婣#䥤䆽ɉȾਹʦ嬤#厃රș)ྦ,ྱ+先允)䳐ƸŰ'çኪ#⺥លÎȻᑖᐦςĪⲛŴǝōɐÎԮലŰხȌѻࠚѧծҗӾҥ⢁؎ļկŵੀ଄ඪˋО~ᮛ°ᆢϦႥ9Ⱥրᛗ᎒᭶΄㕅ԉ⽺⫽#㛶㮥ā㕰ƪΕঌත僵歨ټmྉॸ٫Zբ࣍䇃㒒䐩㛈ඪ㓅䓾õ♏ᎠᐏᰠɛſӜ৶lزⴗጕጦᐃїȝƄë㈴ŏᯬ´ᦁГįφѓò⫫Ĥ'ħ⧊ûÛʤຼßñ#嗑=Ǭ-උ,Ⱦ>ƨ@ƴ6ʒ3ʒG悒)ƭ;Ɨ5Ǐ;୒0ȳ@ƭ<Ƈ.ᒫȄȅ݇ȍ#Ȍ#ȍȌȍȌȍȌȍၒǃǂǃǑȕȔȕȅǉǈǉદȐ#ȑǖԳǂ#ǃǑȕȔȕȅǉƊƋદɊ]ȑ᧞%ƳDþǍǌǍϤȺ#ȻμΙΞ΁ἁǑǐǂ#݅#ȄȔܚ#ǌ#฿ǈǉદȐ#ȑ仝ǵǴǵǴǵǴǵ#Ǵ#ǵҕ5ɂ'ϱ6ǀ4஫*Ȗ4஦&Ƞ)ு4Ȁ*Ͽ3Ȩ5И-Ȟ9Ͻ+Ȟ,拆#Ǐ-Ά/ǅ#͋-Ǖ1͠*ť1আ&ȟ2и0ʭJ͙2Ɲ.˲1Ź1戁ǒ̹ƈ௥Ɉ୮Ⱦ௩ǒ͵Ǆіʂԇʦ拎Ƴ̸Ʃ̿ǡͬƯॼȥҔʓΑŭ˘ƏళîïŨˡƶěĚ嚩¶ǓʊͰȇǾȓ৉ȽƂŝ،͋ͦɅ擌ȄǩƨͳƝƞǉড়ȘȹɾֻƨųŐୗĸ¢ƹĸ#Ĺ##ĸ¢ƹ#ĸ#ĹᔈƲ*Ǫͻʱ(ΤȺδͷЌȳȲㅷȌȍȌ#ȍᖦ#฿#฾#創ǵ#ǴǵǴ樜ǆ⢷ʁ#ʂʃ#Ё̉̈̉ࡨƥ#׫ğ̈#Ѐʎʏʂʃ#Ё̉̈͑࣌ǁ#ЁȍȌ̉㠭̄̅˒˓#ٻˊ#ˋࡂǫ#ϓǛǚˋक़́#̶̷#ϓˋˊˋंʫ#֋ēˊ#䊠Ƥƥʂʃ#׫Ȍ٠ʃ#㱁˓##ʪʫ̶̷#֋ǚ䯌Ř㠃ƅ㽠Ŏ㪳ˏäĖ䍚ټm܃慗Ǻ4ǥ䭲ĒઢðƷ喣ƈিǄ敲ƯݺƏᗥ%䨷ߙȓ懎%ȼҪǰࢇ@ՓçưĸĝƮɾfڠƩ࣐ʓɺ਷İऔѣǘ˘AዏĚ܏ŵग़ĝ᪶ǫƳʩ卙ׯ岢ȺȺȲ#楛攲ǙϰȲࠍȮ&ϬȲȳȻǙǘȺȲ溷ӓ歼Ȯ,ϦȲȳ#Ȳы#ȻǍ㋫˨㏦Ⱥ#ȻȻ#Ǎ#׼ȻȻǍⰓќ⮚ȺѓǍϤȺѓǍ仵ࠒढəƽੌɟ൝ܿ۬߁‹෌੗⯤̣ʐ̥㎕̠爌(ॲ'ՉƜ˝Ǳ㓷̤㒤بࠍ塣γƇې୍yЗṬͶ℧ړĽȗ㈤ɼ㓩ЕŚ Ƴ̉ׄ㔂ǐσܞǖળ݂⃌煋⯨Μᬩ͌෧ࢼ垜䲛ᙜ㙤##盝Ɗ畴剭剬##ࠌ()()亹ইᤷὼ䔢+歯#婰勉ɉȾਹʦ屎#咭රș)ྰ-ྦྷ-扖才)揮Ƹӧ'çˈ%ềលÎȻᑖᐦςĪⰳōɐךԯሾŰხʑѺςѧծҗ∻֧ੀ଄ඪˋОᬿሰೡȤրᙩ᎒᭶΄㕅ԉ⽺⫽㛶㲃㕰ƪΕу᪖زl࿓ॸ٫֚գ嘹掸獑旰ඪ揫ᨐ#"
}
],
"vertexCount":1589,
"vertexOffsets":{
"xOffset":-1878.3638095565291,
"yOffset":-1786.0566162808095,
"zOffset":-13.741149304778105
},
"vertexScale":0.013165434645418937,
"vertices":"ᛟࡢড૘৙#৘෵ǜǝǞʤসेऔनÆ৕౤ᡵ&ᕄŮƐឣȏʒǳɊ#ᕘŅńŅᐝćŢᐪħºÚĖ9ĥ#Å[VĤ#Äᘛ(Äfufď(ÅuOBuᔊ#Çè.v)È#Èzvĕ#łŃ#łɥÇ#Æ#ń#Ņɤ#p#%Əł#ŃŅÇ#Æ#ń#ÿɬqg´Ƒ#Ļ:###ƒƐ#ƑĠ#wĻŅńł#ɥ#ÇÆńł#Ń#ŅńƐqpqzvĕ#ģ.v)È#ƾ·uù9ő#āŲþŧȅ¸¥Ė+Ů#þűāŦᔝ,ĺƫûyŚȒé|8Ƶ,ęŀž|ƫǉ¦xØ>ᜂ9#8ÛÅŦÅùV#WøÄŧÄᔓÄŧÄĲ#ĳÅŦÅåB#Cᗔ#®8ᖵ®RßᙀÅr]Å®rÿůâu@â¯uĀᔓ¯yĄƪğ®ß®®ĻśÎ\\ᚪÙ#łɥÇº#Ú#ŅʲÛÙ#Ļ#ĺĺʫz{#ƒĺ#v##$%ƏÀ*ÉÃ)È#####Ã)ÈÀ*É#łʳv¯®wv¥qĖ###ÃÂŅǢò#wv#PpóÁ###À¤ŃÀò#wvPQw¤Ń###À¤ŃƓv¯®wv¥#PĖ###ÃÂŅʲƑÀÁÀÁ##Ã¯®#¯®ȰƑÀÁÀÁ##ᥝ#ᰄ#᫉ǪᠾȉƐóȍॱ࣊ਅഖpqpត'ᛚ#Ù8ŽW᎛ǕCᒊpʎʹÉቅx<ȱƾ፮®ãᏇ¯ĺ¯őÄÄfĉĈ×ŮˁĆĀǇŚXăͨSᜌĻĻ{ˍKo°ʲƒƐ%#֩vϨŏʼ%˿#fʼ#%ƏŏŎƐ%Օ#g#ʼ#fʼ#%$%Ə#Ɠ#˾#Ã$ėĖėĖȍ###ʬƑƓ#ɠÂ#ÃñƐ́#ɠėęwͽxĘĲ#Ż#ź##7ƂƟƞʰ###ʱqpŽЊ##˿##˾#ƏþǛiq#pʰ˿#ŧ#ŦŧŦŧт##˿ŧŦŧĵՔ##˿#ýŊq˾##ƏŅÇ͖%ʱɤn#˿###ŧт#ʱʰᬃ#ᬂʫ###w#####τ##υ##ɞ$À$%ٙN¦֧֨ŊԎÕŭ#ØÿÄÅÅÄH#IŉňHI###¯®#H#Ûŀ¯ƶqnϟ£ǐ৿ਣǳ§Wᗂ÷Ŭèǉ£¥ߏࢳėż͍ĲƷļűļᔞŻÙæöηّߑƤɧW࿎਑ɇঔ)ŕ̭aૺॱிǫ᥀Lᖝᗀ#ᩁᩀ°៑ŎЧԀኼ्॰Éᛡุঝxࠌഷᤊᐷᐐᑱ#ᑰᐑš૘৙#৘෵ǜ$ǟѠॆUनऱ৔ʲ#᠃&ᕄŮᠡȎ¦ǳɊ#ᕘŅ#ńᔿ~ţᖶÛħȄĥ#ÅNºĤ#Äᘕ)ÊfLtãfĉ)¿uT uᔊÇÆDwpÈ#È+/ĕ#łŃłŃŅÇÆÇÆńŅńƐq#p%Əł#ŃŅÇÆÇÆńÿþƐµfpƑ#Ļ:###ƒƐ#ƑƎwĻŅńł#ɥ#ÇÆɤ#Ń##ŅńƐq#pë+/ĕ#ģwpÈ#Ī¶ĉ-ø§ő#āʶÿ#ů¹Ħ.ė¨Ů#þʵĀ#ᔓ-ń˙xú,ƪû/}èyƫ-ď˶}ſPŅ§ü3Ùᜂ9#8ÛÅŦÅùV#WøÄŧÄᔓÄŧÄĲ#ĳÅŦÅåB#Cᗔ®8Åᔓ#®RᓢÄu]Å®¯þɋâWAĀ¯®āᐵ¯®ąƐĞß®¯ĺɳÎS]ᘮØÙłǻ»PÇǨÛÚŅʲÛ#ɛĺ#ĺɓ{##ƒƎwv$%Ə#À*ů(Â#####É(Â#À*Éłʳòw[®w#ò¥ń###Ņ¤ÂĔóòóv#P¥òƑ####À¤QóòóvP¥vPŃ####À¤ʳòw[®w#Q¤¥ń###Ņ¤Â##ÀòóÁ##ŏ®#¯®#Â#ÀòóÁ##ᥝ#ᰄ#᫉ǪᙘȈó୛॰Éਅഖp#qᝁ'ᛚ#Ù8ŽW᎛ǕCᒊpʎʹÉቅ=ȗȴᏤ®ãᏇRß®®ǝÄÄÅĈ#×ŮˁĆĀǇŚÊʈSᜌĻĻ{ˍ<ʲƒƐ%#ՕϨŏʼ%˿fg̀%$ƑŏŎƐ%Օ#ɸfg̀%$#%Ə#Ɠ#˾ÃĕĖ#ėę###ʬƑƓ#ɠÂƑƐ́#Ŭƶ́#̧ĘĲŻź##cƮ#ǋј##˿p#ƋИ#˿#˾#ƏþǛiq#pʰ˿#ŧŦŧ#Ŧŧт#˿ŧŦŧт#˿#ýŊq˾##ʱńǩ͖%ʱɤn#˿##ŧт#ʱʰ#ʫ#w###τυ##ɞ$À$%ح¦֧֨ضÕŭ#ØÿÄÅÅÄH#IŉňHI###¯®#H#Ûŀ¯ƶqnϟ£ǐ৿ਣǳ§ᖎèǉĥ¤ࡑࢳŽǳĲƷļ᎒ĄηّߑƤɧྚੵݰś઼̭ॱிǫ᥀Lᖝᗀᩁᫎ៑Ŏü঒࣊ÈជุঝࡢࠍᏠᐷᐐᑱ#ᑰH#̫ଓ઄ɦÌ#Í՟όύϚǒÇO>aĔƫ¸ēĒēô-ëkે୞йϐУٚ#X,-,Ǖİ©i##Ă(­}qj}Ā(®lÜ³lLyMhï'¯_Ç_î'¬hǙ#Ē̯ø#ù#øù#ø#ùø͊##ĕ#Ĕȅ###Ē#ēɸ#ĕ#Ĕȅ+Đē$ĐڻȊȻȶÙŖ5æYpsʙǶƕࡐ#ȅ#ĒĔɳ##ƀēĒēȳ#ø#ùøùø#ù#øɆ(ē§ƐĚſǥ¬j§cæPŔ(ĔƑčƈȺÕÀķ,@MLáj4Ĺ'ĕƬÖzōȫª¸oÃèsCƈ'âtıógĲ,­ĸ¯õj#kô®Ĺ¬Ģ#yM#L×¯ĸ­ğ#Ğ¬Ĺ®ýâ/äµtÂĹķ¾w.Ć¿wîƬķÂQníG¿rÂĹşæw0ĆÁQÈÌĎ&#ĕ#ĕċ-ĒĒ௿̊%̉࣌+ȿȾ»ĜD٣̉#ʆӖȎG3øùø#ùǐ#####ïù#øùøîХĬ#ĭĬ#ǔŨ#ũɿÌ#ǔ#ú̛ĭ#Ĭ##ǔŨ@ƇʋØ#ʬûŨũǉš9Ŷ##̎ŝ#Ŝϡô#ʠïŜŝ̩Ŷ#ƏƎ#ǔŜ#ŝ˿Ō#ǔ#îХÌ###ʬûǕĭĬ.šŠƏdŌ###ʠïڡ#͂āǒϾӑыҺҺŠqః೴ĕĔĕÊ$SĐ¯­¬¢­¯®ĉ##ȄĕēĴƑǚÝkŰċ§i1vŊLţ_WȚ=ɓ ÇĊŤ࢛͇͗͆ୖǅ&'܁˟#ɚӔvw]ٛȾՄw#ç#æ###çņ«áЋ2ɏ#׾ò;#:óråƎkĉɝ̯Ǹǹ˰ĵ#ó<ùьdeÝΓģĢģɎ#ßˌ`aỠȆ҂MƔυЍ)ɨȮԆǞǕǔ҉کߤj̄ŵŴǧोʆɰӕʆɰͺƲČ#%ٝɱࢪ#ȯʑȧxƖǭǚǛґو##ǳǐȫПئا׾#¹ɃߨȯǫǪʑ۲ĕ#ē#ȄȅŵƳƧکܺŇԚ##ӗٛ#֌ηùģ#Ģģ̚ƚғ̚şǟ#ٚ5EёùήίȮ̯̎Ħܞյֽ֘֘ɸ#ȁÝÊkƀɻ+ôç#X¿v%ǼKƹAڃ׬ÞI;ЉΓ̹ՎՏǞҺФÞƑĂřǦÉΑQͥ+̱##Ӵӵ#Վɺ;Ǉɺ֏˗ϤϥҔҕȎȏϺ6Г೴ÇŋϿϨ#Ȅ௱ģ͖͗֘۴Ýň೗଴ଵౌÆĕ࣋घšĴథ&૆j@^#_ᘗ°ɳÁ#Àժύ1Ϛ֋ò[4h°ơĒĔ#ĕ@.êjΠйТٛ#Y-#,ǊıìgŎ##*¦|5Ë|ĉ*µoK³ĦoP{¢gò'²^Vă^ë'«gǘĕĔȾù#ø#ùøùøùøù͋ĒēĒĔƃĔ#ĕĔɹ#ĒēĒĔƅĐ&ĕӔȊRȷ¡ŖÛ4çÔP˨ʙÄƔࡑ#Ȅ#ĕēȄ###ƃĔ#ĕ̤ùøùøùøù#ø#ùɏ*Č¦˳Ę)Ŝ¬õ¦1æŝ*ě˰ď)Ƈ×Ŋ.ĹÄx¾njãļ'Ę~ʹxØ@ƢªŁnLsèyƅ'ßuɂeó&/®Ĺ¬ök#j÷­ĸ¯ġ#xJ#KÖ®Ļ®Ğ#ğ¯ĺ¯<âƙä¥rēĸĶ¿j.ĕÀîɹĶOAêmGtĕĺŞçh0ĕÀÈɟĎ'ēĒƄċ,ĕĔࠨ'ף*#ȾƧĝEۤ¥ѕȏFéøùø#ùû#####Ǆù#øùøǅФĭ#Ĭĭ#ǕũŨũτÍ#ʭŨ#ǔĬĭĬĭ#ǕũŨƇϮÙ#Ǖûúũ̎ŶŷŠš#̏Ŝ#ŝϠõ#ǕïîŝѠŵ#ƎƏ#ǕŝŜŝиō#ʡŜ#ǠÌÍĬĭ#ʭú˞ĭ#Ŕš##ŌōƎƏ#ʡîڠ#̓ĀǓϿࣸыҺһ؅Ŭĕ௺೫Ē#ēl%Rď¬®¯£®®¯Ĉ##ȅĒĔ~ƑmÜÐċČ¦àivơKŢWǧ<ɒ¡Æċŧ࢚2࠳Ǆ'&܀¤ӓwvÒ[ѸՅv#æ#ç##æçªàЊ3ϓÛ=<Úó¢äƏjĈɜŘěĴóò=øэedÜΒ#ŏ#Þ̋`#ÔĶ҃>ɠϕհȯӿǙ#ǒ˘şkƳŵ#ǶۖɱɰɱԋƲʝ#&ٜɰࢫ#ȮʐȦǯƖzǛǚǛ##ǲǑȨȩJ#¸ɂߩȮǪǫʐٿƆ#Ĕ#ȅȄŴƲƦµņԛ##ӔòҌùøțƛƚŞҡ6DѐøαΰȯBħܟմF֙ɹ#ȀÜËjƁɺ*õæ#Y¾wƃJƺ@ڀ׫ßH~FЈΒȹΒһХÔƑ¤ŚǝŀЈPͤ*ǧ}ɻ.ǒɻ֎ıÓʨȏCࣹºŖϾϩ#ȅ௰ɗɥ۵ÜŉǄŇzē়थŬଈఛżkA_#^ᖨᔝᒻ##ūÆÇÆÇÆ#ÇŪ##ȑ767ÜÆ#ÇÆÇŪ##ȑ#7#ƀÇÆ#Ç#É##7⒃#i〠Ǚ#ǘ#Ǚ#ǘ#Ǚ#ǘ#Ǚ#ǘ#Ǚ#ǘ#Ǚ#ǘ#Ǚ#ǘ#Ǚ#ǘᓕÃ#Ի$:~cŧ¶čbߩ࢐࢑࢐࢑࢐࢑࢐࠳ܠڳܶޥޤࠃ࢐࣯఍#Ƅ#ƅƄƅƄƅČčƄƅ#Ƅ#՟ɺȟʖသùŨǱä]ŨHႵōʈϓᵮ#੠੡੠ଃЉฮ6ඹ;ЉΈɚ࢐#ধ঺Èুŗ¶ăXÌ#<jY᪄΁#΀டΔΕΔࠬ΁#΀டΔΕΔࠬ΁#΀டΔΕΔࠬ΁#΀டΔΕΔࠬ΁#΀டΔΕΔࠬ΁#΀டΔΕΔࠬ΁#΀டΔΕΔࠬ΁#΀டΔΕΔЬ#΍#Ό#΍#Ό#΍#Ό#΍#Ό#΍#Ό#΍#Ό#΍#Ό#΍#ತ#######őŐőŐőŐőŐőŐőŐőŐőŐőŐőŐőŐőŐőŐőŐőŐőŐ㪧ºāĀ##»##ºāĀ#»º»֝´µעżଞnቝµƞᅨÑåত:>ŋ?ܱڲɎ˾ɚ࢐ਡ=Ɛ<4ඁ࠶%JK9°$ĺ##WÀ­īMÈ%#°³ƭ#¼9=ը[Ô###Jǥ#ÊK+Ì#^_KÄ#Į##OÀԷÁVWVŋMLԸ[ZŐz·NON੠Ç#ÆÆ#ȑ767Ȥ###ūÆ#Ç#Æ╫#i㇔#######᱁࣯ᦌ####ЦЧ#࠸Ãൄ####őŐऻ##Ǘǖண#ྡྷྣ#஢Ä࢘#ᚩ7#6ᚨ#㣏Ƹતˀ͑ΐƖ##˛ʖȖ2`#mǊÛÂ#ÃÚͮ4̿ɸɛɌȢ¯Ö#×®ɒ5ǁǪ;_ȆhĖ5¾Ÿ#ƿ#ƾȃȂͽVW½Жȼ#ȽȨ67#ҹjkÕᐕL׉͕ǌđġ̽hŒ٦ЌЗأঞˑԹȢķjĖࡓƠȍƠрĎȏ#Ǟյơၺß\\˰Ǥ˃ʹɘPȔďÄǋǊ͐°Ŭnƹň(#Ȗ$ႉ\\ƒƓ˰௷#######kďǛѳᇔƵ҅Ѭ#֞፬Ç޷̖ȂȓȒȨ#իÕłؤ#Æ፭ʆֆ٠Ȃϭ؆՗ᢍӊߥӈᕜࡸ#ÇÇⓇ⿚ǖ###」č㓶ྣЦЧ஢ÄӏÂತőŐ㫭Ā»㪦#╙Ժϖ׌#HI######H#I#ǯǮǯǮ#ǯǮǯǮǯǮǯȔȕ#Ǯ#ʏ####$%#q######Ԅ###ȑȐ#ȑ#Ȑ######ɋӗ۾##########஢#΍#࠹#ū#Æ#ÇÆÇÆÆ##ȑ7#6ÈÆÇÆ#ÇŪ#ȑ#7#ÜÆÇ#Æ#ŭ#76⑧h⸤ǘǙǘǙǘǙǘǙǘǙǘǙǘǙǘǙǘǙǘǙǘǙǘǙǘǙǘǙǘǙǘᓕÃ#Ի´~cŧ>$čbߩ࢐#࢑#࢐#࢑ܠ¦ܷïࠂޥ࠲࣯఍ƄƅƄƅƄ#ƅ#Čƅ#ƄƅƄ̇ɻ~ʖ཈øǱäĮũƎᇟŌŞϓᵮ#੠੡੠໩Јੈ6ใЈͿ˾ɚ࢐#ধ঺छী૵<#ăXÌ´jYᜦ΀΁΀டΔΕΔӎ΀΁΀டΔΕΔӎ΀΁΀டΔΕΔӎ΀΁΀டΔΕΔӎ΀΁΀டΔΕΔӎ΀΁΀டΔΕΔӎ΀΁΀டΔΕΔӎ΀΁΀டΔΕΔЬ#΍#Ό#΍#Ό#΍#Ό#΍#Ό#΍#Ό#΍#Ό#΍#Ό#΍#ತ########ő#ŐőŐ#ő#Ő#ő#Ő#ő#Ő#őŐő#ŐőŐ#ő#Ő#ő㣡»iĀ»#º##»iĀ#»#ºԫ׈#ǚଞnᄇŹኾÑå।b:ŋ>½ڳࣞ˾ɚ࢐਻<ŀX<൯࠶ÄK#%9Ǌ#­7VÑ$ML#°7ı##¼9׈#[Z#Âǥ##ÊKÄÖ_##Kǐ#KNԯÁJKVŵL#ԀZ#ŀ·^_N়ÆÇÆÆ#ȥ6#7Ȥ###ūÆÇÆÇÆ╫#i㇔#######᱁࣯ᦌ###ЦЧ##ޘÂತ######őࠍ###Ǘ৯#ྡྷྣ#஢Ä࢘#ᚩ7ᚼ#㣏Ƹત̀Ɩ##gʗҚ`#mǊ;ÃÂ:Ûĸͮ4̿ɸȔJ×ÖK¯˞5ǁǪ;_ȆŜ¬ŸƿƾƿƾȃȂͽVW½Жȼ767#ѱk#ÕᏫ׉͕ÞĐӣŒ٦ЌΣЖਗ۰ԹĎĶïĖߧƠơƠԬďģ#Ǟյơၺß\\˰ǤÔ͵֪PȔȕǊ#͐°ŬŭŎ#Ȗ$ႉ\\ƒƓ˰௷#######kďǛ඄Ƶ҅Ѭ#֞଴ӶȃЈիÕÔؤዉʆֆ٠Ȃϭ؆՗᠝ӊߥӈᶲ#ūÆ╫⿚ǖ###」č㓶ྣЦЧౄÅЭÂತőŐ㨏āh㪦#╙Ժϖ׌#HI####H#IǯǮ#ǯǮǯǮ#ǯǮǯ#Ǯʏ#####q###Ԅ###ȑȐ#ȑȐ####ɋɊ#########஢#΍#਻#"
}