{
"boundingBox":{
"max":[
56.000251770019531,
22.19996452331543,
-1.52587890625e-05
],
"min":[
0.00029754638671875,
-22.199953079223633,
-137.40605545043945
]
},
"colors":"",
"compression":{
"compressed":true,
"compressedColorsRange":255,
"compressedUnitVectorRange":1023,
"compressedVertsRange":16383
},
"indexLengths":[
1692
],
"indexModes":[
"Triangles"
],
"indices":"#%%$$)%%%#$'%%%$$)%%%#$'%%%$$)%%%$$)%%%$$)%%%#%(>G%$F%;>$%?(7%%$$)%%%$$)%%%&'%%%%#%(+%%$$)%%%$$)%nqpohm%%&'%z(#%~%%$$)%%%%&$#+$'%%$$)%&)('*/&%#'$'%%#$'%%%#$'(''*+%%%&#$''&)('$)%%$$)%%%$$)%%%%&$+%%&)&)%%%&$+%%$$)%%%&)&)%%$$)%%%&'%%%%&'%%%%$$)%%%&'%%%%$$)%%%$$)%%%#$'#%%%%$$):=:;<?@+$#%'$9458;%$$%%&)&)%$'#%%$%%%$$)%%%$$)%%%&)&)%%$$)%%%#$'%%%&)&#)%%%%$$)$'%$&$-$$%%%%%%$$)%%%&'%$$)(+$#%%$'$'%&$%'%%%$$)%%%$'$'%%%$$)*-*$+'Ă$%ă%#%%$$$+,/0%-'%%$$)Ĉċ%$Ċ$đ%%$$)%%%%$$) £¢¡¢§¶¹¸·º¿%%#$'%%%$$)%%%%&$ĮķĺĻĶĹ%%%&'%%8()9%%69<'7ɒɗ%$ɖ%Mȯ%$Ȯ),$ȹȸȻ$'%%#$Ȭ3ȡȨȩȠ)%/$%.)ȕ%Ȍ#ȍȆȉŖ'&ŗ%ł)',-*?*$-,)īĤħĦĥĠ%ģ%ĤĥĢĥĢ%ġĠģʄʇ%$ʆ$Eƅ()Ƅ$ŷŬ$%ŭ(łȿ%$Ⱦ$?(ȟȞȡ$Ƹ'ǅ#ǄǇɚ»¸$Á(ǅƼƿƾƽɎ9§¤$­(®»ƭɄ·' «()ª$óī$%Ī'śņŉ$Ŋ'ġĊč$Ď'ĄƧƪ'ƥ%ƴƹƶ$Ʒ%Ʀȓ%Ȕ'ȏ%%%&$'''%(%%Ē$ÙȪɏɎȫȮɕƺǕ<ƾ'ǕŢťŤţǔǙŞ()ş%ɴɷɰɱɶȭkŨ+*ũ&ɮ½ºµ´»ǝŪŋŊū(ȪȡȘș$Ȗġ'%#¡ĥ%%%$$)%%$$)%%%$$)%%%$$)ȖP'&Q$(%ȟ#ȞȡľO()N(Ň%Ġ%$ġ%%%$$)%%%#$'%%%$$)%%%#$'%%%$$)%%%$$)%%%$'$'%%#%(>G%$F%7:$%;$7%%$$)%%%$$)%%%&'%%%%#%(+%%$$)%%%$$)%nqpohm%%&'%z(#%~%%$$)%%%%&$#+$'%%$$)%&)('*/&%#'$'%%#$'%%%#$'(''*+%%%&#$''&)('$)%%$$)%%%$$)%%%%&$+%%&)&)%%%&$+%%$$)%%%&)&)%%$$)%%%&'%%%%&'%%%%$$)%%%$$)%%%$$)%%%%$$)%%#$'#%%%%$$)%:%$;%8($%)'$9458;%$$%%&)&)%$'#%%$%%%$$)%%%$$)%%%&)&)%%$$)%%%#$'%%%&)&#)%%%%$$)$'%$&$-$$%%%%%%$$)%%%&'%$$)(+$#%%$'$'%&$%'%Ϧ()ϧ%%%%$$)%%%%$$)*-*$+'þ$%ÿ%#%%$$$+,/0%-'%%$$)Ąć%$Ć$č%%$$)%%%%$$)£²µ´³¶»%%#$'%%%$$)%%%%&$ĪĳĶķĲĵ%%%&'%%8()9%%69<'7Ɏɓ%$ɒ%Mȫ%$Ȫ),ȳ%$Ȳ%ȵ%%#$Ȩ3ȝȤȥȜ)%/$%.)ȑ%Ȉ#ȉȂȅŒ'&œ%ľ)',-*?*$-,)ħĠģĢġĜ%ğ%ĠġĞġĞ%ĝĜğʀʃ%$ʂ$Eƅ()Ƅ$ŷŬ$%ŭ(łȻ%$Ⱥ$?(țȚȝ$ƴ'ǁ#ǀǃɖ»¸$Á(ǁƸƻƺƹɊ9§¤$­(®»Ʃɀ·' «()ª$óħ$%Ħ'ŗłŅ$ņ'ĝĆĉ$Ċ'ĄƣƦ'ơ%ưƵƲ$Ƴ%Ƣȏ%Ȑ'ȋ%%%&$'''%(%%Ď$ÕȦɋɊȧȪɑƶǑ<ƺ'ǑŞšŠşǐǕŚ()ś%ɰɳɬɭɲȩkŤ+*ť&ɪ½ºµ´»ǙŦŇņŧ(ȦȝȔȕ$Ȓġ'%#ġ%%%$$)%%$$)%%%$$)%%%$$)ȒP'&Q$(%ț#ȚȝĺK$%J(ǆ˧Ě%$ě",
"name":"Lib_StaircaseRail1_MESH12",
"normals":"ܵʜŘЧvw»$Ъ###ȱ#ɴ#͇ɤŖϱȤȪÂ͑Ǳ#ŀX/Mц#סð<õɂʌäЁÿưÕÿºn-eĴé-Üɡ¸rĉƬ###Ū©ȡ##¤¥üõľ×'ÙМ#######į###Į#############¾ʚϑФՋ<³Ȅ̸%͙ǇðXĽ͈Ǣʥʸ˩ʤгʢ###õUü#˫#L­¬ŏ###Ք¸čČÁÝ#ÜNONԓ#å²Ί#Ǭ#12Ѕ̸͛͘¨³²Й#Ѡ#έʤϏв}#>U¤#÷ö#¥u+ögĢwϋ#######͆###͇#############ǭ###ʲTÊ#ɵQPQ###̴###ǭ#,###ż###çŗȲÃȚJʇœ?à#ēTàēĒ-#ǭ######ȹvþ.Ǳ#ú0ċƦÃs۲w46йXТ@ve6ٱwh΢˹¿=ʸŒʆKփÛڢ8Èρ̚ڧ.Ҩ##########η###Ǭ###̷ʜŘЧvw»$Ъ###ȱ#ɴ#͇ɤŖϱȤȪÂ͑Ǳ##ƪX/Mϐ#իð<õɂʌäЁÿưÕÿºn-eĴé-Üɡ¸rĉƬ###Ū©ȡ##¤¥üõľ×'ÙМ#######į###Į#############¾ʚϑФՋ<³Ȅ̸%͙ǇðXĽ͈Ǣʥʸ˩ʤгʢ###¿YÊ#˫#¬JÕ¬­Ôŷ###Ք¸čČÁ#Ý#łNONԓ#å²̚#ɜ#12Ѕ̸͛͘¨³²Й#Ѡ#έʤϏв}#>U¤#÷ö#¥u+ögĢwϋ#######͆###͇###########ǭ###ˤX#ɉONO¹###̴###ǭ#,###ż###çŗȲÃȚJʇœ4²#áP²áà-#ǭ######ȹvþ.Ǳ#ú0ċƦÃs۲w46йXТ@ve6ٱwh΢˹¿=ʸŒʆKփÛڢ8Èρ̚ڧ.Ҩ##########η###Ǭ##گƉ#Ȁӆȹ#С###Р###˵Ņ$ƨa[Fxʊ####.z###ɏ{ʦʹ»LĨȠʸ»ȡ#Í0¾Ĭ1īȷʤȇ#Ϫ#èeЗ#̺ĂăŨґƛä*ɬС%#####$Р###Р#########ࠡ###ࠖƋƊȁˋ@6SΏǦQƍ˨THyЮŭƖƷֳŮ¤ǧЎ###;`ȗ#Ɔ#°Jۭ±°ÙϢ###ȸȹʮʯ##########´A>S#####Оǧƺƍʉǜǝ####ИůŤǧЗ¦#Ãϖ§ÂÃϗĄ#ţѶ#ĄֿŘÙyˊƾֽ%######Т###Р#########ࠡ###Т###ν`ǘ#ȫT݌U×#ֳ#˪###Р#####Ɲ###Ɛ$řF3MŮ#kt#«݅uª«%$Р###˒#փ#¼̈.#ʔ4ʧȡҢэôBʔIƘ¤ՙ~Bъҫƣؒ¨{ك#ŮM؈íÑØ#ҝɊДǭ&hԙ###ʦ###########Р###گƉ#Ȁӆȹ#С###Р###˵Ņ$ƨa[Fxʊ####.z###ɏ{ʦʹ»LĨȠʸ»ȡ#Í0¾Ĭ1īȷʤȇ#Ϫ#èeЗ#̺ĂăŨґƛä*ɬС%###$%#Т###Р#########ࠡ$#%ࠖƋƊȁˋ@6SΏǦQƍ˨THyЮŭƖƷֳŮ¤ǧЎ###̢~Ǚ#Ɔ#Ø>܉ÙØõϾ###ȸȹʮʯ##########´A>S#####Оǧƺƍʉǜǝ####ИůŤǧЗ¦#Ãϖ§ÂÃϗĄ#ţѶ#ĄֿŘÙyˊƾֿ#$%##$%Т###Р#########ࠟ%Т###Ϳ~ż#ɏFޢGĉ#ֳ#˪###Р#####Ɲ###Ɛ$řF3MŮ#EN#uޡOtu#%Т###˒#փ#¼̈.#ʔ4ʧȡҢэôBʔIƘ¤ՙ~Bъҫƣؒ¨{ك#ŮM؈íÑØ#ҝɊДǭ&hԙ###ʦ###########Р##С$#%####8###΀#ª#Е(#+˖=EVçŁ#ŀՇC(<۬#ͧàÅƸGCZ[f/[ՃQ(Jµ(͘+%,ˤ###V+˕##()*2=#h6}#######Ͼ###Ͽ#############$%$%ίW-dЀºçĮӕw5׈¸¿ȭ*$+Ђ###ǅǘ#ַ#ävĹäåĸɹ###δ###Ɇü#ý÷ËÊËҩ#tWZe݂#̡#·RºjįŴfg֝#Ϥ#7*)*ɘ]#h/]hiǑ)#*+#($-89PJc9#######ʚ###ʛ#############ε###ՀŴ#Ӌ~ó###ن###ε#8###˔###˛#ʒD˅PO#ƏƠ#ȁƠȁȀ7#ε###Ď###ˈ#ͱ)Ϙ#íøãˢ˕$d#Ǣ)֭5ξ%j#Ǣ)ǝ#;̐ȣÄı#NQ#hO=#4I6ƞƛ͒###ì#######݇###δ####$#%####8###΀#ª#Е(#+˖=EVç#Ł#ЩC(<ܞ#ΙàÅƸGCZ[f/[ՃQ(Jµ(͘+%,ˤ###V+˕##()*2=#h6}#######Ͼ###Ͽ#############$%$%ίW-dЀºçĮӕw5׈¸¿ȭ*$+Ђ###řŴ#ַ#ĸtƋĸĹƊˋ###δ###Ɇ#ü#ǑËÊËҩ#tWZeނ#͡#·RºjįŴfg֝#Ϥ#7*)*ɘ]#h/]hiǑ)#*+#($-89PJc9#######ʚ###ʛ###########ε###֤Ĉ#ѱ}|}ŏ###ن###ε#8###˔###˛#ʒD˅PO#ıł#ơłơƠ7#ε###Ď###ˈ#ͱ)Ϙ#íøãˢ˕$d#Ǣ)֭5ξ%j#Ǣ)ǝ#;̐ȣÄı#NQ#hO=#4I6ƞƛ͒###ì#######݇###δ##",
"textureCoords":[
{
"UVOffsets":[
101.96059215811425,
140.03923112415751
],
"UVScales":[
6.0236796870648492e-05,
6.0064637177281416e-05
],
"UVs":"揉ʊ#ʋ৭&τ#姦ɂɃɂڝ#̣#⿕ߩߨߩ⇤Uм۝ῠ֚#֛㉅˺úȵ♸#㻫ѓђѓރΔ#ʋهԻƔψ⦌ȈÄŻǺ̗ňƖⱉӑ#Ӑ㢖´ݎvϧȎᰋߩ⋮ϠϡЂ㹃ǀǁƾԽ㖤ؕʲ΄ȘϝϜ̟㕰#˿#❟#ϝâɿ΄ؗؖع̡୷̺̠ع㈃ʋʊʋ㧞Ҏƹɵệѓђѓ⇬̘ŉƗ㝍ʋʊΕφэ#ь戾ঢ়ড়ঢ়䨓#ʕ#ᯢ#Ʊ# ưƱư༥#ݿ#⳹ϋφχ暢̣#̢ј֛֚֚⯥ǁבҖԛт΅#ឞ#媗ђ#ѓ#ђ⇣ϊϋ䊆ŕ䅱#ᦐμνμ㕒ӻ̂ɉۿѤ{̃ᒁߩߨߩ㐐#ϡC慙Ǆ#ƽԸΠヘؗ΄΅ȗϜϝ̞䣞˾˿˾䙻#Ϝãɾ΅ؖؗظ̠ଢ଼ظ#̹ῲ#㢑#䀖#ʖ#ࣝ#㬓#Ť#㢐#䱅ড়#ঢ়ဵ#ดɂ#Ƀŵ#Ŵ#亴E๹Ζ䝹%Δ#丆З#Ж₊ДЕД2#㖯#ݿ#ᨢ#ᶆ#悿&▮ƹ㽲#䲿ো৊ᛍĜ#ᦁ&'Ɠ䖴Å䓇#⃶##Īቃ#ₘ#ₙᛰѓБ#Β#ᄻ&ƾ#ਿ⠌###෻෺䆴#Ŵ#曝ಡಠಡ翘ಡಠಡܬᶇᶆᶇᕭ###⮑ʊ#ʋ৭&τ#姦ɂɃɂڝ#̣#⿕ߩߨߩ⇤Uм۝ῠ#֚#㞽˺úȵ♸#㻫ѓђѓރΔ#ʋهԻƔψ⦌ȈÄŻǺ̗ňƖⱉӑ#Ӑ㢖´ݎvϧȎᰋߩ⋮ϠϡЂ㹃ǀǁƾԽ㖤ؕʲ΄ȘϝϜ̟㕰#˿#❟#ϝâɿ΄ؗؖع̡୷̺̠ع㈃ʋʊʋ㧞Ҏƹɵệѓђѓ⇬̘ŉƗ㝍ʋʊΕφэ#ь戾ঢ়ড়ঢ়䨓#ʕ#ᯢ#Ʊ# ưƱư༥ݿݾݿ⳹ϋφχ暢#̣#ݘ֛֚֚⯥ǁבҖԛт΅#ឞ#媗ђ#ѓ#ђ⇣ϊϋ䊆ŕ䅱#ᦐμνμ㕒ӻ̂ɉۿѤ{̃ᒁߩߨߩ㐐#ϡC慙Ǆ#ƽԸΠヘؗ΄΅ȗϜϝ̞䣞˾˿˾䙻#Ϝãɾ΅ؖؗظ̠ଢ଼̢ῲ㢑#㢐ި#ʖ#ࣝ#㬓#Ť#㢐#䱅ড়#ঢ়ဵ#ดɂ#Ƀŵ#Ŵ#亴E๹Ζ䝹%Δ#丆З#Ж₊ДЕД2#㖯#ݿ#ᨢ#ᶆ#悿&▮ƹ㽲#䲿ো৊ᛍĜ#ᦁ&'Ɠ䖴Å䓇#⃶##Īቃ#ₘ#ₙᛰѓБ#Β#ᄻ&ƾ#ਿ⠌###෻෺䆴#Ŵ#曝ಡಠಡ翘ಡಠಡܬᶇᶆᶇᕭ##㗝༰༱༰༱༰༱༰ƨ╈#╉ⶍڐڑڐЅσ#ςᣂתȉā៥ڑڐڑሖٕȪҤఁڑ╞ڧ#ڦ୍˦˧˦˧#˦#એыƎ̞Ԑ¿į΀῵ΞΟΞ℈ͭຨʹω⏡#౟੤#੥᫪ᙛ#ᱬ#ࡨХ҉ዎ඿૫ટɰభڐڑڐjᕨડࡒซ࡯Ј๋#న➀ేె௉у༰#༱ၙĢƨԡฺ۝#ۜॿ¾Į΁ആ˦#˧₹ΞΟΞ喺╉#╈╉╈#╉嫹╈#╉#╈#╉#╈#╉䩤༰#༱⑍ڐڑڐڑ#ڐ#ᕺ{׎þƾυ–ڐ#ڑኤ#౹يًيᔴ˦#ࣧc᩹ΞΟΞ#Ο⬴Ƭǖ̯V˩ƞɿ☥̋#̊ȷ੤੥੤וᙚᙛᱬ#ص੸Фࢋዎ඿૫ટɰᎁڐ#ڑ⍲ᕩ૪ࡒซࢋФ๋#న➀௉ைేഔ╈╉╈#╉╈╉#╈╉╈╉╈╉╈#╉╈╉㗓╋耠╉╈╉╈╉╈╉㑕੤⛎̏⦕ᱬᱭᱬድ╊╋╊╋╊#╋ྩ╉#╈#╋㓐╊╋╊§༱ֹƨቻڑ⯜#ڡࢉ⍽Ξ ༰༱˧ǽƍᵵΞ⼎༱#˧˦༰൏ڛҸ␣#⅞ᱭᱬᱭ#ᱬصᙛ#Ꮰٻ౹ي⛜㌇姜╉╈╉╈╉#╈#╉#╈♋╋#╊㍓஬஭஬ᠶ༰༱༰༱༰༱༰ƨ╈#╉ⶍڐڑڐЅσ#ςᣂתȉā៥ڑڐڑሖٕȪҤఁڑ╞ڧ#ڦ୍˦˧˦˧#˦#એыƎ̞Ԑ¿į΀῵ΞΟΞ℈ͭຨʹω⏡#౟੤#੥᫪ᙛ#ᱬ#ࡨХ҉ዎ඿૫ટɰభڐڑڐjᕨડࡒซ࡯Ј๋#న➀ేె௉у༰#༱ၙĢƨԡฺ۝#ۜॿ¾Į΁ആ˦#˧₹ΞΟΞ喺╉#╈╉╈#╉嫹╈#╉#╈#╉╈╉#╈┾༰#༱⑍ڐڑڐڑ#ڐ#ᕺ{׎þƾυᦥڑڐڑኤ#౹يًيᔴ˦#ࣧc᩹ΞΟΞ#Ο⬴Ƭǖ̯V˩ƞɿ☥̋#̊ȷ੤੥੤וᙚᙛᱬ#ص੸Фࢋዎ඿૫ટɰᎁڐ#ڑ⍲ᕩ૪ࡒซࢋФ๋#న➀ేഔ╈╉╈#╉╈╉#╈╉╈╉╈╉╈#╉╈╉㗓╋耠╉╈╉╈╉╈╉㑕੤⛎̏⦕ᱬᱭᱬድ╊╋╊╋╊#╋ྩ╉#╈#╋㓐╊╋╊§༱ֹƨᣩڐ╮#ڡࢉ⍽Ξ ༰༱˧ǽƍᵵΞ⼎༱#˧˦༰൏ڛҸ␣#⅞ᱭᱬᱭ#ᱬصᙛ#Ꮰٻ౹ي⛜㌇姜╉╈╉╈╉#╈#╉#╈♋╋#╊㍓஬#"
}
],
"vertexCount":705,
"vertexOffsets":{
"xOffset":0.017738312110640014,
"yOffset":-1323.4564899390116,
"zOffset":-8191.5009096570311
},
"vertexScale":0.016774222082848123,
"vertices":"ݷò#ó##g#֕ബ#ഭɔ#Ľ#Ϣǐ#Ǒ#ǐ#ŋɩ´#µŮ¬ԝ#Ӧ¼K_Ŋ#óßzgzgĶŋzòɅ8ÇÒÓÒÓ°¨ķ##°±°DÓȻĈŔÒųŲıİ#ı#İ#ųd÷ŔȻȺɉįĻĺĮɇڨòóòóƺŋ#ŊJų#Ŋ{ó#òóŊŋǎ7ƻڦഭ#ബഭബ#ഭ#ബ#ഭ#ബ#ഭ#ബ#ഭݸfgf͢ļ#Ľċ³²³Ý¹ƯƺƻŊվ#Џ#įVǣŊŋŲ^ßfİ<ɟǎǏƺ6CÒķ¦CĶ³²#³²#³#§##˪ȻŒœÓŲųĮ#įĮį##ŲgöœȺȻɆİıɆ#Ĺగബഭബ#ഭബഭ#ബഭബഭബഭബ#ഭബഭബഭബഭബഭബഭബഭڨ###Ŋ#ŋ#کബഭബഭബ#ഭബഭ#ബ#ഭ#ബഭബݷ#{ĥ#ƔK_Þë9ʠ##z#{ê6ÿ##zț#{Ŋó£JŊ#Ŋ#ɳ##̺ƯŊɳ#ߎഭബഭബഭ#ബ#ഭ#ബ#ഭ#ബഭ#ബ#ᒁò#ó##i#֓ബ#ഭɒ#Ľ#Ϥǐ#Ǒ#ǐ#ōɧ#´#Üªԝ#ӦºI_Ō#óß|i|iĸō|òɅ6ÇÔÕÔÕ²¦ķ##²³²DÕȻĊŒÔųŲıİ#ı#İ#ųd÷ŒȻȺɇıĹĸİɇڨðñðñƺŋ#ŊJų#Ŋ}ñ#ðñŊŋǎ7ƻڦഭ#ബഭബ#ഭ#ബ#ഭ#ബ#ഭബഭ#ബיhih͢#ļ#ȥ³²³ß·ƯƺƻŊվ#Џ#įVǣŊŋŲ^áhĮ>ɟǎǏƺ6CÒķ¦CĶ³²#³²#³#§##˪ȻŒœÓŲųĮ#įĮį##ŲgöœȺȻɆİıİగബഭബ#ഭബഭ#ബഭബഭബഭബ#ഭബഭബഭബഭബഭബഭബഭڨ###Ŋ#ŋ#کബഭബഭബ#ഭബഭ#ബ#ഭ#ബഭബݷ#}ģ#ƒI_Þí7ʞ##|#}ì6ā##|ț#}Ōó£HŌ#Ŋ#ɵ##̺ƯŊɵ#ߐഭബഭബഭ#ബ#ഭ#ബ#ഭ#ബഭ#ബள%ʘ%ŝ#ر&'&ݚɽɼɽƁđ3Ĭ#:ĵǠ°ɼɽɼőɹÆǔŏɼőǕ_ȐǙ#ÏŊŜǚş#ǗŜǖ#ņʁʑ:ɸŏ#ɼ#Ųç̉#ɼŲųžϙ±°­ǘŏ#######ɼɽɼɽɼ#########ɽ###̄λ(ÆƯ²Ğ_Ê#ŇӢŉ$ԙò:įˏΏΎΏᏲ#ÿ#ś##ᄓ๼#ʸ#ܩşŜŝŏɼɽɼɽ#ɼ#ő#ɾ)ĊỨɼ#ɽŎ#ːğÌȑŞş####͠óĖįӷŴ#±њų®¯ϛƀ#ŵώ#ž/ћ°#­ǘŐɽ########ɼ#ɽɼ#########ɽ###ࣥ#᏾#ᑧ#þ#ÿ#ᓎ##᏿#သΎ#Ώ˂#ˇ&#'##ʥ3#ĵÏ%Ð'Ͳ)#(இ()(̥##ʸ#ૺ#੻#Д#̎ÆΥɼ¨\\ȑŝβ:ϋ##Όľ:ϋ##̔%̑ÍμÔ_з'Ò'Ζ%­##̅ǖʀÍ%$ߡ##୆҇҆҇ɽ҉҈҉੺੻੺С###ʋ%ʘ%ŝ#ر&'&ݚɽɼɽƁđ3Ĭ#:ĵǠ°ɼɽɼőɹÆǔŏɼőǕ_ȐǙ#ÏŊŜǚş#ǗŜǖ#ņʁʑ:ɸŏ#ɼ#Ųç̉#ɼŲųžϙ±°­ǘŏ#######ɼɽɼɽɼ#########ɽ###̄λ(ÆƯ²Ğ_Ê#ŇӢŉ$ԙò:įˏΏΎΏᏲ#ÿ#ś##ᄓ๼ʸʹʸܩşŜŝŏɼɽɼɽ#ɼ#ő#ɾ)ĊƯ§ɽɼɽŎ#ːğÌȑŞş####͠óĖįӷŴ#±њų®¯ϛƀ#ŵώ#ž/ћ°#­ǘŐɽ########ɼ#ɽɼ#########ɽ#ࣥ᏾#᏿#þ#ÿ#ᓎ##᏿#သΎ#Ώ˂#ˇ&#'##ʥ3#ĵÏ%Ð'Ͳ)#(இ()(̥##ʸ#ૺ#੻#Д#̎Æŋɽ̂\\ȑŝβ:ϋ##Όľ:ϋ##̔%̑ÍμÔ_з'Ò'Ζ%­##̅ǖʀÍ%$ߡ##୆҇҆҇ɽ҉҈҉੺੻੺С##⤁ӊԱ֘ԳԲԏ԰ዙשãݦѸ#U#ه˦νҒ#xŏǢ̌ǚ#ǛჼgTᅹ#႐Øđł৷|đŶ±UâF֠UD­êWӈƸǽɄᖓ÷ö÷kČџμνʹjЅ౐ߍTॲT੹ʖĺ݉ҐҒ̪ml#m#ݑޚ̫ˠҙίʖرĴӬϛϚӭՌ߾ӈ֙ाË6ÚŉĹǌω+¾ٓ¨ƥ੼Ĝǩʾṯڨ#کظکڨᴦڧ®ڦ¯؛¯ܲ¯ڧ#ڦၱԎDՕ௵ű#ŰȠɮɯɮ࿾HèËîÛᚥ#॰#തĿĂ¶Ǎ࣡ŮGԪ*ͦǤÕĜøʿᒡŞƧǘƑŞTǙ͵ʹνЄЅμ͵μƐݨޛ৖UȭࣃɼؗՀ̈́ѸŹ#ŸŹŸ#ޛ̢̈́կɽ~ЙĵϜϝ̦йӮʫکڨکˈڨعڨˉکڨکظکڨک̸ڨکڨ⥺ڨ㗇רکݦػڦܓڦ˹μ#Ŏ·তऑতྔՅڦࠋڨՅƇࠊ౶ڨዽڧ#ڦȍکڨکȣԳऄ~ృ#ࡴʦɵׅॠǼఉ԰ԱĽْ+ΈǨՏԱ#ĽȊԲ·ӿࠖĐਖ਼থऐথŊতǻޛƯဆUè·ҼΕᣝڦػڦڧڦ#ڧ#ڦ#ڧᨐڨ#کᎍкિиᕰӊԳ֘Ա԰ԏԲዛשáݦѸ#W#م˦νҒ#xŏǢ̌#ǚ#ངgTᅻ#႒Øđł৷zđŸ³SâD֢UF­êUӈƸǽɄᖓ÷ö÷kČџμνʹjЅ౎ߋTॲR੷ʖĺ݉ҐҒ̨kj#k#ݑޘ̩ˠҙίʖرĴӪϙϘӫՊ߾ӊ֛ीË4Üŉķǌω)¾ٕ¨ƥ੾Ěǧʾṯڦ#ڧضڧڦᴨک®ڨ¯؝¯ܴܵڨ#ک৭ԎFՕ௵#ű#ͮɬɭɬ࿾JèËîÝᚣ#८#ദĿĂ¸ǍࣣŮEԪ(ͦǤÓĚúʿᒣŠƩǚƓŠTǛ͵ʹνЄЅμ͵μƒݦޙ৔UȭࣁɾؙՂ͂ѸŹ#ŸŹŸ#ޙ̢͂խɿЛĵϞϟϞʭڧڦڧˈڦطڦˇکڨکضڧڦڧ̸ڦڧڦ⥼ڦ㗇רڧݦؽڨܕڨ˹μ#Ŏ·ঢएঢྔՅڨࠋڦՅƅࠊ౶ڦዻک#ڨȏڧڦڧȥԱऄ~ృ#ࡴʦɵׅॠǼఋԲԳĽْ)ΈǦՍԳ#ĽȌ԰·ӿࠖĐਜ਼ণऎণŊতǽޙƯငSè¹ҾΕᣟڨؽڨکڨ#ک#ڨ#کᨒڦ#ڧᎍиڧ"
}