{
"boundingBox":{
"max":[
0.0,
-3.0517578125e-05,
167.99996697902679
],
"min":[
-60.000038146972656,
-330.48375701904297,
2.384185791015625e-07
]
},
"colors":"",
"compression":{
"compressed":true,
"compressedColorsRange":255,
"compressedUnitVectorRange":1023,
"compressedVertsRange":16383
},
"indexLengths":[
726
],
"indexModes":[
"Triangles"
],
"indices":"#%%#%(+%%$$)%%%$$)%%%$$)%%%#$'%%%$$)%%%$$)%%%%$$)%%$$)%%%$$)%%%#%(+%%$$)%%%$$)%%%#%(+%%$$)%%%$$)%%%#%(+%%$$)%%%$$)%%%#%(+%%$$)%%%$$)%%%#$'%%%$$)%%%&'%%%%$$)%%%$$)%%%$$)%%%$$)%%%&'%%%%$$)%%%&'%%%%$$)%%%$$)%%%$$)%%%&'%%%%&'%ĤħĜĝĦĩ%%%&'%%%%&'%%%%$$)%%%&'%%%%&'%%%%$$)%%%&'%%%%&'%%%%$$)%%%$$)%%%&'%%%%$$)%%%&'%%%%$$)%%%&'%%%%$$)%%%&'%%%%&'%%%%$$)%%%&'%%%%&'%%%%$$)%%%&'%%%%$$)%%%&'%%%%$$)%%%&'%%%%&'%%%%#$'%%%$$)%%%&'%%%%$$)%%%&'%%%%$$)%%%&'%%%%&'%%%%&'%%%%&'%%%%&'%%%%&'%%%%&'%%%%&'%%%%$$)%%%$$)%%%&'%%%%$$)%%%$$)%%%&'%%%%&'%%%%&'%%%%$$)%%%$$)%%%&'%%%%$$)%%%&'%%%%$$)%%%$$)%%%&'%%%%&'%%%%&'%%%%&'%%%%$$)%%%$$)%%%&'%%%%&'%%%%$$)%%%&'%%%%$$)%%%&'%%%%&'%%%%&'%%%%$$)%%%&'%%%%&'%%%%#$'%ʰ(ʹ%%$$)ʠ(ʩ%%%$$)%%%$'$'%%$$)%%%$$)%%%&'%%%*-%%",
"name":"Lib_Bookshelf_MESH40",
"normals":"С###########Р###########################С###############################################################Р###С###У##$Р###########У###Т###У##$Р#######Р#С###############Р###С#######Р###С#######Р###С###########Р###С#######Р###С#######Р###С###########Р###С#######Р###С#######Р###С###########Р###С#######Р###С#######Р###С###########Р###С#######Р###С#######Р###С###########Р###С#######Р###С#######Р###С#######Р###С#######Р###С###########Р###С#######Р###ƻ###ʉʈ###ʉ#########################С###Р###ࠡ###Т###################################Р###С###У###Т###################Р###ࠡ$%#ࠠ###ࠡ###ࠠ###ࠡ###Т###################################Р###ࠡ##$Р#Р###ࠡ###Т###Р###С#######У###Т#######Р###С#######Р###ࠡ$%#Т#######У##$Р#######У##$Р#######Р###ࠡ$%#Т#######Р###С#######У###Т#######Р###ࠡ###Т#######Р###С#######Р###С#######Р###ࠡ###Т#######С#%#Т#######Р###С#######Р###ࠟ%##Т#######С%##Т#######У##$Р#######Р###С#######У###Т#######Р###ࠟ%##Т#######Р###С###͔###͕͕###͔#########################ࠡ###Т###################################У##$ࠞ###С###У##$Р###Р###ࠡ###ࠠ#######ࠡ###Т###########################У###Т###Р###ࠡ###ࠠ###С###У###Т#####################У###Т#######У###Т#######У###Т#######У###Т###########У###Т#######У$%#Т#######У###Т###########У###Т#######У###Т#######У$%#Т###########У###Т#######У###Т#######У###Т###########С%##Т#######У###Т#######У###Т###########У$%$Р#######У###Т#######У$%$Р#######У###Т#######У###Т###########У###Т###########УТ###Уࠠ########################",
"textureCoords":[
{
"UVOffsets":[
80.620426353111881,
164.53651508711465
],
"UVScales":[
6.0232200771288248e-05,
6.0042382643670017e-05
],
"UVs":"ₓ⵻#⵺䲗Ṧ#ṧ#ṦṧṦㆁݼݽݼ瞞#ʵ#笧ʲʳʲ㬔ʲʳʲ㬔碗碖碗#碖碗碖碗碖碗碖᳙⮧#⮦⮧⮦#⮧ℓṦ#ṧ䲖⮧#⮦䲗ṦṧṦˎ⮦#⮧⮦⮧#⮦⮧⮦#⮧#⮦#⮧⮦⮧#⮦ȢṤ#ṥ#ṤṥṤ翝###耊###䃝઒#ઓ઒ઓ#઒㕄綹綸綹㌂⪰#⪱⶞ṦṧṦ㎵ख़#क़ᠩ઒#ઓ⎎ख़#क़ਊṦ#ṧⴽ઒#ઓ¯⪰#⪱®઒#ઓᖦग़#ज़䙙碖⣗क़#ख़цઓ#઒⎶ộỘộब#ټ#྇Ộ#ộ́ជឆជ੄#֠#࿃ឆ#ជн᨟᨞᨟ࡒ׬׭׬ฝ᨞#᨟ǣ்ௌ்˞#Ҏ#ԡҐґҐڻௌ#்ȓၫၪၫˬ#ٖ#डၪ#ၫ᝶᜝᜜᜝૊#ؤ#Ⴭ᜜#᜝ₒࠫࠪࠫƲ#ծ#կծկծ܃ࡌ#ࡍ⃠ᜥᜤᜥެ#ؤ#දᜤ#ᜥ㢔ᴧᴦᴧ߮ؤإؤ෱ᴦ#ᴧ⥾੝ੜ੝ʎ#հ#֙հձհ޽੢#੣ᨰ#๫#Ѿ#ؤ#ઁ๪#๫฼#ᨛ#ਐ#ڊ#ၹᨚ#ᨛǣ#గ#РԆԇԆԉԆԇԆःఖ#గƝဏဎဏΘ܀܁܀੷ဎ#ဏѩ#კ#֪#׆#֬კ#იኗؘؙؙĎ#Ԛ#ԋԚԛԚ؃،#؍Ǒᾉᾈᾉ๶ׅׄׄᐙᾈ#ᾉᛆ#ᛛ#ॖ#֬#໡ᛚ#ᛛ㧔ᾝᾜᾝධڈډڈᐗᾜ#ᾝ㩴#᜻#߂്֭֬֬᜺#᜻ℜ࠯࠮࠯Ĥ#Ԁ#ӧ#Ԁ#ءࡊ#ࡋ⃜ᛥᛤᛥ࡮#֮#෻ᛤ#ᛥ掛#ō#㎖䲖ŋ#Ŋ䱟☜âãâƮàáàӽàáà̪áàáKŞ#şȜá΁á#竏#Խ#ӎԇԆԇ#Ԇ#ԇ(֚#֛ل盨盩盨盩盨#盩І猄#猅墰#ʇ#ḏʆ#ʇḍʆ#ʇᾋ#ӣ#ӢӣӢӣն֮֯֯Ԛ#ӣ#[֮#֯նԿԾԿӢ#ӣ#ӢӣӢӣӢӣӢӣӢ#ӣ#ն֮֯֯#֮#֯ي盨盩盨盩盨盩盨粩#ƪ#tƪƫƪ籖̳#̲篱ĳ#ʆ#ã#;ãâãA#ã#ĨïáàáƸʫ#â#ã#Ȕ#ߔ#ে#Ȕ#˨#ã#ॾͳ#Ͳଈ҅#҄ઃ#ᖰ#ጥ֓#֒೎Е#Д౱#዆#ᐹթ#ը൴Ҧ#ҧഅ#Ꮚ#ཽև#ֆආЫ#Ъ৏Ъ#Ы·#༨#ᖑП#ОᐶБ#АᏗ#ᔰ#ईֵ#ִጀ҃#҂ኩ#ᒊ#ኋ׃#ׂ੬Џ#Ў͎Ў#Џഭ#ሞ#ᔓԫ#Ԫ༖ҁ#Ҁຏ#ᒊ#ᔏ#Ձ#ႀҀ#ҁૣ#ᒊ#ና՗+զူЏ#ЎউА#Бٟ#ሞ#ᦻӘ#әᄒҁ#Ҁ௣#ᒊ#ϖѠ#ѡᑊҧ#Ҧྒྷ#ᗢ#ᖇѺ#ѻᄐЪ#ЫӭЪ#Ыݿ#Ⴞ#ៅ˹#˸രЎ#Џ೛#ᝮ#ᨅٸ#ٹጶҁ#Ҁಟፄፅፄᅍׇ#׆עБ#А٘Ў#Џ்#ᄀ#Ꭻ׹#׸௤Ҁ#ҁ୿#ፄ#ӦԴ#Ե຾З#Жि#ደ#ᙋͭ#ͬର҄#҅ુ#ᗚ#ᣃ֞#֟ሤҀ#ҁ౓#ደ#ჵң#ҢࣲБ#А٨Џ#Ў໱#Ⴌ#ፇ֟#֞త҃#҂௏#ደ#皅盨盩盨磉Ȃ盨盩盨筑Ďǈ#ǉâ#ǈ#ʉǈ#ǉʈş#Şʉ#â###Ĉâã"
}
],
"vertexCount":481,
"vertexOffsets":{
"xOffset":-1487.1846117323057,
"yOffset":-8191.500756420729,
"zOffset":5.9095369426663518e-06
},
"vertexScale":0.040344714216134392,
"vertices":"ு#ૺ#ૻ঴঵঴঵঴#঵ä###૾###########é###########ਹ#ਸ#ਹਸਹਸਹ૾૿૾૿#ਸ#ਹ૾#૿#૾૿૾૿#ਸ#ਹਸਹਸਹਸਹਸਹ#ਸ#ਹ૾૿૾૿૾#૿ਸ#ũ##Ũ#ũ঵ૺ#ૻ#ૺ#ૻૺ####èéèȯ###঵঴#঵ૺૻ#ૺૻ঴#঵঴###Ũૻ#ૺ####ૻૺ#ૻ঴঵#঴Ȯ#ு঴#঵ૺૻ#ૺ¹ड#ठडठ#डठ###ĉ࠻#࠺#࠻#࠺####Ŋॣ#ॢ#ॣ#ॢ####ġࡥ#ࡤࡥࡤ#ࡥ#ࡤ#ࡥࡤ###[࠭#ࠬ#࠭#ࠬ####Čग#ख#ग#ख####č࠭#ࠬ࠭ࠬ#࠭#ࠬ#࠭ࠬ###Čग#खगख#गख#####ग##ख#गख###č࠭#ࠬ࠭ࠬ#࠭#ࠬ#࠭ࠬ###࠭ख#ग#ख#गख###गॢ#ॣ#ॢ#ॣॢ###ॣࡤ#ࡥࡤࡥ#ࡤࡥࡤ#ࡥࡤ###[࠭#ࠬ࠭ࠬ#࠭ࠬ###࠭ख#ग#ख#गख###č࠭#ࠬ࠭ࠬ#࠭#ࠬ#࠭ࠬ###Čग#खगख#गख###ग࠺#࠻࠺࠻#࠺####Ĉड#ठ#ड#ठ####डख#ग#ख#गख###č࠭#ࠬ࠭ࠬ#࠭ࠬ࠭#ࠬ####Čग#खगख#गख###ƈ#é#èéè#éèéèéèéèéèéèéèéũ#ŨũŨ#ũȮéèé#·㻹#㻸####㻹###Ŭ㱦㱧㱦㶱#Ŭ#㶮ūŪūᶡūŪūᶡ㱦㱧㱦#㱧㱦㱧㱦㱧㱦㱧㱮㱯#㱮#㱯#㱮㱯###㱮㱯#㱮ự###Ự㱯#㱮#㱯#㱮#㱯#㱮#㱯#㱮#㱯#㱮ᶩ###ᶠ###Ǿ###䀡###㾌###㻹####㻸㻹㻸㻹㻸#㻹㾌·#¶##·##¶·¶㾍#·##¶·¶·¶·¶㻸㻹#㻸㻹###·###㹄㱧㹂###·###㶭ႪႫႪ#####Ⴋ#Ⴊಸಹಸಹ###ಸಹ#ಸŜภมภ#####ม#ภl٪٫٪####٫###٪٫#٪^ࣦࣦࣧࣧ###ࣦࣧ#ࣦ౿ಀಁಀಁ###ಀಁ#ಀᄧ҆҇҆####҇###҆҇#҆ᄛ಄ಅ಄#####ಅ#಄ᵏ࿀࿁࿀࿁###࿀࿁#࿀ᖝ֨֩֨####֩###֨֩#֨ඵ#ߒ######ߓ#ߒߝ#พ######ฟ#พl#ڐ#####ڑ###ڐڑ#ڐhࢴࢵࢴࢵ###ࢴࢵ#ࢴŞ#ढ#####णढ#णॄ͓͒͒####͓###͓͒#͒rᄊᄋᄊᄋ###ᄊᄋ#ᄊౡ#౞#౟###౞౟#౞ᶱᄔᄕᄔ#####ᄕ#ᄔế#ಐ#಑###ಐ಑#ಐᄹ҈҉҈####҉###҈҉#҈ჹౢౣౢ#####ౣ#ౢㅴ#¶#·㾍¶#·¶′ū#ŪỨ#ū#㱧ŭ#Ŭŭ·¶·䀠#·###㻹·¶⁃###ÄỐ#ố#ỐốỐ#ố#ỐΊῚΊῚΊῚ#ΊĬỐ#ốៈ#Ç#ࠟÄ#ÅࠡÆ#Çလ###ݽ###࿋Ố#ốܪ###ܫỐốỐố###༨###ݽ###လ###ܪ###ốỐ#ố#ỐốỐΊῚΊῚΊῚΊῚ##ò#óòóò#ó#ò₫###ĬỐốỐố###ĭ###Ĭ####Ố#ốĭ#######Ĭ###ĭ#Ĭ#ĭ##Ť#####ڈ#ډ#ڈ#֭#####֬#֭#֬#׹####׸׹׸׹#׸#ҙ#####Ҙ#ҙҘҙҘҙ#Ҙ#٣#####٢#٣#٢#Ȋ#####ذ#ر#ذ#չ#####ո#չոչոչ#ո#ر#####ذ#ر#ذ#ر####ذرذر#ذ#չ#####ո#չոչոչ#ո#ر#####ذ#ر#ذ#Ʋ#####ږ#ڗ#ږ#ԑ####ԐԑԐԑԐԑԐԑ#Ԑ#܍####܌܍܌܍#܌#ב#####א#באבאԥ#####Ԥ#ԥԤԥԤԥ#Ԥ#ב####אבאב#א#Ȱ#####ָ#ֹ#ָ#ڕ####ڔڕڔڕ#ڔ#ֹ####ָָֹֹ#ָ#ԍ#####Ԍ#ԍ#Ԍ#ԍ#Ԍ#ֹ#####ָ#ֹ#ָ#ῑῚΊῚΊ#ῚΊῚΊῚ########################"
}